{
  "_id": "wKfZAs85tvd6gN0b",
  "name": "+1 Ranged Weapon Special Abilities",
  "permission": {
    "default": 0
  },
  "flags": {},
  "description": "",
  "results": [
    {
      "_id": "f5pGTejCw0VPEHzo",
      "flags": {},
      "type": 0,
      "text": "Adaptive",
      "img": "icons/svg/d20-black.svg",
      "resultId": "",
      "weight": 1,
      "range": [1, 1],
      "drawn": false
    },
    {
      "_id": "igE4BxPrJVOQdren",
      "flags": {},
      "type": 0,
      "text": "Impervious",
      "img": "icons/svg/d20-black.svg",
      "resultId": "",
      "weight": 1,
      "range": [2, 2],
      "drawn": false
    },
    {
      "_id": "PhsdfkdzgepNaDys",
      "flags": {},
      "type": 0,
      "text": "Glamered",
      "img": "icons/svg/d20-black.svg",
      "resultId": "",
      "weight": 1,
      "range": [3, 3],
      "drawn": false
    },
    {
      "_id": "XIbzf8G8IFb55lcb",
      "flags": {},
      "type": 0,
      "text": "Allying",
      "img": "icons/svg/d20-black.svg",
      "resultId": "",
      "weight": 3,
      "range": [4, 6],
      "drawn": false
    },
    {
      "_id": "2r4SwRZ75sUCHf8Y",
      "flags": {},
      "type": 2,
      "text": "Bane Subtypes",
      "collection": "pf1.ultimate-equipment",
      "resultId": "9KbFFApRPfwhlQjF",
      "weight": 9,
      "range": [7, 15],
      "drawn": false
    },
    {
      "_id": "7YK7sBlcU9mCkv5Z",
      "flags": {},
      "type": 0,
      "text": "Called",
      "img": "icons/svg/d20-black.svg",
      "resultId": "",
      "weight": 1,
      "range": [16, 16],
      "drawn": false
    },
    {
      "_id": "pmNN59rnYT69ExFw",
      "flags": {},
      "type": 0,
      "text": "Conductive",
      "img": "icons/svg/d20-black.svg",
      "resultId": "",
      "weight": 3,
      "range": [17, 19],
      "drawn": false
    },
    {
      "_id": "HyqONp7yLunnsqMx",
      "flags": {},
      "type": 0,
      "text": "Conserving",
      "img": "icons/svg/d20-black.svg",
      "resultId": "",
      "weight": 1,
      "range": [20, 20],
      "drawn": false
    },
    {
      "_id": "oXiec8P63VDPRnAx",
      "flags": {},
      "type": 0,
      "text": "Corrosive",
      "img": "icons/svg/d20-black.svg",
      "resultId": "",
      "weight": 4,
      "range": [21, 24],
      "drawn": false
    },
    {
      "_id": "r0keTCiLDl4yMLLH",
      "flags": {},
      "type": 0,
      "text": "Cruel",
      "img": "icons/svg/d20-black.svg",
      "resultId": "",
      "weight": 1,
      "range": [25, 25],
      "drawn": false
    },
    {
      "_id": "zq2OAvqlSMwC9Zif",
      "flags": {},
      "type": 0,
      "text": "Cunning",
      "img": "icons/svg/d20-black.svg",
      "resultId": "",
      "weight": 3,
      "range": [26, 28],
      "drawn": false
    },
    {
      "_id": "nrDvLgF1feuH4xgG",
      "flags": {},
      "type": 0,
      "text": "Distance",
      "img": "icons/svg/d20-black.svg",
      "resultId": "",
      "weight": 8,
      "range": [29, 36],
      "drawn": false
    },
    {
      "_id": "hiu2cOfQ0Lp1kJUz",
      "flags": {},
      "type": 0,
      "text": "Flaming",
      "img": "icons/svg/d20-black.svg",
      "resultId": "",
      "weight": 9,
      "range": [37, 45],
      "drawn": false
    },
    {
      "_id": "jXmqCwTM3Gn46KeD",
      "flags": {},
      "type": 0,
      "text": "Frost",
      "img": "icons/svg/d20-black.svg",
      "resultId": "",
      "weight": 9,
      "range": [46, 54],
      "drawn": false
    },
    {
      "_id": "c5cS9G6w4kjQX7ki",
      "flags": {},
      "type": 0,
      "text": "Huntsman",
      "img": "icons/svg/d20-black.svg",
      "resultId": "",
      "weight": 4,
      "range": [55, 58],
      "drawn": false
    },
    {
      "_id": "7K3pXebHJnq9WpPR",
      "flags": {},
      "type": 0,
      "text": "Jurist",
      "img": "icons/svg/d20-black.svg",
      "resultId": "",
      "weight": 4,
      "range": [59, 62],
      "drawn": false
    },
    {
      "_id": "po4x9Qn0pdcxI8RE",
      "flags": {},
      "type": 0,
      "text": "Limning",
      "img": "icons/svg/d20-black.svg",
      "resultId": "",
      "weight": 1,
      "range": [63, 63],
      "drawn": false
    },
    {
      "_id": "Fgmm15lkOTMR410q",
      "flags": {},
      "type": 0,
      "text": "Lucky",
      "img": "icons/svg/d20-black.svg",
      "resultId": "",
      "weight": 1,
      "range": [64, 64],
      "drawn": false
    },
    {
      "_id": "kSzg0EWXHsk1n3Qk",
      "flags": {},
      "type": 0,
      "text": "Merciful",
      "img": "icons/svg/d20-black.svg",
      "resultId": "",
      "weight": 2,
      "range": [65, 66],
      "drawn": false
    },
    {
      "_id": "2LTBS16I7cw2mSEv",
      "flags": {},
      "type": 0,
      "text": "Planar",
      "img": "icons/svg/d20-black.svg",
      "resultId": "",
      "weight": 1,
      "range": [67, 67],
      "drawn": false
    },
    {
      "_id": "a5Gw9FOOP93ioC8Z",
      "flags": {},
      "type": 0,
      "text": "Reliable",
      "img": "icons/svg/d20-black.svg",
      "resultId": "",
      "weight": 1,
      "range": [68, 68],
      "drawn": false
    },
    {
      "_id": "23wyDlSXroac6q8Z",
      "flags": {},
      "type": 0,
      "text": "Returning",
      "img": "icons/svg/d20-black.svg",
      "resultId": "",
      "weight": 8,
      "range": [69, 76],
      "drawn": false
    },
    {
      "_id": "ZQgEm7srQnefjt0b",
      "flags": {},
      "type": 0,
      "text": "Seeking",
      "img": "icons/svg/d20-black.svg",
      "resultId": "",
      "weight": 8,
      "range": [77, 84],
      "drawn": false
    },
    {
      "_id": "2TiOksdQymTalLBX",
      "flags": {},
      "type": 0,
      "text": "Shock",
      "img": "icons/svg/d20-black.svg",
      "resultId": "",
      "weight": 8,
      "range": [85, 92],
      "drawn": false
    },
    {
      "_id": "9knk4p7I6794t0eC",
      "flags": {},
      "type": 0,
      "text": "Thundering",
      "img": "icons/svg/d20-black.svg",
      "resultId": "",
      "weight": 8,
      "range": [93, 100],
      "drawn": false
    }
  ],
  "formula": "1d100",
  "replacement": true,
  "displayRoll": true
}
