{
  "name": "+3 Weapon Special Abilities",
  "permission": {
    "default": 0
  },
  "flags": {},
  "description": "",
  "results": [
    {
      "_id": "9iEdD0WawbOmcAg7",
      "flags": {},
      "type": 0,
      "text": "Nullifying",
      "weight": 20,
      "range": [1, 20],
      "drawn": false
    },
    {
      "_id": "30iRqpHxCCOWHuIo",
      "flags": {},
      "type": 0,
      "text": "Repositioning",
      "weight": 20,
      "range": [21, 40],
      "drawn": false
    },
    {
      "_id": "A0bYRYgZe5z6ZQXR",
      "flags": {},
      "type": 0,
      "text": "Speed",
      "weight": 40,
      "range": [41, 80],
      "drawn": false
    },
    {
      "_id": "cJn4IQ4se6P3KXq8",
      "flags": {},
      "type": 0,
      "text": "Spellstealing",
      "weight": 20,
      "range": [81, 100],
      "drawn": false
    }
  ],
  "formula": "1d100",
  "replacement": true,
  "displayRoll": true,
  "_id": "Z0DNpUSpACio9cau"
}
