{
  "name": "+4 Ammunition Special Abilities",
  "permission": {
    "default": 0
  },
  "flags": {},
  "description": "",
  "results": [
    {
      "_id": "9pklbCgDdfQ0xa7z",
      "flags": {},
      "type": 0,
      "text": "Brilliant Energy",
      "weight": 66,
      "range": [1, 66],
      "drawn": false
    },
    {
      "_id": "EIOKzeWR1kyUI5Gl",
      "flags": {},
      "type": 0,
      "text": "Designating, Greater",
      "weight": 34,
      "range": [67, 100],
      "drawn": false
    }
  ],
  "formula": "1d100",
  "replacement": true,
  "displayRoll": true,
  "_id": "dExpiqaOwkbTr2NL"
}
