{
  "name": "Common Level 8 Divine Scrolls",
  "permission": {
    "default": 0
  },
  "flags": {},
  "description": "",
  "results": [
    {
      "_id": "RBPaF2q6XTdZrKOm",
      "flags": {},
      "type": 0,
      "text": "Scroll of Antimagic Field",
      "img": "icons/svg/d20-black.svg",
      "resultId": "",
      "weight": 8,
      "range": [1, 8],
      "drawn": false
    },
    {
      "_id": "erawzVuFAS2Jw0Mr",
      "flags": {},
      "type": 0,
      "text": "Scroll of Cloak of Chaos",
      "img": "icons/svg/d20-black.svg",
      "resultId": "",
      "weight": 6,
      "range": [9, 14],
      "drawn": false
    },
    {
      "_id": "07QwTRsVlAHtl6tf",
      "flags": {},
      "type": 0,
      "text": "Scroll of Cure Critical Wounds, Mass",
      "img": "icons/svg/d20-black.svg",
      "resultId": "",
      "weight": 9,
      "range": [15, 23],
      "drawn": false
    },
    {
      "_id": "2vgLex4BDxF0loh8",
      "flags": {},
      "type": 0,
      "text": "Scroll of Earthquake",
      "img": "icons/svg/d20-black.svg",
      "resultId": "",
      "weight": 8,
      "range": [24, 31],
      "drawn": false
    },
    {
      "_id": "KCemlTZreAIReC1g",
      "flags": {},
      "type": 0,
      "text": "Scroll of Finger of Death",
      "img": "icons/svg/d20-black.svg",
      "resultId": "",
      "weight": 7,
      "range": [32, 38],
      "drawn": false
    },
    {
      "_id": "9ovPMOuD7eODK1Sp",
      "flags": {},
      "type": 0,
      "text": "Scroll of Holy Aura",
      "img": "icons/svg/d20-black.svg",
      "resultId": "",
      "weight": 6,
      "range": [39, 44],
      "drawn": false
    },
    {
      "_id": "KpoiZkeVVkbjCTD9",
      "flags": {},
      "type": 0,
      "text": "Scroll of Inflict Critical Wounds, Mass",
      "img": "icons/svg/d20-black.svg",
      "resultId": "",
      "weight": 7,
      "range": [45, 51],
      "drawn": false
    },
    {
      "_id": "RXkcWWRsUrdzLn5m",
      "flags": {},
      "type": 0,
      "text": "Scroll of Reverse Gravity",
      "img": "icons/svg/d20-black.svg",
      "resultId": "",
      "weight": 8,
      "range": [52, 59],
      "drawn": false
    },
    {
      "_id": "DsgyDNSGX3KCVgOc",
      "flags": {},
      "type": 0,
      "text": "Scroll of Shield of Law",
      "img": "icons/svg/d20-black.svg",
      "resultId": "",
      "weight": 6,
      "range": [60, 65],
      "drawn": false
    },
    {
      "_id": "zTPgULGF7yGj5R2U",
      "flags": {},
      "type": 0,
      "text": "Scroll of Spell Immunity, Greater",
      "img": "icons/svg/d20-black.svg",
      "resultId": "",
      "weight": 8,
      "range": [66, 73],
      "drawn": false
    },
    {
      "_id": "kZh2Pt1LZ6pI3bwU",
      "flags": {},
      "type": 0,
      "text": "Scroll of Summon Monster VIII",
      "img": "icons/svg/d20-black.svg",
      "resultId": "",
      "weight": 5,
      "range": [74, 78],
      "drawn": false
    },
    {
      "_id": "EGYyIWVduzr3rsUn",
      "flags": {},
      "type": 0,
      "text": "Scroll of Summon Nature's Ally VIII",
      "img": "icons/svg/d20-black.svg",
      "resultId": "",
      "weight": 5,
      "range": [79, 83],
      "drawn": false
    },
    {
      "_id": "3swrHlYKyZt9daqO",
      "flags": {},
      "type": 0,
      "text": "Scroll of Sunburst",
      "img": "icons/svg/d20-black.svg",
      "resultId": "",
      "weight": 6,
      "range": [84, 89],
      "drawn": false
    },
    {
      "_id": "QKtIPM4WOAfZqnSQ",
      "flags": {},
      "type": 0,
      "text": "Scroll of Unholy Aura",
      "img": "icons/svg/d20-black.svg",
      "resultId": "",
      "weight": 6,
      "range": [90, 95],
      "drawn": false
    },
    {
      "_id": "3Mj6QeiMkLf6G8Ii",
      "flags": {},
      "type": 0,
      "text": "Scroll of Planar Ally, Greater",
      "img": "icons/svg/d20-black.svg",
      "resultId": "",
      "weight": 5,
      "range": [96, 100],
      "drawn": false
    }
  ],
  "formula": "1d100",
  "replacement": true,
  "displayRoll": true,
  "_id": "aZuyEx9fl73CVy60"
}
