{
  "name": "Greater Minor Shoulders",
  "permission": {
    "default": 0
  },
  "flags": {},
  "description": "",
  "results": [
    {
      "_id": "eFB3e10WlNOw65PG",
      "flags": {},
      "type": 0,
      "text": "\tCloak of Resistance +2",
      "weight": 26,
      "range": [1, 26],
      "drawn": false
    },
    {
      "_id": "qimlFfiX5MkKg3Rc",
      "flags": {},
      "type": 0,
      "text": "\tCloak of the Scuttling Rat",
      "weight": 12,
      "range": [27, 38],
      "drawn": false
    },
    {
      "_id": "tzbU7oj80ZYKOpe3",
      "flags": {},
      "type": 0,
      "text": "Seafoam Shawl",
      "weight": 1,
      "range": [39, 39],
      "drawn": false
    },
    {
      "_id": "C776gY8sEsmWwIfK",
      "flags": {},
      "type": 0,
      "text": "\tTreeform Cloak",
      "weight": 13,
      "range": [40, 52],
      "drawn": false
    },
    {
      "_id": "nrsAnl9KuPStr7gy",
      "flags": {},
      "type": 0,
      "text": "\tEagle Cape",
      "weight": 22,
      "range": [53, 74],
      "drawn": false
    },
    {
      "_id": "ndWYnpIvl8vgrWko",
      "flags": {},
      "type": 0,
      "text": "\tCloak of the Manta Ray",
      "weight": 20,
      "range": [75, 94],
      "drawn": false
    },
    {
      "_id": "ALYdSRvCSzIZKxTy",
      "flags": {},
      "type": 0,
      "text": "\tHunter's Cloak",
      "weight": 6,
      "range": [95, 100],
      "drawn": false
    }
  ],
  "formula": "1d100",
  "replacement": true,
  "displayRoll": true,
  "_id": "dIkcjn6YYc4Agi2S"
}
