{
  "name": "Greater Major Rods",
  "permission": {
    "default": 0
  },
  "flags": {},
  "description": "",
  "results": [
    {
      "_id": "NNudXNppQvdpz7oV",
      "flags": {},
      "type": 0,
      "text": "Rod of Absorption",
      "weight": 8,
      "range": [1, 8],
      "drawn": false
    },
    {
      "_id": "4Id8Xe5c5wMSTLQH",
      "flags": {},
      "type": 0,
      "text": "Rod of Flailing",
      "weight": 3,
      "range": [9, 11],
      "drawn": false
    },
    {
      "_id": "OrmsTgknIDS3O9WZ",
      "flags": {},
      "type": 0,
      "text": "Rod of Dazing Metamagic",
      "weight": 15,
      "range": [12, 26],
      "drawn": false
    },
    {
      "_id": "93rQ1Dl38xKzuP1g",
      "flags": {},
      "type": 0,
      "text": "Rod of Rulership",
      "weight": 2,
      "range": [27, 28],
      "drawn": false
    },
    {
      "_id": "KBFcRmcDSymULbFo",
      "flags": {},
      "type": 0,
      "text": "Rod of Security",
      "weight": 2,
      "range": [29, 30],
      "drawn": false
    },
    {
      "_id": "nH9ce6qMRp3A0cGG",
      "flags": {},
      "type": 0,
      "text": "Rod of Shadows",
      "weight": 2,
      "range": [31, 32],
      "drawn": false
    },
    {
      "_id": "AtognnQNQJ0rrOO4",
      "flags": {},
      "type": 0,
      "text": "Rod of Mind Mastery",
      "weight": 2,
      "range": [33, 34],
      "drawn": false
    },
    {
      "_id": "HbFwvnDwDHuTY2j0",
      "flags": {},
      "type": 0,
      "text": "Rod of Lordly Might",
      "weight": 3,
      "range": [35, 37],
      "drawn": false
    },
    {
      "_id": "jnAgJ5GleFDITsPb",
      "flags": {},
      "type": 0,
      "text": "Rod of Greater Thanatopic Metamagic",
      "weight": 20,
      "range": [38, 57],
      "drawn": false
    },
    {
      "_id": "3kPwOT1FxdRJUE2d",
      "flags": {},
      "type": 0,
      "text": "Scepter of Heaven",
      "weight": 1,
      "range": [58, 58],
      "drawn": false
    },
    {
      "_id": "v0oW25r3uylYD8NX",
      "flags": {},
      "type": 0,
      "text": "Rod of Quicken Metamagic",
      "weight": 10,
      "range": [59, 68],
      "drawn": false
    },
    {
      "_id": "9fkgJbGyIA7MVliC",
      "flags": {},
      "type": 0,
      "text": "Rod of Dwarven Might",
      "weight": 2,
      "range": [69, 70],
      "drawn": false
    },
    {
      "_id": "9LEPdIaEtFziQ3Qu",
      "flags": {},
      "type": 0,
      "text": "Rod of Alertness",
      "weight": 5,
      "range": [71, 75],
      "drawn": false
    },
    {
      "_id": "dAv39xoBEWlyepMq",
      "flags": {},
      "type": 0,
      "text": "Rod of Greater Dazing Metamagic",
      "weight": 20,
      "range": [76, 95],
      "drawn": false
    },
    {
      "_id": "FzquZcBHU1l2tLEH",
      "flags": {},
      "type": 0,
      "text": "Rod of Greater Quicken Metamagic",
      "weight": 5,
      "range": [96, 100],
      "drawn": false
    }
  ],
  "formula": "1d100",
  "replacement": true,
  "displayRoll": true,
  "_id": "cn0qQN5GTbSrDp2m"
}
