{
  "_id": "qrNomo1XETstmGXN",
  "name": "Greater Medium Weapon",
  "permission": {
    "default": 0
  },
  "flags": {},
  "description": "",
  "results": [
    {
      "_id": "iDQ3VjKBbeXZzDLP",
      "flags": {},
      "type": 0,
      "text": "+2",
      "img": "icons/svg/d20-black.svg",
      "resultId": "",
      "weight": 10,
      "range": [1, 7],
      "drawn": false
    },
    {
      "_id": "s2IXVhkoq5tcxF3C",
      "flags": {},
      "type": 2,
      "text": "Weapon Type",
      "img": "icons/svg/d20-black.svg",
      "collection": "pf1.ultimate-equipment",
      "resultId": "RwcA3WdbaYSp3xze",
      "weight": 20,
      "range": [1, 50],
      "drawn": false
    },
    {
      "_id": "a78kneMwVSOWaqx9",
      "flags": {},
      "type": 0,
      "text": "+3",
      "img": "icons/svg/d20-black.svg",
      "resultId": "",
      "weight": 12,
      "range": [8, 14],
      "drawn": false
    },
    {
      "_id": "tUZz1wIJTR8XWHFN",
      "flags": {},
      "type": 0,
      "text": "+1, with one +1 special ability:",
      "img": "icons/svg/d20-black.svg",
      "resultId": "",
      "weight": 10,
      "range": [15, 21],
      "drawn": false
    },
    {
      "_id": "wDSpnhqfOMNsrZ95",
      "flags": {},
      "type": 2,
      "text": "+1 Weapon Special Ability",
      "img": "icons/svg/d20-black.svg",
      "collection": "pf1.ultimate-equipment",
      "resultId": "TYiIMLFmg8vY5SzD",
      "weight": 20,
      "range": [15, 35],
      "drawn": false
    },
    {
      "_id": "iORN4mpBElAyQ7VM",
      "flags": {},
      "type": 0,
      "text": "+2, with one +1 special ability:",
      "img": "icons/svg/d20-black.svg",
      "resultId": "",
      "weight": 12,
      "range": [22, 28],
      "drawn": false
    },
    {
      "_id": "zfgxdRKf0g2rtHco",
      "flags": {},
      "type": 0,
      "text": "+3, with one +1 special ability:",
      "img": "icons/svg/d20-black.svg",
      "resultId": "",
      "weight": 12,
      "range": [29, 35],
      "drawn": false
    },
    {
      "_id": "rj6QOEwvmspkVnMA",
      "flags": {},
      "type": 0,
      "text": "+1, with one +2 special ability:",
      "img": "icons/svg/d20-black.svg",
      "resultId": "",
      "weight": 12,
      "range": [36, 42],
      "drawn": false
    },
    {
      "_id": "p4dJJ49QpET8WGTY",
      "flags": {},
      "type": 2,
      "text": "+2 Weapon Special Abilities",
      "img": "icons/svg/d20-black.svg",
      "collection": "pf1.ultimate-equipment",
      "resultId": "SRngNw1UlfWrcahB",
      "weight": 20,
      "range": [36, 50],
      "drawn": false
    },
    {
      "_id": "lvMAWmzXqlEMxlus",
      "flags": {},
      "type": 0,
      "text": "+2, with one +2 special ability:",
      "img": "icons/svg/d20-black.svg",
      "resultId": "",
      "weight": 12,
      "range": [43, 50],
      "drawn": false
    },
    {
      "_id": "XRzyak1RNujigdzm",
      "flags": {},
      "type": 2,
      "text": "Ranged",
      "img": "icons/svg/d20-black.svg",
      "collection": "pf1.ultimate-equipment",
      "resultId": "QMDELLppsdz5zS7S",
      "weight": 20,
      "range": [51, 70],
      "drawn": false
    },
    {
      "_id": "OeZfETei5n1VEPBm",
      "flags": {},
      "type": 0,
      "text": "+2",
      "img": "icons/svg/d20-black.svg",
      "resultId": "",
      "weight": 20,
      "range": [51, 53],
      "drawn": false
    },
    {
      "_id": "bvfgLSexaKFQafr3",
      "flags": {},
      "type": 0,
      "text": "+3",
      "img": "icons/svg/d20-black.svg",
      "resultId": "",
      "weight": 20,
      "range": [54, 56],
      "drawn": false
    },
    {
      "_id": "7iGjWQAYmAnQMATd",
      "flags": {},
      "type": 0,
      "text": "+1, with one +1 special ability:",
      "img": "icons/svg/d20-black.svg",
      "resultId": "",
      "weight": 20,
      "range": [57, 59],
      "drawn": false
    },
    {
      "_id": "g3R4N2uSzeb9POEt",
      "flags": {},
      "type": 2,
      "text": "+1 Ranged Weapon Special Abilities",
      "img": "icons/svg/d20-black.svg",
      "collection": "pf1.ultimate-equipment",
      "resultId": "wKfZAs85tvd6gN0b",
      "weight": 20,
      "range": [57, 65],
      "drawn": false
    },
    {
      "_id": "2EGk9Dp9Ms5yIVNU",
      "flags": {},
      "type": 0,
      "text": "+2, with one +1 special ability:",
      "img": "icons/svg/d20-black.svg",
      "resultId": "",
      "weight": 20,
      "range": [60, 62],
      "drawn": false
    },
    {
      "_id": "yVNym3qdgCUVph4z",
      "flags": {},
      "type": 0,
      "text": "+3, with one +1 special ability:",
      "img": "icons/svg/d20-black.svg",
      "resultId": "",
      "weight": 20,
      "range": [63, 65],
      "drawn": false
    },
    {
      "_id": "6h2gHNQdjcTzhHsI",
      "flags": {},
      "type": 0,
      "text": "+1, with one +2 special ability:",
      "img": "icons/svg/d20-black.svg",
      "resultId": "",
      "weight": 20,
      "range": [66, 68],
      "drawn": false
    },
    {
      "_id": "AnonJSv4CfgwsusV",
      "flags": {},
      "type": 2,
      "text": "+2 Ranged Weapon Special Abilities",
      "img": "icons/svg/d20-black.svg",
      "collection": "pf1.ultimate-equipment",
      "resultId": "XEeC6Vz3hlDl4Tn2",
      "weight": 20,
      "range": [66, 70],
      "drawn": false
    },
    {
      "_id": "ny5VB8T6AJ8WzzzE",
      "flags": {},
      "type": 0,
      "text": "+2, with one +2 special ability:",
      "img": "icons/svg/d20-black.svg",
      "resultId": "",
      "weight": 20,
      "range": [69, 70],
      "drawn": false
    },
    {
      "_id": "6R4mKnPaMTJTY7m8",
      "flags": {},
      "type": 2,
      "text": "Ammunition",
      "img": "icons/svg/d20-black.svg",
      "collection": "pf1.ultimate-equipment",
      "resultId": "HIi7oxxt0rIhvNA6",
      "weight": 20,
      "range": [71, 80],
      "drawn": false
    },
    {
      "_id": "AVOytUvGpk8jCkJ0",
      "flags": {},
      "type": 0,
      "text": "+2",
      "img": "icons/svg/d20-black.svg",
      "resultId": "",
      "weight": 20,
      "range": [71, 72],
      "drawn": false
    },
    {
      "_id": "V947DkuXYl9qe5Uv",
      "flags": {},
      "type": 0,
      "text": "+3",
      "img": "icons/svg/d20-black.svg",
      "resultId": "",
      "weight": 20,
      "range": [73, 74],
      "drawn": false
    },
    {
      "_id": "C3wKQlMpaQI7O6zk",
      "flags": {},
      "type": 0,
      "text": "+1, with one +1 special ability:",
      "img": "icons/svg/d20-black.svg",
      "resultId": "",
      "weight": 20,
      "range": [75, 76],
      "drawn": false
    },
    {
      "_id": "FSt9o3e9wGbFdPTF",
      "flags": {},
      "type": 2,
      "text": "+1 Ammunition Special Abilities",
      "img": "icons/svg/d20-black.svg",
      "collection": "pf1.ultimate-equipment",
      "resultId": "y7aKImUJ8DQV1UaB",
      "weight": 20,
      "range": [75, 78],
      "drawn": false
    },
    {
      "_id": "zQdeweFxj943UOp4",
      "flags": {},
      "type": 0,
      "text": "+2, with one +1 special ability:",
      "img": "icons/svg/d20-black.svg",
      "resultId": "",
      "weight": 20,
      "range": [77, 77],
      "drawn": false
    },
    {
      "_id": "OqdKxLtwIF6nbZuF",
      "flags": {},
      "type": 0,
      "text": "+3, with one +1 special ability:",
      "img": "icons/svg/d20-black.svg",
      "resultId": "",
      "weight": 20,
      "range": [78, 78],
      "drawn": false
    },
    {
      "_id": "9tsp58GstO1f5YQ8",
      "flags": {},
      "type": 0,
      "text": "+1, with one +2 special ability:",
      "img": "icons/svg/d20-black.svg",
      "resultId": "",
      "weight": 20,
      "range": [79, 79],
      "drawn": false
    },
    {
      "_id": "wOC6xMaFaf42Of5Z",
      "flags": {},
      "type": 2,
      "text": "+2 Ammunition Special Abilities",
      "img": "icons/svg/d20-black.svg",
      "collection": "pf1.ultimate-equipment",
      "resultId": "lkywV5vZLD28Vcf1",
      "weight": 20,
      "range": [79, 80],
      "drawn": false
    },
    {
      "_id": "e63Cs6OjmsbXAC5H",
      "flags": {},
      "type": 0,
      "text": "+2, with one +2 special ability:",
      "img": "icons/svg/d20-black.svg",
      "resultId": "",
      "weight": 20,
      "range": [80, 80],
      "drawn": false
    },
    {
      "_id": "oKp0u5x2AVfOWNDw",
      "flags": {},
      "type": 2,
      "text": "Greater Medium Specific Weapons",
      "img": "icons/svg/d20-black.svg",
      "collection": "pf1.ultimate-equipment",
      "resultId": "ujaPWzYkma7gLn94",
      "weight": 20,
      "range": [81, 100],
      "drawn": false
    }
  ],
  "formula": "1d100",
  "replacement": true,
  "displayRoll": true
}
