{
  "name": "Greater Medium Neck",
  "permission": {
    "default": 0
  },
  "flags": {},
  "description": "",
  "results": [
    {
      "_id": "8bofDRBNHgZKuMh5",
      "flags": {},
      "type": 0,
      "text": "\tAmulet of Natural Armor +3",
      "weight": 15,
      "range": [1, 15],
      "drawn": false
    },
    {
      "_id": "W6XRjTVQlYZFaz0z",
      "flags": {},
      "type": 0,
      "text": "\tAmpoule of False Blood",
      "weight": 9,
      "range": [16, 24],
      "drawn": false
    },
    {
      "_id": "eHZ7OMd73xLnM5M1",
      "flags": {},
      "type": 0,
      "text": "\tAmulet of Magecraft",
      "weight": 11,
      "range": [25, 35],
      "drawn": false
    },
    {
      "_id": "jZuud5OHcBoI848y",
      "flags": {},
      "type": 0,
      "text": "\tAmulet of Mighty Fists +2",
      "weight": 15,
      "range": [36, 50],
      "drawn": false
    },
    {
      "_id": "rcT2Ovs17rEWdCy5",
      "flags": {},
      "type": 0,
      "text": "\tDragonfoe Amulet",
      "weight": 12,
      "range": [51, 62],
      "drawn": false
    },
    {
      "_id": "YpHiKCxIFwmpr02b",
      "flags": {},
      "type": 0,
      "text": "\tAmulet of Spell Mastery",
      "weight": 5,
      "range": [63, 67],
      "drawn": false
    },
    {
      "_id": "JwCJzTWL0yXbxsAZ",
      "flags": {},
      "type": 0,
      "text": "\tAmulet of Bullet Protection +4",
      "weight": 5,
      "range": [68, 72],
      "drawn": false
    },
    {
      "_id": "pSCIZzt3m5Hyyl8w",
      "flags": {},
      "type": 0,
      "text": "\tHand of Stone",
      "weight": 13,
      "range": [73, 85],
      "drawn": false
    },
    {
      "_id": "euFZ8sTFFejGBvYv",
      "flags": {},
      "type": 0,
      "text": "\tPeriapt of Proof Against Poison",
      "weight": 15,
      "range": [86, 100],
      "drawn": false
    }
  ],
  "formula": "1d100",
  "replacement": true,
  "displayRoll": true,
  "_id": "X91BN1ZSwPsyddNs"
}
