{
  "name": "Greater Minor Eye",
  "permission": {
    "default": 0
  },
  "flags": {},
  "description": "",
  "results": [
    {
      "_id": "aDgLDV2HkLZ7HUpI",
      "flags": {},
      "type": 0,
      "text": "\tEyes of the Owl",
      "weight": 20,
      "range": [1, 20],
      "drawn": false
    },
    {
      "_id": "hdt8KJ9bFCna6dP4",
      "flags": {},
      "type": 0,
      "text": "\tEyes of Keen Sigh",
      "weight": 24,
      "range": [21, 44],
      "drawn": false
    },
    {
      "_id": "AWJ1wBoorz0IeQ18",
      "flags": {},
      "type": 0,
      "text": "Treasure Hunter's Goggles",
      "weight": 22,
      "range": [45, 66],
      "drawn": false
    },
    {
      "_id": "LcBCtASjkNSGpYLQ",
      "flags": {},
      "type": 0,
      "text": "\tInquisitor's Monocle",
      "weight": 18,
      "range": [67, 84],
      "drawn": false
    },
    {
      "_id": "KYSU8i420js8vxzE",
      "flags": {},
      "type": 0,
      "text": "Kinsight Goggles",
      "weight": 16,
      "range": [85, 100],
      "drawn": false
    }
  ],
  "formula": "1d100",
  "replacement": true,
  "displayRoll": true,
  "_id": "ZV3fUhKDmAd0jnLt"
}
