{
  "name": "Lesser Minor Shoulders",
  "permission": {
    "default": 0
  },
  "flags": {},
  "description": "",
  "results": [
    {
      "_id": "Vxu6yoaHdFCkuCU7",
      "flags": {},
      "type": 0,
      "text": "\tCatching Cape",
      "img": "icons/svg/d20-black.svg",
      "resultId": "",
      "weight": 6,
      "range": [1, 6],
      "drawn": false
    },
    {
      "_id": "ZORRWRLt3brOQm2b",
      "flags": {},
      "type": 0,
      "text": "\tCloak of Human Guise",
      "img": "icons/svg/d20-black.svg",
      "resultId": "",
      "weight": 4,
      "range": [7, 10],
      "drawn": false
    },
    {
      "_id": "AKgUXkUsikpyYjV5",
      "flags": {},
      "type": 0,
      "text": "\tCloak of Resistance +1",
      "img": "icons/svg/d20-black.svg",
      "resultId": "",
      "weight": 20,
      "range": [11, 30],
      "drawn": false
    },
    {
      "_id": "PT5necSLlfRHehp0",
      "flags": {},
      "type": 0,
      "text": "\tMuleback Cords",
      "img": "icons/svg/d20-black.svg",
      "resultId": "",
      "weight": 6,
      "range": [31, 36],
      "drawn": false
    },
    {
      "_id": "ABFwKF11yy18mmxH",
      "flags": {},
      "type": 0,
      "text": "\tShawl of Life-Keeping",
      "img": "icons/svg/d20-black.svg",
      "resultId": "",
      "weight": 2,
      "range": [37, 38],
      "drawn": false
    },
    {
      "_id": "1LvTurDbM1xKVMas",
      "flags": {},
      "type": 0,
      "text": "\tShield Cloak",
      "img": "icons/svg/d20-black.svg",
      "resultId": "",
      "weight": 6,
      "range": [39, 44],
      "drawn": false
    },
    {
      "_id": "2HVFjNYfRzkBMJQl",
      "flags": {},
      "type": 0,
      "text": "\tQuickchange Cloak",
      "img": "icons/svg/d20-black.svg",
      "resultId": "",
      "weight": 6,
      "range": [45, 50],
      "drawn": false
    },
    {
      "_id": "2V0oGmhAvzxHOspW",
      "flags": {},
      "type": 0,
      "text": "\tCowardly Crouching Cloak",
      "img": "icons/svg/d20-black.svg",
      "resultId": "",
      "weight": 6,
      "range": [51, 56],
      "drawn": false
    },
    {
      "_id": "LdOecEHQmJYTb4gH",
      "flags": {},
      "type": 0,
      "text": "\tCloak of Elvenkind",
      "img": "icons/svg/d20-black.svg",
      "resultId": "",
      "weight": 18,
      "range": [57, 74],
      "drawn": false
    },
    {
      "_id": "f6aO90tdvRgfR5I4",
      "flags": {},
      "type": 0,
      "text": "\tCloak of the Hedge Wizard",
      "img": "icons/svg/d20-black.svg",
      "resultId": "",
      "weight": 6,
      "range": [75, 80],
      "drawn": false
    },
    {
      "_id": "27n2PxvVlTtbcJ4C",
      "flags": {},
      "type": 0,
      "text": "\tCloak of Fiery Vanishing",
      "img": "icons/svg/d20-black.svg",
      "resultId": "",
      "weight": 5,
      "range": [81, 85],
      "drawn": false
    },
    {
      "_id": "31iOMGoZ2QkBCZbD",
      "flags": {},
      "type": 0,
      "text": "\tCloak of Fangs",
      "img": "icons/svg/d20-black.svg",
      "resultId": "",
      "weight": 9,
      "range": [86, 94],
      "drawn": false
    },
    {
      "_id": "Z3Ekp227WMGmZERv",
      "flags": {},
      "type": 0,
      "text": "\tPauldrons of the Serpent",
      "img": "icons/svg/d20-black.svg",
      "resultId": "",
      "weight": 3,
      "range": [95, 97],
      "drawn": false
    },
    {
      "_id": "NKHHyCXnmcoCEmum",
      "flags": {},
      "type": 0,
      "text": "\tStonemist Cloak",
      "img": "icons/svg/d20-black.svg",
      "resultId": "",
      "weight": 3,
      "range": [98, 100],
      "drawn": false
    }
  ],
  "formula": "1d100",
  "replacement": true,
  "displayRoll": true,
  "_id": "MrpqT5oFVRYyf9F0"
}
