{
  "name": "Lesser Major Body",
  "permission": {
    "default": 0
  },
  "flags": {},
  "description": "",
  "results": [
    {
      "_id": "NT6I2s3i3obhOioG",
      "flags": {},
      "type": 0,
      "text": "Gunman's Duster",
      "weight": 40,
      "range": [1, 40],
      "drawn": false
    },
    {
      "_id": "6D4vhsEDNBfEreIE",
      "flags": {},
      "type": 0,
      "text": "Bodywrap of Mighty Strikes +4",
      "weight": 40,
      "range": [41, 80],
      "drawn": false
    },
    {
      "_id": "pFGgDeZ02uhT2pyZ",
      "flags": {},
      "type": 0,
      "text": "Smuggler's Collapsible Robe",
      "weight": 20,
      "range": [81, 100],
      "drawn": false
    }
  ],
  "formula": "1d100",
  "replacement": true,
  "displayRoll": true,
  "_id": "UZPaNBBXrNuar3MU"
}
