{
  "name": "Lesser Medium Shoulders",
  "permission": {
    "default": 0
  },
  "flags": {},
  "description": "",
  "results": [
    {
      "_id": "bndophJnaXDWgCkW",
      "flags": {},
      "type": 0,
      "text": "\tCloak of Resistance +3",
      "weight": 20,
      "range": [1, 20],
      "drawn": false
    },
    {
      "_id": "HtjXwewGs2dAUVd1",
      "flags": {},
      "type": 0,
      "text": "\tCloak of the Duskwalker",
      "weight": 2,
      "range": [21, 22],
      "drawn": false
    },
    {
      "_id": "mfnEg9pI2vLyTgBt",
      "flags": {},
      "type": 0,
      "text": "\tCocoon Cloak",
      "weight": 3,
      "range": [23, 25],
      "drawn": false
    },
    {
      "_id": "naNCOXdOWpZ9thVB",
      "flags": {},
      "type": 0,
      "text": "Pauldrons of the Bull",
      "weight": 2,
      "range": [26, 27],
      "drawn": false
    },
    {
      "_id": "uUrSNqgljwed6uIn",
      "flags": {},
      "type": 0,
      "text": "\tStone Cloak, Minor",
      "weight": 5,
      "range": [28, 32],
      "drawn": false
    },
    {
      "_id": "jFyE1hojjBetHLkg",
      "flags": {},
      "type": 0,
      "text": "\tCape of the Mountebank",
      "weight": 8,
      "range": [33, 40],
      "drawn": false
    },
    {
      "_id": "TYwxwyXeLlteTtyZ",
      "flags": {},
      "type": 0,
      "text": "\tPauldrons of the Watchful Lion",
      "weight": 5,
      "range": [41, 45],
      "drawn": false
    },
    {
      "_id": "Xk2rzguglRv83zvp",
      "flags": {},
      "type": 0,
      "text": "\tLion Cloak",
      "weight": 7,
      "range": [46, 52],
      "drawn": false
    },
    {
      "_id": "Fm5WO3cjWdR6PRDs",
      "flags": {},
      "type": 0,
      "text": "\tMantle of Spores",
      "weight": 2,
      "range": [53, 54],
      "drawn": false
    },
    {
      "_id": "fFvnfCK797v7n5QQ",
      "flags": {},
      "type": 0,
      "text": "\tCape of Effulgent Escape",
      "weight": 5,
      "range": [55, 59],
      "drawn": false
    },
    {
      "_id": "fwo54c9cp1JirB3f",
      "flags": {},
      "type": 0,
      "text": "\tCloak of Arachnida",
      "weight": 10,
      "range": [60, 69],
      "drawn": false
    },
    {
      "_id": "J7wSrD7lEvYiB4Wq",
      "flags": {},
      "type": 0,
      "text": "\tGunfighter's Poncho",
      "weight": 3,
      "range": [70, 72],
      "drawn": false
    },
    {
      "_id": "pWx2JrZZo33Z5y0a",
      "flags": {},
      "type": 0,
      "text": "\tTentacle Cloak",
      "weight": 2,
      "range": [73, 74],
      "drawn": false
    },
    {
      "_id": "1JoQ7p3i0FTzOxox",
      "flags": {},
      "type": 0,
      "text": "\tDemonspike Pauldrons",
      "weight": 2,
      "range": [75, 76],
      "drawn": false
    },
    {
      "_id": "3NhuGLjHqxWdhyCq",
      "flags": {},
      "type": 0,
      "text": "\tComfort's Cloak",
      "weight": 2,
      "range": [77, 78],
      "drawn": false
    },
    {
      "_id": "Ilca4JeYvSOs39Gp",
      "flags": {},
      "type": 0,
      "text": "\tCloak of Resistance +4",
      "weight": 10,
      "range": [79, 88],
      "drawn": false
    },
    {
      "_id": "s9Th11ukYW6lf0Sq",
      "flags": {},
      "type": 0,
      "text": "\tShawl of the Crone",
      "weight": 3,
      "range": [89, 91],
      "drawn": false
    },
    {
      "_id": "zBULAkCGQp5XqqWl",
      "flags": {},
      "type": 0,
      "text": "\tPrestidigitator's Cloak",
      "weight": 9,
      "range": [92, 100],
      "drawn": false
    }
  ],
  "formula": "1d100",
  "replacement": true,
  "displayRoll": true,
  "_id": "SDIoSwYsGY1hR8eT"
}
