{
  "name": "Lesser Medium Ring",
  "permission": {
    "default": 0
  },
  "flags": {},
  "description": "",
  "results": [
    {
      "_id": "jusK7bIZZc58IhqY",
      "flags": {},
      "type": 0,
      "text": "Ring of Forcefangs",
      "weight": 2,
      "range": [1, 2],
      "drawn": false
    },
    {
      "_id": "ZM6XV1xsSVgh23Xp",
      "flags": {},
      "type": 0,
      "text": "Ring of Mind Shielding",
      "weight": 4,
      "range": [3, 6],
      "drawn": false
    },
    {
      "_id": "EPydEd1YoCl7S8u8",
      "flags": {},
      "type": 0,
      "text": "Ring of Protection +2",
      "weight": 5,
      "range": [7, 11],
      "drawn": false
    },
    {
      "_id": "2Gj7CnfQkZI08t0e",
      "flags": {},
      "type": 0,
      "text": "Ring of Strength Sapping",
      "weight": 2,
      "range": [12, 13],
      "drawn": false
    },
    {
      "_id": "xL3PlkTrxGTIgqFX",
      "flags": {},
      "type": 0,
      "text": "Ring of Force Shield",
      "weight": 4,
      "range": [14, 17],
      "drawn": false
    },
    {
      "_id": "PIP2yLq4wX6frymK",
      "flags": {},
      "type": 0,
      "text": "Ring of the Ram",
      "weight": 5,
      "range": [18, 22],
      "drawn": false
    },
    {
      "_id": "but30wcTtdoplWkt",
      "flags": {},
      "type": 0,
      "text": "Scholar's Ring",
      "weight": 2,
      "range": [23, 24],
      "drawn": false
    },
    {
      "_id": "dE4F7IY567pIR8fJ",
      "flags": {},
      "type": 0,
      "text": "Ring of Climbing, Improved",
      "weight": 3,
      "range": [25, 27],
      "drawn": false
    },
    {
      "_id": "Jr6CiiDOwPBUPwGA",
      "flags": {},
      "type": 0,
      "text": "Ring of Curing",
      "weight": 2,
      "range": [28, 29],
      "drawn": false
    },
    {
      "_id": "R1SXaMc8nYmvHKRA",
      "flags": {},
      "type": 0,
      "text": "Ring of Foe Focus",
      "weight": 2,
      "range": [30, 31],
      "drawn": false
    },
    {
      "_id": "La28sc5cS2Dc2WLr",
      "flags": {},
      "type": 0,
      "text": "Ring of Jumping, Improved",
      "weight": 4,
      "range": [32, 35],
      "drawn": false
    },
    {
      "_id": "5Qzta97ACaQomkGU",
      "flags": {},
      "type": 0,
      "text": "Ring of Ki Mastery",
      "weight": 2,
      "range": [36, 37],
      "drawn": false
    },
    {
      "_id": "T3gHNTXSDL4vZdKR",
      "flags": {},
      "type": 0,
      "text": "Ring of Revelation, Lesser",
      "weight": 3,
      "range": [38, 40],
      "drawn": false
    },
    {
      "_id": "zgJTpupDYu4QKwzP",
      "flags": {},
      "type": 0,
      "text": "Ring of Swimming, Improved",
      "weight": 3,
      "range": [41, 43],
      "drawn": false
    },
    {
      "_id": "QuIYo0ilYekdDCen",
      "flags": {},
      "type": 0,
      "text": "Ring of Animal Friendship",
      "weight": 3,
      "range": [44, 46],
      "drawn": false
    },
    {
      "_id": "rP85vYJ1ypGqBIwr",
      "flags": {},
      "type": 0,
      "text": "Ring of Transposition",
      "weight": 2,
      "range": [47, 48],
      "drawn": false
    },
    {
      "_id": "CMSRH8Fld0gZaYQk",
      "flags": {},
      "type": 0,
      "text": "Ring of Tactical Precision",
      "weight": 2,
      "range": [49, 50],
      "drawn": false
    },
    {
      "_id": "V4tyDhQGhlbJF74i",
      "flags": {},
      "type": 0,
      "text": "Ring of the Sophisticate",
      "weight": 2,
      "range": [51, 52],
      "drawn": false
    },
    {
      "_id": "y3JUBXHFopPLRpeI",
      "flags": {},
      "type": 0,
      "text": "Decoy Ring",
      "weight": 3,
      "range": [53, 55],
      "drawn": false
    },
    {
      "_id": "AVTiAqha4l2DB039",
      "flags": {},
      "type": 0,
      "text": "Ring of Craft Magic",
      "weight": 3,
      "range": [56, 58],
      "drawn": false
    },
    {
      "_id": "EFvcGYoCZZ41PM2l",
      "flags": {},
      "type": 0,
      "text": "Ring of Ectoplasmic Invigoration",
      "weight": 3,
      "range": [59, 61],
      "drawn": false
    },
    {
      "_id": "nj6NKNWeWe92M5h9",
      "flags": {},
      "type": 0,
      "text": "Ring of Energy Resistance (Fire), Minor",
      "weight": 3,
      "range": [62, 64],
      "drawn": false
    },
    {
      "_id": "k755QBAgLbSWHVnD",
      "flags": {},
      "type": 0,
      "text": "Ring of the Troglodyte",
      "weight": 3,
      "range": [65, 67],
      "drawn": false
    },
    {
      "_id": "tKuEkXIHrTBz8XiY",
      "flags": {},
      "type": 0,
      "text": "Steelhand Circle",
      "weight": 3,
      "range": [68, 70],
      "drawn": false
    },
    {
      "_id": "XlNalp4CXr4qTkkm",
      "flags": {},
      "type": 0,
      "text": "Ring of Chameleon Power",
      "weight": 6,
      "range": [71, 76],
      "drawn": false
    },
    {
      "_id": "718X9x8j0nYOK7mH",
      "flags": {},
      "type": 0,
      "text": "Ring of Spell Knowledge III",
      "weight": 3,
      "range": [77, 79],
      "drawn": false
    },
    {
      "_id": "ikYfOjpnWp7terCc",
      "flags": {},
      "type": 0,
      "text": "Ring of the Sea Strider",
      "weight": 3,
      "range": [80, 82],
      "drawn": false
    },
    {
      "_id": "kZxu1LpquQ4Qix43",
      "flags": {},
      "type": 0,
      "text": "Ring of Retribution",
      "weight": 3,
      "range": [83, 85],
      "drawn": false
    },
    {
      "_id": "9JO6cUCMjUpQ8etc",
      "flags": {},
      "type": 0,
      "text": "Ring of Water Walking",
      "weight": 4,
      "range": [86, 89],
      "drawn": false
    },
    {
      "_id": "sx9srVq86D6RwS6I",
      "flags": {},
      "type": 0,
      "text": "Dungeon Ring, Jailer's",
      "weight": 6,
      "range": [90, 95],
      "drawn": false
    },
    {
      "_id": "jttezVBVxFhgE9Sh",
      "flags": {},
      "type": 0,
      "text": "Ring of Revelation, Greater",
      "weight": 5,
      "range": [96, 100],
      "drawn": false
    }
  ],
  "formula": "1d100",
  "replacement": true,
  "displayRoll": true,
  "_id": "2TIxHeib5p4VgaZf"
}
