{
  "name": "Lesser Medium Belt",
  "permission": {
    "default": 0
  },
  "flags": {},
  "description": "",
  "results": [
    {
      "_id": "IObMd3eaY3Dg9LVQ",
      "flags": {},
      "type": 0,
      "text": "Serpent Belt",
      "weight": 4,
      "range": [1, 4],
      "drawn": false
    },
    {
      "_id": "ANS8ROeJ0cgy5CJ3",
      "flags": {},
      "type": 0,
      "text": "Monkey Belt",
      "weight": 4,
      "range": [5, 8],
      "drawn": false
    },
    {
      "_id": "XtZEmWcV8q1oAS42",
      "flags": {},
      "type": 0,
      "text": "Belt of Physical Might +2",
      "weight": 8,
      "range": [9, 16],
      "drawn": false
    },
    {
      "_id": "H4vqAgkjTCXKuCN7",
      "flags": {},
      "type": 0,
      "text": "Belt of the Weasel",
      "weight": 6,
      "range": [17, 22],
      "drawn": false
    },
    {
      "_id": "SSrlqZRCdNhAiNIN",
      "flags": {},
      "type": 0,
      "text": "Belt of Thunderous Charging",
      "weight": 5,
      "range": [23, 27],
      "drawn": false
    },
    {
      "_id": "nxBVUEzkGANUpDeL",
      "flags": {},
      "type": 0,
      "text": "Minotaur Belt",
      "weight": 5,
      "range": [28, 32],
      "drawn": false
    },
    {
      "_id": "quJRy0KNz4GyrlwR",
      "flags": {},
      "type": 0,
      "text": "Plague Rat Belt, Greater",
      "weight": 4,
      "range": [33, 36],
      "drawn": false
    },
    {
      "_id": "iTKpUuM1WSyEghI8",
      "flags": {},
      "type": 0,
      "text": "Belt of Equilibrium",
      "weight": 5,
      "range": [37, 41],
      "drawn": false
    },
    {
      "_id": "8z4Wb2sCA3vVzV5d",
      "flags": {},
      "type": 0,
      "text": "Security Belt",
      "weight": 5,
      "range": [42, 46],
      "drawn": false
    },
    {
      "_id": "m3ztH7iE4D0Uss34",
      "flags": {},
      "type": 0,
      "text": "Belt of Mighty Hurling, Lesser",
      "weight": 5,
      "range": [47, 51],
      "drawn": false
    },
    {
      "_id": "ouybTucaL7itHtqY",
      "flags": {},
      "type": 0,
      "text": "Belt of Dwarvenkind",
      "weight": 6,
      "range": [52, 57],
      "drawn": false
    },
    {
      "_id": "S87YdC4OdjqIiAPl",
      "flags": {},
      "type": 0,
      "text": "Cord of Stubborn Resolve",
      "weight": 4,
      "range": [58, 61],
      "drawn": false
    },
    {
      "_id": "NU5O6pLV6YKzMe5N",
      "flags": {},
      "type": 0,
      "text": "Belt of Giant Strength +4",
      "weight": 10,
      "range": [62, 71],
      "drawn": false
    },
    {
      "_id": "j7tT4ZxoYzRCokZw",
      "flags": {},
      "type": 0,
      "text": "Belt of Physical Perfection +2",
      "weight": 9,
      "range": [72, 80],
      "drawn": false
    },
    {
      "_id": "G3bzEq71zTzUxmw2",
      "flags": {},
      "type": 0,
      "text": "Belt of Incredible Dexterity +4",
      "weight": 10,
      "range": [81, 90],
      "drawn": false
    },
    {
      "_id": "CfIxgRa7jkVXc6Su",
      "flags": {},
      "type": 0,
      "text": "Belt of Mighty Constitution +4",
      "weight": 10,
      "range": [91, 100],
      "drawn": false
    }
  ],
  "formula": "1d100",
  "replacement": true,
  "displayRoll": true,
  "_id": "kFORBvFtu79fYVvA"
}
