{
  "_id": "OBmfrGVVbqvDfGwu",
  "name": "Lesser Medium Magic Items",
  "permission": {
    "default": 0
  },
  "flags": {},
  "description": "",
  "results": [
    {
      "_id": "G7cr9fnI7FvccaUF",
      "flags": {},
      "type": 2,
      "text": "Lesser Medium Armour and Shields",
      "img": "icons/svg/d20-black.svg",
      "collection": "pf1.ultimate-equipment",
      "resultId": "MeojVL0zujA6LKnp",
      "weight": 1,
      "range": [1, 10],
      "drawn": false
    },
    {
      "_id": "UUzBILwaECO0WYoz",
      "flags": {},
      "type": 2,
      "text": "Lesser Medium Weapon",
      "img": "icons/svg/d20-black.svg",
      "collection": "pf1.ultimate-equipment",
      "resultId": "dsO9UXhmgjJZQ4cw",
      "weight": 1,
      "range": [11, 20],
      "drawn": false
    },
    {
      "_id": "cb0uza8gqhQwLgPT",
      "flags": {},
      "type": 2,
      "text": "Common Level 2 Potions and Oils",
      "img": "icons/svg/d20-black.svg",
      "collection": "pf1.ultimate-equipment",
      "resultId": "Eo22ZRkZ7filHo8R",
      "weight": 1,
      "range": [21, 25],
      "drawn": false
    },
    {
      "_id": "YHirITua4tSdV3RH",
      "flags": {},
      "type": 2,
      "text": "Common Level 3 Potions and Oils",
      "img": "icons/svg/d20-black.svg",
      "collection": "pf1.ultimate-equipment",
      "resultId": "PsQiiIpx8B3PHcOf",
      "weight": 1,
      "range": [26, 30],
      "drawn": false
    },
    {
      "_id": "VbuER5eJYQnIYjzw",
      "flags": {},
      "type": 2,
      "text": "Lesser Medium Ring",
      "img": "icons/svg/d20-black.svg",
      "collection": "pf1.ultimate-equipment",
      "resultId": "2TIxHeib5p4VgaZf",
      "weight": 1,
      "range": [31, 38],
      "drawn": false
    },
    {
      "_id": "n41cUmqky7dgYupe",
      "flags": {},
      "type": 2,
      "text": "Lesser Medium Rods",
      "img": "icons/svg/d20-black.svg",
      "collection": "pf1.ultimate-equipment",
      "resultId": "T4z08jHo5bXw69iQ",
      "weight": 1,
      "range": [39, 45],
      "drawn": false
    },
    {
      "_id": "dEKsaSkAXahQhgYT",
      "flags": {},
      "type": 2,
      "text": "Metamagic Rods +1 Level",
      "img": "icons/svg/d20-black.svg",
      "collection": "pf1.ultimate-equipment",
      "resultId": "h9UWUgzqrUn5XTMO",
      "weight": 1,
      "range": [46, 46],
      "drawn": false
    },
    {
      "_id": "J0z3FI3ErQffSF6Y",
      "flags": {},
      "type": 2,
      "text": "Lesser Medium Arcane Scrolls",
      "img": "icons/svg/d20-black.svg",
      "collection": "pf1.ultimate-equipment",
      "resultId": "iOt6ezDGtVM8JaeP",
      "weight": 1,
      "range": [47, 53],
      "drawn": false
    },
    {
      "_id": "deKK89YWEMjyPIm0",
      "flags": {},
      "type": 2,
      "text": "Lesser Medium Divine Scrolls",
      "img": "icons/svg/d20-black.svg",
      "collection": "pf1.ultimate-equipment",
      "resultId": "6n8ZEZaiwRPzQ0p4",
      "weight": 1,
      "range": [54, 60],
      "drawn": false
    },
    {
      "_id": "CN8xN260LbBf2SgK",
      "flags": {},
      "type": 2,
      "text": "Lesser Medium Staff",
      "img": "icons/svg/d20-black.svg",
      "collection": "pf1.ultimate-equipment",
      "resultId": "xeIR3IRHlQ7O5ABU",
      "weight": 1,
      "range": [61, 63],
      "drawn": false
    },
    {
      "_id": "s4HSTiRHzAorn0EB",
      "flags": {},
      "type": 2,
      "text": "Common Level 2 Wands",
      "img": "icons/svg/d20-black.svg",
      "collection": "pf1.ultimate-equipment",
      "resultId": "qeC9fgOka2MItT2A",
      "weight": 1,
      "range": [64, 68],
      "drawn": false
    },
    {
      "_id": "bpVGp4AXwLre07tg",
      "flags": {},
      "type": 2,
      "text": "Uncommon Level 2 Wands",
      "img": "icons/svg/d20-black.svg",
      "collection": "pf1.ultimate-equipment",
      "resultId": "visy19CsXY2jpABp",
      "weight": 1,
      "range": [69, 70],
      "drawn": false
    },
    {
      "_id": "Iw1EkkYwPe2S29ym",
      "flags": {},
      "type": 2,
      "text": "Common Level 3 Wands",
      "img": "icons/svg/d20-black.svg",
      "collection": "pf1.ultimate-equipment",
      "resultId": "dB3WvGIjmNmuI0kP",
      "weight": 1,
      "range": [71, 74],
      "drawn": false
    },
    {
      "_id": "zDknTMDw5NtIQxzs",
      "flags": {},
      "type": 2,
      "text": "Uncommon Level 3 Wands",
      "img": "icons/svg/d20-black.svg",
      "collection": "pf1.ultimate-equipment",
      "resultId": "tQ3dzkGqsrzhzHKl",
      "weight": 1,
      "range": [75, 76],
      "drawn": false
    },
    {
      "_id": "NoIwrQeEYhOjduqF",
      "flags": {},
      "type": 2,
      "text": "Lesser Medium Belt",
      "img": "icons/svg/d20-black.svg",
      "collection": "pf1.ultimate-equipment",
      "resultId": "kFORBvFtu79fYVvA",
      "weight": 1,
      "range": [77, 78],
      "drawn": false
    },
    {
      "_id": "RPUQbdm9pLpzJ585",
      "flags": {},
      "type": 2,
      "text": "Lesser Medium Body",
      "img": "icons/svg/d20-black.svg",
      "collection": "pf1.ultimate-equipment",
      "resultId": "9JP48MynceBpC6qv",
      "weight": 1,
      "range": [79, 80],
      "drawn": false
    },
    {
      "_id": "YxBNOoYVVYwreBdT",
      "flags": {},
      "type": 2,
      "text": "Lesser Medium Chest",
      "img": "icons/svg/d20-black.svg",
      "collection": "pf1.ultimate-equipment",
      "resultId": "kLZhycx2j6ObUuYG",
      "weight": 1,
      "range": [81, 82],
      "drawn": false
    },
    {
      "_id": "1xblpZwJ40xiycwg",
      "flags": {},
      "type": 2,
      "text": "Lesser Medium Eye",
      "img": "icons/svg/d20-black.svg",
      "collection": "pf1.ultimate-equipment",
      "resultId": "nhnZInqU3SoiKGOp",
      "weight": 1,
      "range": [83, 84],
      "drawn": false
    },
    {
      "_id": "57DJhpgyWKd0Os3t",
      "flags": {},
      "type": 2,
      "text": "Lesser Medium Feet",
      "img": "icons/svg/d20-black.svg",
      "collection": "pf1.ultimate-equipment",
      "resultId": "H5O2yEua379XhU5t",
      "weight": 1,
      "range": [85, 86],
      "drawn": false
    },
    {
      "_id": "pHCdY5FxJVKaS7Xd",
      "flags": {},
      "type": 2,
      "text": "Lesser Medium Hand",
      "img": "icons/svg/d20-black.svg",
      "collection": "pf1.ultimate-equipment",
      "resultId": "xTJbKOirGKWjnx5q",
      "weight": 1,
      "range": [87, 88],
      "drawn": false
    },
    {
      "_id": "Z6DOYWFu48bd7wyN",
      "flags": {},
      "type": 2,
      "text": "Lesser Medium Head",
      "img": "icons/svg/d20-black.svg",
      "collection": "pf1.ultimate-equipment",
      "resultId": "ipxIniLVjR6V3baD",
      "weight": 1,
      "range": [89, 90],
      "drawn": false
    },
    {
      "_id": "9wT6T3138MArqDpB",
      "flags": {},
      "type": 2,
      "text": "Lesser Medium Headband",
      "img": "icons/svg/d20-black.svg",
      "collection": "pf1.ultimate-equipment",
      "resultId": "MtzZGwkaGWbraLdL",
      "weight": 1,
      "range": [91, 92],
      "drawn": false
    },
    {
      "_id": "tEgOuVnF9TIvUZxP",
      "flags": {},
      "type": 2,
      "text": "Lesser Medium Neck",
      "img": "icons/svg/d20-black.svg",
      "collection": "pf1.ultimate-equipment",
      "resultId": "Us0EQXxBecScscQQ",
      "weight": 1,
      "range": [93, 94],
      "drawn": false
    },
    {
      "_id": "HuCPUZG0vXR43qPA",
      "flags": {},
      "type": 2,
      "text": "Lesser Medium Shoulders",
      "img": "icons/svg/d20-black.svg",
      "collection": "pf1.ultimate-equipment",
      "resultId": "SDIoSwYsGY1hR8eT",
      "weight": 1,
      "range": [95, 96],
      "drawn": false
    },
    {
      "_id": "Dk3iXclr7ZpgtYAJ",
      "flags": {},
      "type": 2,
      "text": "Lesser Medium Wrists",
      "img": "icons/svg/d20-black.svg",
      "collection": "pf1.ultimate-equipment",
      "resultId": "ZCud0FVyAuzDhtny",
      "weight": 1,
      "range": [97, 98],
      "drawn": false
    },
    {
      "_id": "PdbVyEHFoU2Hg4A5",
      "flags": {},
      "type": 2,
      "text": "Lesser Medium Slotless",
      "img": "icons/svg/d20-black.svg",
      "collection": "pf1.ultimate-equipment",
      "resultId": "hkvuo80YGMS2KhdN",
      "weight": 1,
      "range": [99, 100],
      "drawn": false
    }
  ],
  "formula": "1d100",
  "replacement": true,
  "displayRoll": true
}
