{
  "name": "Lesser Major Feet",
  "permission": {
    "default": 0
  },
  "flags": {},
  "description": "",
  "results": [
    {
      "_id": "PtbKDz5m4AclNZ3p",
      "flags": {},
      "type": 0,
      "text": "\tGetaway Boots",
      "weight": 20,
      "range": [1, 20],
      "drawn": false
    },
    {
      "_id": "8QWy4qXVsTRCVVtS",
      "flags": {},
      "type": 0,
      "text": "\tHorseshoes of Crushing Blows +3",
      "weight": 15,
      "range": [21, 35],
      "drawn": false
    },
    {
      "_id": "imtS6YWOZQIMipZS",
      "flags": {},
      "type": 0,
      "text": "\tHorseshoes of Glory",
      "weight": 20,
      "range": [36, 55],
      "drawn": false
    },
    {
      "_id": "z46L9ElwHwwjmueT",
      "flags": {},
      "type": 0,
      "text": "\tBurglar Boots, Major",
      "weight": 20,
      "range": [56, 75],
      "drawn": false
    },
    {
      "_id": "nrSYBrmXo0X42ubt",
      "flags": {},
      "type": 0,
      "text": "\tBoots of Teleportation",
      "weight": 25,
      "range": [76, 100],
      "drawn": false
    }
  ],
  "formula": "1d100",
  "replacement": true,
  "displayRoll": true,
  "_id": "VmceqU0a8dnBWEBl"
}
