{
  "_id": "yJNbRspBHxlzcc1g",
  "name": "Lesser Minor Arcane Scrolls",
  "permission": {
    "default": 0
  },
  "flags": {},
  "description": "",
  "results": [
    {
      "_id": "atp22ZneU12rIfLL",
      "flags": {},
      "type": 2,
      "text": "Common Level 0 Arcane Scrolls",
      "img": "icons/svg/d20-black.svg",
      "collection": "pf1.ultimate-equipment",
      "resultId": "yWjYqpNCc3ERlHOU",
      "weight": 15,
      "range": [1, 15],
      "drawn": false
    },
    {
      "_id": "UWptxotIjeAwwRw0",
      "flags": {},
      "type": 2,
      "text": "Common Level 1 Arcane Scrolls",
      "img": "icons/svg/d20-black.svg",
      "collection": "pf1.ultimate-equipment",
      "resultId": "BeXyappIVJF0Elj1",
      "weight": 80,
      "range": [16, 95],
      "drawn": false
    },
    {
      "_id": "fwmYvZqK9pyO5ETf",
      "flags": {},
      "type": 2,
      "text": "Common Level 2 Arcane Scrolls",
      "img": "icons/svg/d20-black.svg",
      "collection": "pf1.ultimate-equipment",
      "resultId": "KQia4DeVhI6cRVx6",
      "weight": 5,
      "range": [96, 100],
      "drawn": false
    }
  ],
  "formula": "1d100",
  "replacement": true,
  "displayRoll": true
}
