{
  "_id": "iGu21zy6QtroUZ4O",
  "name": "Chain Shirt",
  "type": "equipment",
  "img": "systems/pf1/icons/items/armor/chain-shirt.png",
  "data": {
    "description": {
      "value": "<p><span id=\"ctl00_MainContent_DataListTypes_ctl00_LabelName\">Covering the torso, this shirt is made up of thousands of interlocking metal rings.</span></p>"
    },
    "tags": [],
    "weight": 25,
    "price": 100,
    "hp": {
      "max": 20,
      "value": 20
    },
    "hardness": 10,
    "changes": [],
    "contextNotes": [],
    "actions": [],
    "attackNotes": [],
    "effectNotes": [],
    "links": {
      "children": [],
      "charges": []
    },
    "flags": {
      "boolean": [],
      "dictionary": []
    },
    "scriptCalls": [],
    "armor": {
      "value": 4,
      "dex": 4,
      "acp": 2
    },
    "spellFailure": 20,
    "slot": "armor"
  },
  "effects": [],
  "folder": null,
  "sort": 0,
  "permission": {
    "default": 0
  },
  "flags": {}
}
