{
  "_id": "aI6gSI7gnCLCucw0",
  "name": "Hide Armor",
  "type": "equipment",
  "img": "systems/pf1/icons/items/armor/hide-armor.PNG",
  "data": {
    "description": {
      "value": "<p>Hide armor is made from the tanned skin of particularly thickhided beasts, stitched with either multiple overlapping layers of crude leather or exterior pieces of leather stuffed with padding or fur. Damage to the armor is typically repaired by restitching gashes or adding new pieces of hide, giving the most heavily used suits a distinctively patchwork quality.</p>"
    },
    "tags": [],
    "weight": 25,
    "price": 15,
    "hp": {
      "max": 20,
      "value": 20
    },
    "hardness": 2,
    "changes": [],
    "contextNotes": [],
    "actions": [],
    "attackNotes": [],
    "effectNotes": [],
    "links": {
      "children": [],
      "charges": []
    },
    "flags": {
      "boolean": [],
      "dictionary": []
    },
    "scriptCalls": [],
    "equipmentSubtype": "mediumArmor",
    "armor": {
      "value": 4,
      "dex": 4,
      "acp": 3
    },
    "spellFailure": 20,
    "slot": "armor"
  },
  "effects": [],
  "folder": null,
  "sort": 0,
  "permission": {
    "default": 0
  },
  "flags": {}
}
