{
  "_id": "RGgplsDVRbf6svr2",
  "name": "Hide Shirt",
  "type": "equipment",
  "img": "systems/pf1/icons/items/armor/hide-shirt.png",
  "data": {
    "description": {
      "value": "<p>Made from animal hide and giant lizard scales over a shirt of interwoven cords, these chest and shoulder coverings protect Shoanti riders without restricting their mobility. The wearer of a hide shirt can make a DC 15 Strength check as a standard action. If he succeeds, the armor gains the broken condition and drops to the ground rather than requiring the usual 1 minute it would take to remove it. The armor must be repaired as though it had taken 8 points of damage before it can be used again; a broken hide shirt grants no bonus to Armor Class.</p>"
    },
    "tags": [],
    "weight": 18,
    "price": 20,
    "hp": {
      "max": 15,
      "value": 15
    },
    "hardness": 2,
    "changes": [],
    "contextNotes": [],
    "actions": [],
    "attackNotes": [],
    "effectNotes": [],
    "links": {
      "children": [],
      "charges": []
    },
    "flags": {
      "boolean": [],
      "dictionary": []
    },
    "scriptCalls": [],
    "armor": {
      "value": 3,
      "dex": 4,
      "acp": 1
    },
    "spellFailure": 15,
    "slot": "armor"
  },
  "effects": [],
  "folder": null,
  "sort": 0,
  "permission": {
    "default": 0
  },
  "flags": {}
}
