{
  "_id": "wVKTG7gN2I8jalGg",
  "name": "Mountain Pattern",
  "type": "equipment",
  "img": "systems/pf1/icons/items/armor/mountain-pattern.PNG",
  "data": {
    "description": {
      "value": "<p>This medium armor consists of hundreds of small, interlocking pieces of steel shaped to resemble an ancient symbol for the word “mountain.” The mail is then riveted to a cloth or leather backing. It is worn like a mail coat and covers your torso, shoulders, and thighs.</p>"
    },
    "tags": [],
    "weight": 40,
    "price": 250,
    "hp": {
      "max": 30,
      "value": 30
    },
    "hardness": 10,
    "changes": [],
    "contextNotes": [],
    "actions": [],
    "attackNotes": [],
    "effectNotes": [],
    "links": {
      "children": [],
      "charges": []
    },
    "flags": {
      "boolean": [],
      "dictionary": []
    },
    "scriptCalls": [],
    "equipmentSubtype": "mediumArmor",
    "armor": {
      "value": 6,
      "dex": 3,
      "acp": 4
    },
    "spellFailure": 30,
    "slot": "armor"
  },
  "effects": [],
  "folder": null,
  "sort": 0,
  "permission": {
    "default": 0
  },
  "flags": {}
}
