{
  "_id": "tCw8lthSpIXzvCOj",
  "name": "Spider-Silk Bodysuit",
  "type": "equipment",
  "img": "systems/pf1/icons/items/armor/spider-silk-bodysuit.PNG",
  "data": {
    "description": {
      "value": "<p>This exotic form-fitting garment is woven entirely from alchemically treated silk harvested from giant spiders or other arachnid creatures. If you have the drow’s weapon familiarity racial trait, you treat the spider-silk bodysuit’s maximum Dexterity bonus as 2 higher.</p>"
    },
    "tags": [],
    "weight": 4,
    "price": 850,
    "hp": {
      "max": 15,
      "value": 15
    },
    "changes": [],
    "contextNotes": [],
    "actions": [],
    "attackNotes": [],
    "effectNotes": [],
    "links": {
      "children": [],
      "charges": []
    },
    "flags": {
      "boolean": [],
      "dictionary": []
    },
    "scriptCalls": [],
    "armor": {
      "value": 3,
      "dex": 6,
      "acp": 1
    },
    "spellFailure": 10,
    "slot": "armor"
  },
  "effects": [],
  "folder": null,
  "sort": 0,
  "permission": {
    "default": 0
  },
  "flags": {}
}
