{
  "_id": "QYHoLcZmc7ad1A1z",
  "name": "Barbarian (Quick)",
  "type": "feat",
  "img": "systems/pf1/icons/skills/violet_07.jpg",
  "data": {
    "description": {
      "value": "<p><strong>Acquired/Inherited Template</strong>&nbsp;Acquired<br><strong>Simple Template</strong>&nbsp;Yes<br><strong>Usable with Summons</strong>&nbsp;No<br><br>A barbarian creature can fly into a rage, granting it numerous bonuses in combat. It also gains additional hit points and a few valuable defensive abilities. A barbarian creature's CR increases by 3 if the creature has 10 or more HD. A barbarian creature must be chaotic.<br><br><strong>Quick Rules:</strong> +2 on all rolls based on Str; can rage† for a number of rounds per day equal to 4 + its HD + its Con modifier (this functions as greater rage† if the creature has 10 or more HD); gains DR 1/— and uncanny dodge† (DR 3/— and improved uncanny dodge† if the creature has 10 or more HD).<br><br><strong>Rebuild Rules:</strong>&nbsp;Defensive Abilities&nbsp;uncanny dodge† (improved uncanny dodge† if the creature has 10 or more HD; DR 1/— (3/— if the creature has 10 or more HD);&nbsp;Special Attacks&nbsp;rage† (can be used a number of rounds per day equal to 4 + its HD + its Con modifier, functions as the greater rage† class feature if the creature has 10 or more HD);&nbsp;Ability Scores&nbsp;+4 Strength.</p>"
    },
    "tags": [],
    "actions": [],
    "attackNotes": [],
    "effectNotes": [],
    "changes": [
      {
        "_id": "jom5kuh0",
        "formula": "2",
        "operator": "+",
        "subTarget": "mattack",
        "modifier": "untyped",
        "priority": 0,
        "value": 0,
        "target": "attack"
      },
      {
        "_id": "15lozryn",
        "formula": "2",
        "operator": "+",
        "subTarget": "wdamage",
        "modifier": "untyped",
        "priority": 0,
        "value": 0,
        "target": "damage"
      },
      {
        "_id": "tdyzbynh",
        "formula": "2",
        "operator": "+",
        "subTarget": "strChecks",
        "modifier": "untyped",
        "priority": 0,
        "value": 0,
        "target": "abilityChecks"
      },
      {
        "_id": "wcl5ykjc",
        "formula": "2",
        "operator": "+",
        "subTarget": "strSkills",
        "modifier": "untyped",
        "priority": 0,
        "value": 0,
        "target": "skills"
      }
    ],
    "contextNotes": [],
    "links": {
      "children": [],
      "charges": []
    },
    "armorProf": {
      "value": []
    },
    "weaponProf": {
      "value": []
    },
    "languages": {
      "value": []
    },
    "flags": {
      "boolean": [],
      "dictionary": []
    },
    "scriptCalls": [],
    "featType": "template",
    "associations": {
      "classes": []
    },
    "crOffset": "@attributes.hd.total >= 10 ? 3 : 2"
  },
  "effects": [],
  "folder": null,
  "sort": 0,
  "permission": {
    "default": 0
  },
  "flags": {}
}
