{
  "_id": "bpuEOM70Dt5UfNIP",
  "name": "Energized (Air, Fire)",
  "type": "feat",
  "img": "systems/pf1/icons/skills/violet_07.jpg",
  "data": {
    "description": {
      "value": "<p><strong>Acquired/Inherited Template</strong>&nbsp;Acquired<br><strong>Simple Template</strong>&nbsp;No<br><strong>Usable with Summons</strong>&nbsp;No<br><br>Most golems are animated by an elemental spirit bound within a constructed body, but some creators build their golems with a greater purpose in mind. An energized golem is infused with the raw elemental energy of the elemental spirit used to animate it, granting it increased strength and agility and a host of supernatural powers.<br><br>“Energized” is an acquired template that can be added to any golem (referred to hereafter as the base creature). An energized golem uses all the base creature’s statistics and special abilities except as noted here. Save DCs are equal to 10 + half the energized golem’s Hit Dice + the energized golem’s Constitution modifier.<br><br><strong>Challenge Rating:</strong> Base creature’s CR + 2.<br><br><em>Aura (Su): </em>An energized golem radiates one of the elemental energy auras described below. All creatures within 5 feet of the energized golem take 1d6 points of energy damage at the beginning of the golem’s turn. Each type of elemental aura generates an additional effect within this range, as is described below. For every 10 Hit Dice the energized golem has, the range of the aura extends by 5 feet and it deals an additional 1d6 points of energy damage. The type of energy damage and any additional effects of the aura are determined by the elemental overcharge special quality.<br><br><em>Blizzard:</em> The frigid temperatures surrounding the energized golem deal an additional amount of nonlethal damage equal to the damage dice of its elemental aura to all creatures within range each round. A creature can attempt a Fortitude save to negate this additional nonlethal damage. Creatures that take any amount of nonlethal damage from this effect are fatigued. If a target is already fatigued, it is instead exhausted. The fatigued or exhaustion condition persists until the creature recovers from the nonlethal damage.<br><br><em>Caustic Mist:</em> A poisonous miasma emanates from the energized golem, afflicting those within range each round with a deadly toxin that rapidly destroys flesh, muscle, and organs alike.&nbsp;Poison (Ex): Aura—inhaled;&nbsp;save&nbsp;Fort;&nbsp;frequency&nbsp;1/round for 6 rounds;&nbsp;effect&nbsp;1 Str, 1 Dex, and 1 Con damage;&nbsp;cure&nbsp;2 saves.<br><br><em>Immolation:</em> The extreme heat surrounding the energized golem causes each creature and unattended object within range to catch fire unless it succeeds at a Reflex save. Each affected creature or item takes an additional amount of fire damage equal to the number of damage dice for the energized golem’s elemental aura immediately and each round thereafter as long as it remains within the aura. A creature or object that has caught on fire but moves outside of the aura instead takes 1d6 points of fire damage each round and can attempt another Reflex save each round to extinguish the flames.<br><br><em>Swirling Winds:</em> Powerful winds surround the energized golem, buffeting creatures within range and dealing an additional amount of bludgeoning damage equal to the damage dice of its elemental aura. These winds otherwise function as a&nbsp;<a href=\"https://aonprd.com/SpellDisplay.aspx?ItemName=gust%20of%20wind\">gust of wind</a>&nbsp;spell. An affected creature can attempt a Reflex save to negate this additional damage, but a successful Fortitude save is required to negate the&nbsp;<a href=\"https://aonprd.com/SpellDisplay.aspx?ItemName=gust%20of%20wind\">gust of wind</a>&nbsp;effect. If the energized golem has 10 or more Hit Dice, the DC of Fly or Strength checks to resist the effects of the winds increases by 5.<br><br><strong>Armor Class: </strong>Natural armor improves by 3.<br><br><strong>Hit Points:</strong> An energized golem receives double the bonus hit points based on its size granted by the construct creature type.<br><br><strong>Defensive Abilities:</strong> An energized golem’s body is infused with elemental energy, granting it immunity to a single energy type. Refer to the elemental overcharge special quality below.<br><br><strong>Special Attacks: </strong>An energized golem retains all of the base creature’s special abilities and gains the following special attack.<br><br><em>Energy Discharge (Su):</em> Once per hour, an energized golem can discharge a pulse of energy from its body as a standard action, affecting all targets within a 20-foot burst. This burst deals 1d8 points of energy damage for every 2 Hit Dice the energized golem has (Reflex half ). Each creature damaged by this ability must succeed at a second saving throw or suffer an additional effect. The type of energy damage, the additional effect, and the type of save to avoid this additional effect are determined by the elemental overcharge special quality.<br><br><strong>Ability Scores: </strong>An energized golem gains ability scores based on the base creature’s Hit Dice and the type of elemental spirit used in its creation. If the elemental spirit used is an air or fire elemental spirit, the energized golem gains a +2 bonus to Strength and +4 bonus to Dexterity. If the elemental spirit used is an earth or water elemental spirit, the energized golem gains a +4 bonus to Strength and +2 bonus to Dexterity. If the base creature has 10 or more Hit Dice, these ability score bonuses increase to +8 and +4.<br><br><strong>Special Qualities: </strong>An energized golem retains all of the base creature’s special qualities and gains the following special quality.<br><br><em>Elemental Overcharge (Su):</em> An energized golem is augmented by the elemental spirit that is bound to it during its creation. Its natural attacks deal 1d6 points of energy damage for every 6 Hit Dice the golem has. The type of damage dealt, the golem’s immunity, and its aura are based on the elemental spirit bound to the golem during its creation, as listed on the table below.<br style=\"color: #ffffff; font-family: 'Century Gothic', CenturyGothic, AppleGothic, sans-serif; font-size: 15px; background-color: #0f0f0f;\"><br style=\"color: #ffffff; font-family: 'Century Gothic', CenturyGothic, AppleGothic, sans-serif; font-size: 15px; background-color: #0f0f0f;\"></p>\n<table class=\"inner\" style=\"border-color: white; color: #ffffff; font-family: 'Century Gothic', CenturyGothic, AppleGothic, sans-serif; font-size: 15px; background-color: #0f0f0f;\">\n<tbody style=\"margin-top: 0px;\">\n<tr style=\"margin-top: 0px;\">\n<td style=\"margin: 0px; border: 1px solid white; padding: 1px 5px; text-align: center;\"><strong style=\"margin-top: 0px;\">Elemental</strong></td>\n<td style=\"border: 1px solid white; padding: 1px 5px; margin: 0px; text-align: center;\"><strong style=\"margin-top: 0px;\">Energy</strong></td>\n<td style=\"border: 1px solid white; padding: 1px 5px; margin: 0px; text-align: center;\"><strong style=\"margin-top: 0px;\">Aura</strong></td>\n<td style=\"border: 1px solid white; padding: 1px 5px; margin: 0px; text-align: center;\"><strong style=\"margin-top: 0px;\">Discharge Effect (Saving Throw Type)</strong></td>\n</tr>\n<tr style=\"background: #3e3e3e;\">\n<td style=\"margin: 0px; border: 1px solid white; padding: 1px 5px; text-align: center;\">Air</td>\n<td style=\"border: 1px solid white; padding: 1px 5px; margin: 0px; text-align: center;\">Electricity</td>\n<td style=\"border: 1px solid white; padding: 1px 5px; margin: 0px; text-align: center;\">Swirling winds</td>\n<td style=\"border: 1px solid white; padding: 1px 5px; margin: 0px; text-align: center;\">Stunned for 1 round (Fortitude)</td>\n</tr>\n<tr>\n<td style=\"margin: 0px; border: 1px solid white; padding: 1px 5px; text-align: center;\">Earth</td>\n<td style=\"border: 1px solid white; padding: 1px 5px; margin: 0px; text-align: center;\">Acid</td>\n<td style=\"border: 1px solid white; padding: 1px 5px; margin: 0px; text-align: center;\">Caustic mist</td>\n<td style=\"border: 1px solid white; padding: 1px 5px; margin: 0px; text-align: center;\">Acid clings to targets, dealing half damage next round (Reflex)</td>\n</tr>\n<tr style=\"background: #3e3e3e;\">\n<td style=\"margin: 0px; border: 1px solid white; padding: 1px 5px; text-align: center;\">Fire</td>\n<td style=\"border: 1px solid white; padding: 1px 5px; margin: 0px; text-align: center;\">Fire</td>\n<td style=\"border: 1px solid white; padding: 1px 5px; margin: 0px; text-align: center;\">Immolation</td>\n<td style=\"border: 1px solid white; padding: 1px 5px; margin: 0px; text-align: center;\">Knocked prone (Fortitude)</td>\n</tr>\n<tr>\n<td style=\"margin: 0px; border: 1px solid white; padding: 1px 5px; text-align: center;\">Water</td>\n<td style=\"border: 1px solid white; padding: 1px 5px; margin: 0px; text-align: center;\">Cold</td>\n<td style=\"border: 1px solid white; padding: 1px 5px; margin: 0px; text-align: center;\">Blizzard</td>\n<td style=\"border: 1px solid white; padding: 1px 5px; margin: 0px; text-align: center;\">Entangled for 1d4+1 rounds (Reflex)</td>\n</tr>\n</tbody>\n</table>"
    },
    "tags": [],
    "actions": [],
    "attackNotes": [],
    "effectNotes": [],
    "changes": [
      {
        "_id": "ngx1ca79",
        "formula": "3",
        "operator": "+",
        "subTarget": "nac",
        "modifier": "untyped",
        "priority": 0,
        "value": 0,
        "target": "ac"
      },
      {
        "_id": "wmkvmgz8",
        "formula": "@attributes.hd.total > 9 ? 4 : 2",
        "operator": "+",
        "subTarget": "str",
        "modifier": "untyped",
        "priority": 0,
        "value": 0,
        "target": "ability"
      },
      {
        "_id": "292idjdh",
        "formula": "@attributes.hd.total > 9 ? 8 : 4",
        "operator": "+",
        "subTarget": "dex",
        "modifier": "untyped",
        "priority": 0,
        "value": 0,
        "target": "ability"
      }
    ],
    "contextNotes": [],
    "links": {
      "children": [],
      "charges": []
    },
    "armorProf": {
      "value": []
    },
    "weaponProf": {
      "value": []
    },
    "languages": {
      "value": []
    },
    "flags": {
      "boolean": [],
      "dictionary": []
    },
    "scriptCalls": [],
    "featType": "template",
    "associations": {
      "classes": []
    },
    "crOffset": "2"
  },
  "effects": [],
  "folder": null,
  "sort": 0,
  "permission": {
    "default": 0
  },
  "flags": {}
}
