{
  "_id": "dOa4aQoSdHOtplkp",
  "name": "Lich Creature (Quick)",
  "type": "feat",
  "img": "systems/pf1/icons/skills/violet_07.jpg",
  "data": {
    "description": {
      "value": "<p><strong>Acquired/Inherited Template</strong>&nbsp;Acquired<br><strong>Simple Template&nbsp;</strong>Yes<br><strong>Usable with Summons</strong>&nbsp;No<br><br>While it might not have followed the traditional path to lichdom, which requires a strong aptitude for magic, a lich creature’s connection to an object allows it to survive as an undead indefinitely, returning each time its foes destroy it unless they can destroy the lich creature’s phylactery (Bestiary&nbsp;188).<br><br><strong>Quick Rules:</strong> Counts as undead; darkvision 60 ft.; rejuvenation*; immune to cold and electricity; undead immunities; +1 on rolls based on Int, Wis, and Cha; touch attack deals 1d8 + 1/2 HD points of damage plus paralyzing touch*; fear aura*.<br><br><strong>Rebuild Rules:</strong>&nbsp;Type&nbsp;change to undead;&nbsp;Senses&nbsp;darkvision 60 ft.;&nbsp;Defensive Abilities&nbsp;rejuvenation*;&nbsp;Immune&nbsp;cold, electricity;&nbsp;Melee&nbsp;touch attack deals 1d8 + 1/2 HD points of damage plus paralyzing touch*;&nbsp;Special Attacks&nbsp;fear aura*, paralyzing touch*;&nbsp;Ability Scores&nbsp;+2 Int, +2 Wis, +2 Cha.</p>"
    },
    "tags": [],
    "actions": [],
    "attackNotes": [],
    "effectNotes": [],
    "changes": [
      {
        "_id": "x5fnisd6",
        "formula": "1",
        "operator": "+",
        "subTarget": "intSkills",
        "modifier": "untyped",
        "priority": 0,
        "value": 0,
        "target": "skills"
      },
      {
        "_id": "uvmemiqk",
        "formula": "1",
        "operator": "+",
        "subTarget": "intChecks",
        "modifier": "untyped",
        "priority": 0,
        "value": 0,
        "target": "abilityChecks"
      },
      {
        "_id": "zlrfciw9",
        "formula": "1",
        "operator": "+",
        "subTarget": "will",
        "modifier": "untyped",
        "priority": 0,
        "value": 0,
        "target": "savingThrows"
      },
      {
        "_id": "ow4u81th",
        "formula": "1",
        "operator": "+",
        "subTarget": "wisSkills",
        "modifier": "untyped",
        "priority": 0,
        "value": 0,
        "target": "skills"
      },
      {
        "_id": "5vl55v21",
        "formula": "1",
        "operator": "+",
        "subTarget": "wisChecks",
        "modifier": "untyped",
        "priority": 0,
        "value": 0,
        "target": "abilityChecks"
      },
      {
        "_id": "1fqmy039",
        "formula": "1",
        "operator": "+",
        "subTarget": "chaSkills",
        "modifier": "untyped",
        "priority": 0,
        "value": 0,
        "target": "skills"
      },
      {
        "_id": "waw2sac7",
        "formula": "1",
        "operator": "+",
        "subTarget": "chaChecks",
        "modifier": "untyped",
        "priority": 0,
        "value": 0,
        "target": "abilityChecks"
      }
    ],
    "contextNotes": [],
    "links": {
      "children": [],
      "charges": []
    },
    "armorProf": {
      "value": []
    },
    "weaponProf": {
      "value": []
    },
    "languages": {
      "value": []
    },
    "flags": {
      "boolean": [],
      "dictionary": []
    },
    "scriptCalls": [],
    "featType": "template",
    "associations": {
      "classes": []
    },
    "crOffset": "1"
  },
  "effects": [],
  "folder": null,
  "sort": 0,
  "permission": {
    "default": 0
  },
  "flags": {}
}
