{
  "_id": "XRIfX0iS6TRzs5Ov",
  "name": "Terror Creature",
  "type": "feat",
  "img": "systems/pf1/icons/skills/violet_07.jpg",
  "data": {
    "description": {
      "value": "<p><strong>Acquired/Inherited Template&nbsp;</strong>Acquired<br><strong>Simple Template</strong>&nbsp;Yes<br><strong>Usable with Summons</strong>&nbsp;Yes<br><br>Creatures with the terror template are warped by prolonged contact with the Negative Energy Plane. They are terrifying to behold and have developed special resistances and attacks. A terror creature’s quick and rebuild rules are the same.<br><br><strong>Rebuild Rules:</strong>&nbsp;</p>\n<p><strong>Alignment&nbsp;</strong>changes to NE;&nbsp;</p>\n<p><strong>Senses&nbsp;</strong>gains darkvision 60 ft.;&nbsp;</p>\n<p><strong>Aura&nbsp;</strong>fear (as fear spell, 20 ft., Will save DC 10 + 1/2 terror creature’s racial HD + creature’s Charisma modifier);&nbsp;</p>\n<p><strong>Defensive Abilities&nbsp;</strong>negative energy absorption (Su; heals 1 hit point for every 3 points of damage that negative energy attacks would otherwise deal; a terror creature gets no saving throw against negative energy effects);&nbsp;</p>\n<p><strong>Immune&nbsp;</strong>fear effects</p>"
    },
    "tags": [],
    "actions": [],
    "attackNotes": [],
    "effectNotes": [],
    "changes": [],
    "contextNotes": [],
    "links": {
      "children": [],
      "charges": []
    },
    "armorProf": {
      "value": []
    },
    "weaponProf": {
      "value": []
    },
    "languages": {
      "value": []
    },
    "flags": {
      "boolean": [],
      "dictionary": []
    },
    "scriptCalls": [],
    "featType": "template",
    "associations": {
      "classes": []
    },
    "crOffset": "0"
  },
  "effects": [],
  "folder": null,
  "sort": 0,
  "permission": {
    "default": 0
  },
  "flags": {}
}
