{
  "_id": "Q1cY8r0Pvb66pMG0",
  "name": "Alertness",
  "type": "feat",
  "img": "systems/pf1/icons/feats/alertness.jpg",
  "data": {
    "description": {
      "value": "\n                <i>You often notice things that others might miss.</i>\n                <br />\n                <br />\n                \n                <p><b>Benefits</b></p>\n                <p><p class=\"stat-block-1\"> You get a +2 bonus on Perception and Sense Motive skill checks. If you have 10 or more ranks in one of these skills, the bonus increases to +4 for that skill.</p></p>\n                \n            \n            "
    },
    "tags": [["General"], ["Skill"]],
    "actions": [],
    "attackNotes": [],
    "effectNotes": [],
    "changes": [
      {
        "_id": "4lwdra12",
        "formula": "@skills.sen.rank>=10?4:2",
        "operator": "add",
        "subTarget": "skill.sen",
        "modifier": "untyped",
        "priority": 0,
        "value": 0,
        "target": "skill"
      },
      {
        "_id": "3f1srila",
        "formula": "@skills.per.rank>=10?4:2",
        "operator": "add",
        "subTarget": "skill.per",
        "modifier": "untyped",
        "priority": 0,
        "value": 0,
        "target": "skill"
      }
    ],
    "contextNotes": [],
    "links": {
      "children": [],
      "charges": []
    },
    "tag": "feat_alertness",
    "useCustomTag": true,
    "armorProf": {
      "value": []
    },
    "weaponProf": {
      "value": []
    },
    "languages": {
      "value": []
    },
    "scriptCalls": [],
    "associations": {
      "classes": []
    }
  },
  "effects": [],
  "folder": null,
  "sort": 0,
  "permission": {
    "default": 0
  },
  "flags": {}
}
