{
  "_id": "aUYSiYrtVHkgfHD6",
  "name": "Arcane Armor Mastery",
  "type": "feat",
  "img": "systems/pf1/icons/feats/arcane-armor-mastery.jpg",
  "data": {
    "description": {
      "value": "<p><em>You have mastered the ability to cast spells while wearing armor.</em><br /><br /><strong>Prerequisites</strong><br />Arcane Armor Training, Medium Armor Proficiency, caster level 7th.<br /><br /><strong>Benefits</strong><br />As a swift action, reduce the arcane spell failure chance due to the armor you are wearing by 20% for any spells you cast this round. This bonus replaces, and does not stack with, the bonus granted by Arcane Armor Training.<br /><br /><strong>Combat Trick</strong><br />When casting a spell while wearing armor, you can spend 1 stamina point to activate Arcane Armor Mastery as a free action, or spend a number of stamina points equal to the spell's level (minimum 1) to ignore your armor's arcane spell failure chance entirely for that casting.</p>"
    },
    "tags": [["PFS"], ["Combat"]],
    "actions": [],
    "attackNotes": [],
    "effectNotes": [],
    "changes": [],
    "contextNotes": [
      {
        "subTarget": "spellEffect",
        "text": "[[-20]]% arcane spell failure. This bonus replaces Arcane Armor Training."
      }
    ],
    "links": {
      "children": [],
      "charges": []
    },
    "tag": "feat_arcaneArmorMastery",
    "useCustomTag": true,
    "armorProf": {
      "value": []
    },
    "weaponProf": {
      "value": []
    },
    "languages": {
      "value": []
    },
    "scriptCalls": [],
    "associations": {
      "classes": []
    }
  },
  "effects": [],
  "folder": null,
  "sort": 0,
  "permission": {
    "default": 0
  },
  "flags": {}
}
