{
  "_id": "tD76K8QGco9scT0r",
  "name": "Craft Wondrous Item",
  "type": "feat",
  "img": "systems/pf1/icons/feats/craft-wondrous-items.jpg",
  "data": {
    "description": {
      "value": "\n                <i>You can create wondrous items, a type of magic item.</i>\n                <br />\n                <br />\n                \n                <p><b>Prerequisites</b></p>\n                <p> Caster level 3rd.</p>\n                \n            <br />\n                <p><b>Benefits</b></p>\n                <p><p class=\"stat-block-1\"> You can create a wide variety of magic wondrous items. Crafting a wondrous item takes 1 day for each 1,000 gp in its price. To create a wondrous item, you must use up raw materials costing half of its base price. See the magic item creation rules in Magic Items for more information.</p><p class=\"stat-block-2\">You can also mend a broken wondrous item if it is one that you could make. Doing so costs half the raw materials and half the time it would take to craft that item.</p></p>\n                \n            \n            "
    },
    "tags": [["General"], ["Item Creation"]],
    "actions": [],
    "attackNotes": [],
    "effectNotes": [],
    "changes": [],
    "contextNotes": [],
    "links": {
      "children": [],
      "charges": []
    },
    "tag": "feat_craftWondrousItem",
    "useCustomTag": true,
    "armorProf": {
      "value": []
    },
    "weaponProf": {
      "value": []
    },
    "languages": {
      "value": []
    },
    "scriptCalls": [],
    "associations": {
      "classes": []
    }
  },
  "effects": [],
  "folder": null,
  "sort": 0,
  "permission": {
    "default": 0
  },
  "flags": {}
}
