{
  "_id": "JNlMhMhcDO8wkXiw",
  "name": "Critical Focus",
  "type": "feat",
  "img": "systems/pf1/icons/feats/critical-focus.jpg",
  "data": {
    "description": {
      "value": "<p><em>You are trained in the art of causing pain.</em><br /><br /><strong>Prerequisites</strong><br />Base attack bonus +9.<br /><br /><strong>Benefits</strong><br />You receive a +4 circumstance bonus on attack rolls made to confirm critical hits.<br /><br /><strong>Combat Trick</strong><br />If your successful critical confirmation roll is a natural 19 or 20, you can spend 2 stamina points to roll another confirmation roll. If this confirmation roll also succeeds, increase your critical multiplier by 1 for this attack, and you can roll again. If you continue to roll 19 or 20, you can continue to spend stamina points for additional rolls, and the increases to the critical multiplier stack.</p>"
    },
    "tags": [["PFS"], ["Combat"], ["Critical"]],
    "actions": [],
    "attackNotes": [],
    "effectNotes": [],
    "changes": [],
    "contextNotes": [
      {
        "subTarget": "attack",
        "target": "attacks",
        "text": "+4 circumstance bonus on attack rolls made to confirm critical hits"
      }
    ],
    "links": {
      "children": [],
      "charges": []
    },
    "tag": "feat_criticalFocus",
    "useCustomTag": true,
    "armorProf": {
      "value": []
    },
    "weaponProf": {
      "value": []
    },
    "languages": {
      "value": []
    },
    "scriptCalls": [],
    "associations": {
      "classes": []
    }
  },
  "effects": [],
  "folder": null,
  "sort": 0,
  "permission": {
    "default": 0
  },
  "flags": {}
}
