{
  "_id": "en3iH9cxZtYQNd08",
  "name": "Deadly Stroke",
  "type": "feat",
  "img": "systems/pf1/icons/feats/deadly-stroke.jpg",
  "data": {
    "description": {
      "value": "<p><em>With a well-placed strike, you can bring a swift and painful end to most foes.</em><br /><br /><strong>Prerequisites</strong><br />Dazzling Display, Greater Weapon Focus, Shatter Defenses, Weapon Focus, proficiency with the selected weapon, base attack bonus +11.<br /><br /><strong>Benefits</strong><br />As a standard action, make a single attack with the weapon for which you have Greater Weapon Focus against a stunned or flat-footed opponent. If you hit, you deal double the normal damage and the target takes 1 point of Constitution bleed (see Conditions). The additional damage and bleed is not multiplied on a critical hit.<br /><br /><strong>Combat Trick</strong><br />You can spend 5 stamina points to make a Deadly Stroke attack against a dazed opponent, or 10 stamina points to make a Deadly Stroke against an opponent you are flanking.</p>"
    },
    "tags": [["PFS"], ["Combat"]],
    "actions": [],
    "attackNotes": [],
    "effectNotes": [],
    "changes": [],
    "contextNotes": [
      {
        "subTarget": "meleeWeapon",
        "text": "Deadly Stroke: against a stunned or flat-footed opponent, deal double damage plus [[1]] Con bleed."
      },
      {
        "subTarget": "rangedWeapon",
        "text": "Deadly Stroke: against a stunned or flat-footed opponent, deal double damage plus [[1]] Con bleed."
      }
    ],
    "links": {
      "children": [],
      "charges": []
    },
    "tag": "feat_deadlyStroke",
    "useCustomTag": true,
    "armorProf": {
      "value": []
    },
    "weaponProf": {
      "value": []
    },
    "languages": {
      "value": []
    },
    "scriptCalls": [],
    "associations": {
      "classes": []
    }
  },
  "effects": [],
  "folder": null,
  "sort": 0,
  "permission": {
    "default": 0
  },
  "flags": {}
}
