{
  "_id": "btXWioB3SKJv8YEG",
  "name": "Extend Spell",
  "type": "feat",
  "img": "systems/pf1/icons/feats/extend-spell.jpg",
  "data": {
    "description": {
      "value": "<p><em>You can make your spells last twice as long.</em> <br /><br /></p>\n<p><strong>Benefits</strong></p>\n<p class=\"stat-block-1\">An extended spell lasts twice as long as normal. A spell with a duration of concentration, instantaneous, or permanent is not affected by this feat. An extended spell uses up a spell slot one level higher than the spell's actual level.</p>\n<p class=\"stat-block-1\"><strong><br class=\"Apple-interchange-newline\" />Usage</strong>: create copies of spells and adjust them.</p>"
    },
    "tags": [["Metamagic"], ["Magic"]],
    "actions": [],
    "attackNotes": [],
    "effectNotes": [],
    "changes": [],
    "contextNotes": [],
    "links": {
      "children": [],
      "charges": []
    },
    "tag": "feat_extendSpell",
    "useCustomTag": true,
    "armorProf": {
      "value": []
    },
    "weaponProf": {
      "value": []
    },
    "languages": {
      "value": []
    },
    "scriptCalls": [],
    "associations": {
      "classes": []
    }
  },
  "effects": [],
  "folder": null,
  "sort": 0,
  "permission": {
    "default": 0
  },
  "flags": {}
}
