{
  "_id": "wJNggbGTZBx7BW9W",
  "name": "Greater Sunder",
  "type": "feat",
  "img": "systems/pf1/icons/feats/greater-sunder.jpg",
  "data": {
    "description": {
      "value": "\n                <i>Your devastating strikes cleave through weapons and armor and into their wielders, damaging both item and wielder alike in a single terrific strike.</i>\n                <br />\n                <br />\n                \n                <p><b>Prerequisites</b></p>\n                <p> Improved Sunder, Power Attack, base attack bonus +6, Str 13.</p>\n                \n            <br />\n                <p><b>Benefits</b></p>\n                <p><p class=\"stat-block-1\"> You receive a +2 bonus on checks made to sunder an item. This bonus stacks with the bonus granted by Improved Sunder. Whenever you sunder to destroy a weapon, shield, or suit of armor, any excess damage is applied to the item's wielder. No damage is transferred if you decide to leave the item with 1 hit point.</p></p>\n                \n            \n            "
    },
    "tags": [["Combat"], ["Combat Maneuver"], ["Offensive"]],
    "actions": [],
    "attackNotes": [],
    "effectNotes": [],
    "changes": [],
    "contextNotes": [],
    "links": {
      "children": [],
      "charges": []
    },
    "tag": "feat_greaterSunder",
    "useCustomTag": true,
    "armorProf": {
      "value": []
    },
    "weaponProf": {
      "value": []
    },
    "languages": {
      "value": []
    },
    "scriptCalls": [],
    "associations": {
      "classes": []
    }
  },
  "effects": [],
  "folder": null,
  "sort": 0,
  "permission": {
    "default": 0
  },
  "flags": {}
}
