{
  "_id": "O109YFcItBFUDHvu",
  "name": "Heighten Spell",
  "type": "feat",
  "img": "systems/pf1/icons/feats/heighten-spell.jpg",
  "data": {
    "description": {
      "value": "\n                <i>You can cast spells as if they were a higher level.</i>\n                <br />\n                <br />\n                \n                <p><b>Benefits</b></p>\n                <p><p class=\"stat-block-1\"> A heightened spell has a higher spell level than normal (up to a maximum of 9th level). Unlike other metamagic feats, Heighten Spell actually increases the effective level of the spell that it modifies. All effects dependent on spell level (such as saving throw DCs and ability to penetrate a <i>lesser globe of invulnerability</i>) are calculated according to the heightened level. The heightened spell is as difficult to prepare and cast as a spell of its effective level. </p></p>\n                \n            \n            "
    },
    "tags": [["Metamagic"], ["Magic"]],
    "actions": [],
    "attackNotes": [],
    "effectNotes": [],
    "changes": [],
    "contextNotes": [],
    "links": {
      "children": [],
      "charges": []
    },
    "tag": "feat_heightenSpell",
    "useCustomTag": true,
    "armorProf": {
      "value": []
    },
    "weaponProf": {
      "value": []
    },
    "languages": {
      "value": []
    },
    "scriptCalls": [],
    "associations": {
      "classes": []
    }
  },
  "effects": [],
  "folder": null,
  "sort": 0,
  "permission": {
    "default": 0
  },
  "flags": {}
}
