{
  "_id": "8VZQJOyAXbXghxd7",
  "name": "Self-Sufficient",
  "type": "feat",
  "img": "systems/pf1/icons/skills/green_32.jpg",
  "data": {
    "description": {
      "value": "<em>You know how to get along in the wild and how to effectively treat wounds.</em><br/><br/><b>Benefits</b><br/>You get a +2 bonus on all Heal checks and Survival checks. If you have 10 or more ranks in one of these skills, the bonus increases to +4 for that skill."
    },
    "tags": [["PFS"], ["General"]],
    "actions": [],
    "attackNotes": [],
    "effectNotes": [],
    "changes": [
      {
        "_id": "itrf3f4h",
        "formula": "@skills.hea.ranks >= 10 ? 4 : 2",
        "operator": "add",
        "subTarget": "skill.hea",
        "modifier": "untyped",
        "priority": 0,
        "value": 2
      },
      {
        "_id": "ph7lqkbj",
        "formula": "@skills.sur.ranks >= 10 ? 4 : 2",
        "operator": "add",
        "subTarget": "skill.sur",
        "modifier": "untyped",
        "priority": 0,
        "value": 2
      }
    ],
    "contextNotes": [],
    "links": {
      "children": [],
      "charges": []
    },
    "tag": "feat_selfsufficient",
    "useCustomTag": true,
    "armorProf": {
      "value": []
    },
    "weaponProf": {
      "value": []
    },
    "languages": {
      "value": []
    },
    "scriptCalls": [],
    "associations": {
      "classes": []
    }
  },
  "effects": [],
  "folder": null,
  "sort": 0,
  "permission": {
    "default": 0
  },
  "flags": {}
}
