{
  "_id": "O7Dn4bXZtMW0UstG",
  "name": "Turn Undead",
  "type": "feat",
  "img": "systems/pf1/icons/feats/turn-undead.jpg",
  "data": {
    "description": {
      "value": "\n                <i>Calling upon higher powers, you cause undead to flee from the might of your unleashed divine energy.</i>\n                <br />\n                <br />\n                \n                <p><b>Prerequisites</b></p>\n                <p> Channel positive energy class feature.</p>\n                \n            <br />\n                <p><b>Benefits</b></p>\n                <p><p class=\"stat-block-1\"> You can, as a standard action, use one of your uses of channel positive energy to cause all undead within 30 feet of you to flee, as if panicked. Undead receive a Will save to negate the effect. The DC for this Will save is equal to 10 + 1/2 your cleric level + your Charisma modifier. Undead that fail their save flee for 1 minute. Intelligent undead receive a new saving throw each round to end the effect. If you use channel energy in this way, it has no other effect (it does not heal or harm nearby creatures).</p></p>\n                \n            \n            "
    },
    "tags": [["Channeling"]],
    "actions": [],
    "attackNotes": [],
    "effectNotes": [],
    "changes": [],
    "contextNotes": [],
    "links": {
      "children": [],
      "charges": []
    },
    "tag": "feat_turnUndead",
    "useCustomTag": true,
    "armorProf": {
      "value": []
    },
    "weaponProf": {
      "value": []
    },
    "languages": {
      "value": []
    },
    "scriptCalls": [],
    "associations": {
      "classes": []
    }
  },
  "effects": [],
  "folder": null,
  "sort": 0,
  "permission": {
    "default": 0
  },
  "flags": {}
}
