{
  "_id": "Ee7JHADKEK37tTHs",
  "name": "Two-Weapon Fighting",
  "type": "feat",
  "img": "systems/pf1/icons/feats/two-weapon-fighting.jpg",
  "data": {
    "description": {
      "value": "\n                <i>You can fight with a weapon wielded in each of your hands. You can make one extra attack each round with the secondary weapon.</i>\n                <br />\n                <br />\n                \n                <p><b>Prerequisites</b></p>\n                <p> Dex 15.</p>\n                \n            <br />\n                <p><b>Benefits</b></p>\n                <p><p class=\"stat-block-1\"> Your penalties on attack rolls for fighting with two weapons are reduced. The penalty for your primary hand lessens by 2 and the one for your off hand lessens by 6. See Two-Weapon Fighting in Combat.</p></p>\n                \n            <br />\n                <p><b>Normal</b></p>\n                <p><p class=\"stat-block-1\"> If you wield a second weapon in your off hand, you can get one extra attack per round with that weapon. When fighting in this way you suffer a &ndash;6 penalty with your regular attack or attacks with your primary hand and a &ndash;10 penalty to the attack with your off hand. If your off-hand weapon is light, the penalties are reduced by 2 each. An unarmed strike is always considered light.</p></p>\n                \n            \n            "
    },
    "tags": [["Combat"], ["Weapon"], ["Two Weapons"], ["Offensive"]],
    "actions": [],
    "attackNotes": [],
    "effectNotes": [],
    "changes": [],
    "contextNotes": [],
    "links": {
      "children": [],
      "charges": []
    },
    "tag": "feat_twoweaponFighting",
    "useCustomTag": true,
    "armorProf": {
      "value": []
    },
    "weaponProf": {
      "value": []
    },
    "languages": {
      "value": []
    },
    "scriptCalls": [],
    "associations": {
      "classes": []
    }
  },
  "effects": [],
  "folder": null,
  "sort": 0,
  "permission": {
    "default": 0
  },
  "flags": {}
}
