{
  "_id": "jLZAApW8ymudcJpw",
  "name": "Drow Noble",
  "type": "race",
  "img": "systems/pf1/icons/races/drow.png",
  "data": {
    "description": {
      "value": "<h2>Starting Age</h2>\n<table style=\"border-spacing: 0px; background-color: #ffffff; margin: 10px; table-layout: fixed; border-color: #888888; min-width: 200px; color: #333333; font-family: Varela, sans-serif;\" border=\"1\" cellpadding=\"5\">\n<thead style=\"box-sizing: border-box; background-color: #cfe2f3;\">\n<tr style=\"box-sizing: border-box;\">\n<th class=\"text\" style=\"box-sizing: border-box; padding: 2px; text-align: left; border: 1px solid #888888;\">Adulthood</th>\n<th class=\"text\" style=\"box-sizing: border-box; padding: 2px; text-align: left; border: 1px solid #888888;\">Intuitive<span style=\"box-sizing: border-box; position: relative; font-size: 10px; line-height: 0; vertical-align: baseline; top: -0.5em;\">1</span></th>\n<th class=\"text\" style=\"box-sizing: border-box; padding: 2px; text-align: left; border: 1px solid #888888;\">Self-Taught<span style=\"box-sizing: border-box; position: relative; font-size: 10px; line-height: 0; vertical-align: baseline; top: -0.5em;\">2</span></th>\n<th class=\"text\" style=\"box-sizing: border-box; padding: 2px; text-align: left; border: 1px solid #888888;\">Trained<span style=\"box-sizing: border-box; position: relative; font-size: 10px; line-height: 0; vertical-align: baseline; top: -0.5em;\">3</span></th>\n</tr>\n</thead>\n<tbody style=\"box-sizing: border-box;\">\n<tr style=\"box-sizing: border-box;\">\n<td class=\"text\" style=\"box-sizing: border-box; padding: 2px; vertical-align: top; border: 1px solid #888888;\">110 years</td>\n<td class=\"text\" style=\"box-sizing: border-box; padding: 2px; vertical-align: top; border: 1px solid #888888;\">+4d6 years<br style=\"box-sizing: border-box;\" />(114 &ndash; 134 years)</td>\n<td class=\"text\" style=\"box-sizing: border-box; padding: 2px; vertical-align: top; border: 1px solid #888888;\">+6d6 years<br style=\"box-sizing: border-box;\" />(116 &ndash; 146 years)</td>\n<td class=\"text\" style=\"box-sizing: border-box; padding: 2px; vertical-align: top; border: 1px solid #888888;\">+10d6 years<br style=\"box-sizing: border-box;\" />(120 &ndash; 170 years)</td>\n</tr>\n</tbody>\n</table>\n<p><sup style=\"box-sizing: border-box; user-select: text; color: #191813;\">1</sup><span style=\"color: #191813; font-size: 13px;\">&nbsp;This category includes barbarians, oracles, rogues, and sorcerers.</span><br style=\"box-sizing: border-box; user-select: text; color: #191813; font-size: 13px;\" /><sup style=\"box-sizing: border-box; user-select: text; color: #191813;\">2</sup><span style=\"color: #191813; font-size: 13px;\">&nbsp;This category includes bards, cavaliers, fighters, gunslingers, paladins, rangers, summoners, and witches.</span><br style=\"box-sizing: border-box; user-select: text; color: #191813; font-size: 13px;\" /><sup style=\"box-sizing: border-box; user-select: text; color: #191813;\">3</sup><span style=\"color: #191813; font-size: 13px;\"> This category includes alchemists, clerics, druids, inquisitors, magi, monks, and wizards.</span></p>\n<h2>Height and Weight</h2>\n<table style=\"border-spacing: 0px; background-color: #ffffff; margin: 10px; table-layout: fixed; border-color: #888888; min-width: 200px; color: #333333; font-family: Varela, sans-serif;\" border=\"1\" cellpadding=\"5\">\n<thead style=\"box-sizing: border-box; background-color: #cfe2f3;\">\n<tr style=\"box-sizing: border-box;\">\n<th class=\"text\" style=\"box-sizing: border-box; padding: 2px; text-align: left; border: 1px solid #888888;\">Gender</th>\n<th class=\"text\" style=\"box-sizing: border-box; padding: 2px; text-align: left; border: 1px solid #888888;\">Base Height</th>\n<th class=\"text\" style=\"box-sizing: border-box; padding: 2px; text-align: left; border: 1px solid #888888;\">Height Modifier</th>\n<th class=\"text\" style=\"box-sizing: border-box; padding: 2px; text-align: left; border: 1px solid #888888;\">Base Weight</th>\n<th class=\"text\" style=\"box-sizing: border-box; padding: 2px; text-align: left; border: 1px solid #888888;\">Weight Modifier</th>\n</tr>\n</thead>\n<tbody style=\"box-sizing: border-box;\">\n<tr style=\"box-sizing: border-box;\">\n<td class=\"text\" style=\"box-sizing: border-box; padding: 2px; vertical-align: top; border: 1px solid #888888;\">Male</td>\n<td class=\"text\" style=\"box-sizing: border-box; padding: 2px; vertical-align: top; border: 1px solid #888888;\">5 ft. 4 in.</td>\n<td class=\"text\" style=\"box-sizing: border-box; padding: 2px; vertical-align: top; border: 1px solid #888888;\">+2d6 in.<br style=\"box-sizing: border-box;\" />(5 ft. 6 in. &ndash; 6 ft. 4 in.)</td>\n<td class=\"text\" style=\"box-sizing: border-box; padding: 2px; vertical-align: top; border: 1px solid #888888;\">90 lbs.</td>\n<td class=\"text\" style=\"box-sizing: border-box; padding: 2px; vertical-align: top; border: 1px solid #888888;\">+(2d6&times;5 lbs.)<br style=\"box-sizing: border-box;\" />(100 &ndash; 150 lbs.)</td>\n</tr>\n<tr style=\"box-sizing: border-box; background-color: #f3f3f3;\">\n<td class=\"text\" style=\"box-sizing: border-box; padding: 2px; vertical-align: top; border: 1px solid #888888;\">Female</td>\n<td class=\"text\" style=\"box-sizing: border-box; padding: 2px; vertical-align: top; border: 1px solid #888888;\">5 ft. 4 in.</td>\n<td class=\"text\" style=\"box-sizing: border-box; padding: 2px; vertical-align: top; border: 1px solid #888888;\">+2d8 in.<br style=\"box-sizing: border-box;\" />(5 ft. 6 in. &ndash; 6 ft. 8 in.)</td>\n<td class=\"text\" style=\"box-sizing: border-box; padding: 2px; vertical-align: top; border: 1px solid #888888;\">110 lbs.</td>\n<td class=\"text\" style=\"box-sizing: border-box; padding: 2px; vertical-align: top; border: 1px solid #888888;\">+(2d8&times;5 lbs.)<br style=\"box-sizing: border-box;\" />(120 &ndash; 190 lbs.)</td>\n</tr>\n</tbody>\n</table>\n<h2>Standard Racial Traits</h2>\n<ul>\n<li><strong>Ability Score Racial Traits</strong>: Drow are nimble and manipulative. They gain +4 <a href=\"https://www.d20pfsrd.com/basics-ability-scores/ability-scores#TOC-Dexterity-Dex-\">Dexterity</a>, +2 Intelligence, +2 Wisdom, +2 <a href=\"https://www.d20pfsrd.com/basics-ability-scores/ability-scores#TOC-Charisma-Cha-\">Charisma</a>, and &ndash;2&nbsp;<a href=\"https://www.d20pfsrd.com/basics-ability-scores/ability-scores#TOC-Constitution-Con-\">Constitution</a>.</li>\n<li><strong>Type:</strong> Drow are&nbsp;<a href=\"https://www.d20pfsrd.com/bestiary/rules-for-monsters/creature-types#TOC-Humanoid\">humanoids</a>&nbsp;with the&nbsp;<a href=\"https://www.d20pfsrd.com/races/core-races/elf\">elf</a>&nbsp;subtype.</li>\n<li><strong>Size:</strong> Drow are Medium creatures and thus receive no bonuses or penalties due to their size.</li>\n<li><strong>Base Speed</strong>: Drow have a base speed of 30 feet.</li>\n<li><strong>Weapon Familiarity</strong>: Drow are proficient with the @Compendium[pf1.weapons-and-ammo.BgTqaNqyS3tnLGAg]{Hand Crossbow}, @Compendium[pf1.weapons-and-ammo.LA6TC5679iOXDNwq]{Rapier}, and @Compendium[pf1.weapons-and-ammo.7tGcTtI2fEj1AFaT]{Shortsword}.</li>\n<li><strong>Languages:</strong> Drow begin play speaking Elven and Undercommon. Drow with high&nbsp;<a href=\"https://www.d20pfsrd.com/basics-ability-scores/ability-scores#TOC-Intelligence-Int-\">Intelligence</a>&nbsp;scores can choose from the following languages: Abyssal, Aklo, Aquan, Common, Draconic, Drow Sign Language, Gnome, or Goblin. See the&nbsp;<a href=\"https://www.d20pfsrd.com/skills/linguistics\">Linguistics skill page</a>&nbsp;for more information about these languages.</li>\n</ul>\n<h3>Defense Racial Traits</h3>\n<ul>\n<li><strong>Immunities:</strong>&nbsp;Drow are immune to magic&nbsp;<a href=\"https://www.d20pfsrd.com/magic/all-spells/s/sleep\">sleep</a>&nbsp;effects and gain a +2&nbsp;<a href=\"https://www.d20pfsrd.com/basics-ability-scores/glossary#TOC-Racial-Bonus\">racial bonus</a>&nbsp;on saving throws against&nbsp;<a href=\"https://www.d20pfsrd.com/magic#TOC-Enchantment\">enchantment</a>&nbsp;spells and effects.</li>\n<li><strong>Spell Resistance</strong>: Drow Nobles possess <a href=\"https://www.d20pfsrd.com/gamemastering/special-abilities#TOC-Spell-Resistance\">spell resistance</a> (SR) equal to 11 plus their total number of class levels.</li>\n</ul>\n<h3>Feat and Skill Racial Traits</h3>\n<ul>\n<li><strong>Keen Senses</strong>:&nbsp;Drow gain a +2&nbsp;<a href=\"https://www.d20pfsrd.com/basics-ability-scores/glossary#TOC-Racial-Bonus\">racial bonus</a> on @Compendium[pf1.skills.YYmmxDgp0g3ltSUG]{Perception}&nbsp;checks.</li>\n</ul>\n<h3>Magical Racial Traits</h3>\n<ul>\n<li><strong>Spell-Like Abilities (Su)</strong>: Drow Nobles can cast @Compendium[pf1.spells.zymaptg3vmnvfvxl]{Dancing Lights}, @Compendium[pf1.spells.jdsvncnna6oy189a]{Deeper Darkness}, @Compendium[pf1.spells.bl71og1gklwncmt7]{Faerie Fire}, @Compendium[pf1.spells.68m9du7zw2di7ew6]{Feather Fall} and @Compendium[pf1.spells.plou8h168bfn5hq6]{Levitate} at will, and are constantly affected by @Compendium[pf1.spells.uqh87jz757r2cb7r]{Detect Magic}, using their total character level as <a href=\"https://www.d20pfsrd.com/magic#TOC-Caster-Level\">caster level</a>.</li>\n</ul>\n<h3>Offense Racial Traits</h3>\n<ul>\n<li><strong>Poison Use</strong>: Drow are skilled in the use of&nbsp;<a href=\"https://www.d20pfsrd.com/gamemastering/afflictions/poison\">poisons</a>&nbsp;and never risk accidentally poisoning themselves.</li>\n</ul>\n<h3>Senses Racial Traits</h3>\n<ul>\n<li><strong>Superior Darkvision</strong>: Drow have superior darkvision, allowing them to see perfectly in the dark up to 120 feet.</li>\n</ul>\n<h3>Weakness Racial Traits</h3>\n<ul>\n<li><strong>Light Blindness</strong>: As deep underground dwellers naturally, drow suffer from&nbsp;<a href=\"https://www.d20pfsrd.com/bestiary/rules-for-monsters/universal-monster-rules#TOC-Light-Blindness-Ex-\">light blindness</a>. Abrupt exposure to any bright light @Compendium[pf1.conditions.coxrkb6qUKBZvVxP]{blinds} drow for 1 round. On subsequent rounds, they are @Compendium[pf1.conditions.2pICNUG3g7O4obyu]{dazzled} as long as they remain in the affected area.</li>\n</ul>"
    },
    "tags": [],
    "changes": [
      {
        "_id": "ux4kwop6",
        "formula": "4",
        "operator": "add",
        "subTarget": "dex",
        "modifier": "racial",
        "priority": 0,
        "value": 0,
        "target": "ability"
      },
      {
        "_id": "gysjlugl",
        "formula": "2",
        "operator": "add",
        "subTarget": "cha",
        "modifier": "racial",
        "priority": 0,
        "value": 0,
        "target": "ability"
      },
      {
        "_id": "pwxhb7mp",
        "formula": "-2",
        "operator": "add",
        "subTarget": "con",
        "modifier": "racial",
        "priority": 0,
        "value": 0,
        "target": "ability"
      },
      {
        "_id": "x6at6cfs",
        "formula": "2",
        "operator": "add",
        "subTarget": "skill.per",
        "modifier": "racial",
        "priority": 0,
        "value": 0,
        "target": "skill"
      },
      {
        "_id": "76fnfqa1",
        "formula": "2",
        "operator": "add",
        "subTarget": "int",
        "modifier": "racial",
        "priority": 0,
        "value": 0,
        "target": "ability"
      },
      {
        "_id": "ryqvevw7",
        "formula": "2",
        "operator": "add",
        "subTarget": "wis",
        "modifier": "racial",
        "priority": 0,
        "value": 0,
        "target": "ability"
      }
    ],
    "contextNotes": [
      {
        "formula": "",
        "operator": "+",
        "target": "savingThrows",
        "subTarget": "allSavingThrows",
        "modifier": "",
        "priority": 0,
        "value": 0,
        "text": "+[[2]] Racial vs Enchantment Effects\nImmune to Magic Sleep"
      }
    ],
    "links": {
      "children": []
    },
    "armorProf": {
      "value": []
    },
    "weaponProf": {
      "value": []
    },
    "languages": {
      "value": ["undercommon", "elven"]
    },
    "flags": {
      "boolean": [],
      "dictionary": []
    },
    "scriptCalls": [],
    "subTypes": [["Elf"]]
  },
  "effects": [],
  "folder": null,
  "sort": 0,
  "permission": {
    "default": 0
  },
  "flags": {}
}
