{
  "_id": "RYGdmT9D0wqFL8F3",
  "name": "Colossal Ram",
  "type": "weapon",
  "img": "systems/pf1/icons/items/weapons/dwarven-sphinx-hammer.PNG",
  "data": {
    "description": {
      "value": "<p><strong>Source</strong> <em>Ultimate Combat pg. 166</em></p><h3 class=\"framing\">Statistics</h3><p><strong>Cost</strong> 5,000 gp <strong>Weight</strong> -</p><p><strong>Damage</strong> 10d6; <strong>Critical</strong> x3; <strong>Range</strong> -; <strong>Type</strong> B</p><p><strong>Crew</strong> 40; <strong>Aim</strong> 0; <strong>Load</strong> 0; <strong>Speed</strong> 15 ft.</p><p><strong>Category</strong> Close Assault; <strong>Proficiency</strong> Siege Engine</p><h3 class=\"framing\">Description</h3><p></p>"
    },
    "tags": [],
    "price": 5000,
    "hardness": 10,
    "changes": [],
    "actions": [
      {
        "_id": "ipdweogg4bbx139p",
        "name": "Attack",
        "img": "systems/pf1/icons/items/weapons/dwarven-sphinx-hammer.PNG",
        "description": "",
        "activation": {
          "cost": 1,
          "type": "attack"
        },
        "unchainedAction": {
          "activation": {
            "cost": 1,
            "type": ""
          }
        },
        "duration": {
          "value": null,
          "units": "inst"
        },
        "target": {
          "value": ""
        },
        "range": {
          "value": 0,
          "units": "melee",
          "maxIncrements": 1,
          "minValue": null,
          "minUnits": ""
        },
        "uses": {
          "autoDeductCharges": true,
          "autoDeductChargesCost": "1",
          "per": null,
          "value": 0,
          "maxFormula": ""
        },
        "measureTemplate": {
          "type": "",
          "size": "",
          "overrideColor": false,
          "customColor": "",
          "overrideTexture": false,
          "customTexture": ""
        },
        "attackName": "",
        "actionType": "mwak",
        "attackBonus": "",
        "critConfirmBonus": "",
        "damage": {
          "parts": [
            [
              "sizeRoll(10, 6, @size)",
              {
                "values": ["bludgeoning"],
                "custom": ""
              }
            ]
          ],
          "critParts": [],
          "nonCritParts": []
        },
        "attackParts": [],
        "formulaicAttacks": {
          "count": {
            "formula": "min(3, ceil(@attributes.bab.total / 5) - 1)"
          },
          "bonus": {
            "formula": "@formulaicAttack * -5"
          },
          "label": null
        },
        "formula": "",
        "ability": {
          "attack": "str",
          "damage": "str",
          "damageMult": 1,
          "critRange": "",
          "critMult": "3"
        },
        "save": {
          "dc": 0,
          "type": "",
          "description": ""
        },
        "effectNotes": [],
        "attackNotes": [],
        "soundEffect": "",
        "powerAttack": {
          "multiplier": "",
          "damageBonus": 2,
          "critMultiplier": 1
        },
        "naturalAttack": {
          "secondary": {
            "attackBonus": "-5",
            "damageMult": 0.5
          }
        },
        "nonlethal": false,
        "usesAmmo": false,
        "spellEffect": "",
        "spellArea": "",
        "conditionals": [],
        "enh": {
          "override": false,
          "value": 0
        }
      }
    ],
    "attackNotes": [],
    "effectNotes": [],
    "contextNotes": [],
    "links": {
      "children": []
    },
    "tag": "colossalRam",
    "scriptCalls": [],
    "weaponType": "misc",
    "weaponSubtype": "other"
  },
  "effects": [],
  "folder": null,
  "sort": 0,
  "permission": {
    "default": 0
  },
  "flags": {}
}
