{
  "_id": "TGPELygeHlA4eDrj",
  "name": "Dire Bolas",
  "type": "weapon",
  "img": "systems/pf1/icons/items/weapons/bolas.png",
  "data": {
    "description": {
      "value": "<p><strong>Source</strong> <em>Giant Hunter's Handbook pg. 24</em></p><h3 class=\"framing\"><img src=\"https://www.aonprd.com/images/PathfinderSocietySymbol.gif\" title=\"PFS Legal\" style=\"margin:3px 3px 0px 3px;\">Statistics</h3><p><strong>Cost</strong> 20 gp <strong>Weight</strong> 4 lbs.</p><p><strong>Damage</strong> 1d4 (small), 1d6 (medium); <strong>Critical</strong> x2; <strong>Range</strong> 10 ft.; <strong>Type</strong> B; <strong>Special</strong> nonlethal, trip</p><p><strong>Category</strong> Ranged; <strong>Proficiency</strong> Exotic</p><h3 class=\"framing\">Description</h3><p>This specialized bolas can be used to perform ranged trip combat maneuvers against creatures far larger than the wielder. It consists of a pair of metal weights connected by a silk rope 20 feet long. Because of the great size and weight of the bolas, you need both hands to swing it around your head, and considerable time to get the weights up to speed. Making a ranged attack with it is a full-round action. You can use a dire bolas to trip a creature whose size is up to three size categories larger than yours.</p>"
    },
    "tags": [],
    "weight": 4,
    "price": 20,
    "hp": {
      "max": 5,
      "value": 5
    },
    "hardness": 5,
    "identifiedName": "Dire Bolas",
    "changes": [],
    "actions": [
      {
        "_id": "uvibsibaflk41bsi",
        "name": "Attack",
        "img": "systems/pf1/icons/items/weapons/bolas.png",
        "description": "",
        "activation": {
          "cost": 1,
          "type": "attack"
        },
        "unchainedAction": {
          "activation": {
            "cost": 1,
            "type": ""
          }
        },
        "duration": {
          "value": null,
          "units": "inst"
        },
        "target": {
          "value": ""
        },
        "range": {
          "value": 10,
          "units": "ft",
          "maxIncrements": 1,
          "minValue": null,
          "minUnits": ""
        },
        "uses": {
          "autoDeductCharges": true,
          "autoDeductChargesCost": "1",
          "per": null,
          "value": 0,
          "maxFormula": ""
        },
        "measureTemplate": {
          "type": "",
          "size": "",
          "overrideColor": false,
          "customColor": "",
          "overrideTexture": false,
          "customTexture": ""
        },
        "attackName": "",
        "actionType": "rwak",
        "attackBonus": "",
        "critConfirmBonus": "",
        "damage": {
          "parts": [
            [
              "sizeRoll(1, 6, @size)",
              {
                "values": ["bludgeoning"],
                "custom": ""
              }
            ]
          ],
          "critParts": [],
          "nonCritParts": []
        },
        "attackParts": [],
        "formulaicAttacks": {
          "count": {
            "formula": "min(3, ceil(@attributes.bab.total / 5) - 1)"
          },
          "bonus": {
            "formula": "@formulaicAttack * -5"
          },
          "label": null
        },
        "formula": "",
        "ability": {
          "attack": "dex",
          "damage": "str",
          "damageMult": 1,
          "critRange": "",
          "critMult": "2"
        },
        "save": {
          "dc": 0,
          "type": "",
          "description": ""
        },
        "effectNotes": [],
        "attackNotes": [],
        "soundEffect": "",
        "powerAttack": {
          "multiplier": "",
          "damageBonus": 2,
          "critMultiplier": 1
        },
        "naturalAttack": {
          "secondary": {
            "attackBonus": "-5",
            "damageMult": 0.5
          }
        },
        "nonlethal": false,
        "usesAmmo": false,
        "spellEffect": "",
        "spellArea": "",
        "conditionals": [],
        "enh": {
          "override": false,
          "value": 0
        }
      }
    ],
    "attackNotes": [],
    "effectNotes": [],
    "contextNotes": [],
    "links": {
      "children": []
    },
    "tag": "direBolas",
    "scriptCalls": [],
    "weaponGroups": {
      "value": ["thrown"]
    },
    "weaponType": "exotic",
    "weaponSubtype": "ranged"
  },
  "effects": [],
  "folder": null,
  "sort": 0,
  "permission": {
    "default": 0
  },
  "flags": {}
}
