{
  "_id": "qfGr6bMC2JWEhtqW",
  "name": "Entangling Bolt (Siege)",
  "type": "loot",
  "img": "systems/pf1/icons/items/potions/magic-green.jpg",
  "data": {
    "description": {
      "value": "<p><strong>Source</strong> <em>Belkzen, Hold of the Orc Hordes pg. 39</em></p>\n<h3 class=\"framing\">Statistics</h3>\n<p><strong>Cost</strong> 50 gp <strong>Weight</strong> 25 lbs.</p>\n<p><strong>Category</strong> Ammunition; <strong>Proficiency</strong> Siege Engine</p>\n<h3 class=\"framing\">Description</h3>\n<p>When launched from a ballista, this specialized bolt unfurls into a large net. An attack with entangling ammunition is a ranged touch attack, but it's only effective within one range increment. If it hits, the target is entangled, but the attack deals no damage.</p>\n<p>An entangled creature can escape with a successful <strong>DC 20 Escape Artist check</strong> (a full-round action). The net has 5 hit points and can be burst with a successful <strong>DC 25 Strength check</strong> (also a full-round action).</p>\n<p>Entangling ammunition is useful only against creatures within one size category of the firing ballista.</p>"
    },
    "tags": [],
    "weight": 25,
    "price": 50,
    "equipped": false,
    "hp": {
      "max": 1,
      "value": 1
    },
    "hardness": 5,
    "identifiedName": "Entangling Bolt (Siege)",
    "changes": [],
    "contextNotes": [],
    "links": {
      "children": []
    },
    "tag": "entanglingBoltSiege",
    "flags": {
      "boolean": [],
      "dictionary": []
    },
    "scriptCalls": []
  },
  "effects": [],
  "folder": null,
  "sort": 0,
  "permission": {
    "default": 0
  },
  "flags": {}
}
