{
  "_id": "MFGjEFJURHJ9jcGx",
  "name": "Garrote",
  "type": "weapon",
  "img": "systems/pf1/icons/items/weapons/garrote.png",
  "data": {
    "description": {
      "value": "<p><strong>Source</strong> <em>Adventurer's Armory pg. 3</em></p><h3 class=\"framing\"><img src=\"https://www.aonprd.com/images/PathfinderSocietySymbol.gif\" title=\"PFS Legal\" style=\"margin:3px 3px 0px 3px;\">Statistics</h3><p><strong>Cost</strong> 3 gp <strong>Weight</strong> 1 lb.</p><p><strong>Damage</strong> 1d4 (small), 1d6 (medium); <strong>Critical</strong> x2; <strong>Range</strong> -; <strong>Type</strong> S; <strong>Special</strong> grapple, see text</p><p><strong>Category</strong> Two-Handed; <strong>Proficiency</strong> Exotic</p><h3 class=\"framing\">Description</h3><p>A garrote is a length of wire or thin rope with wooden handles at both ends. The wire is placed across a victim's throat and crossed behind the neck; when the handles are pulled tight, the garrote strangles him. In order for you to use a garrote, your opponent must be helpless or unaware of you. You must make a grapple check (though you avoid the -4 penalty for not having two hands free) to successfully begin garroting your opponent. Sneak attack damage does not apply to a garrote. Your garroted opponent must make a concentration check (DC 20 + your CMB + level of the spell he's casting) to cast a spell with a verbal component, use a command word item, or use any magic requiring speech. You gain the following additional option when grappling with a garrote.</p><p></p><p><em>Choke</em>: You cut off your target's air supply so he has to hold his breath (see Suffocation on page 445 of the <em>Pathfinder RPG Core Rulebook</em>, and the Swim skill on page 108). Any round you do not maintain the choke, your opponent can take a breath and restart when he has to begin making Constitution checks.</p>"
    },
    "tags": [],
    "weight": 1,
    "price": 3,
    "hp": {
      "max": "10",
      "value": "10"
    },
    "hardness": 10,
    "identifiedName": "Garrote",
    "changes": [],
    "actions": [
      {
        "_id": "wg33m8axlucl77j9",
        "name": "Attack",
        "img": "systems/pf1/icons/items/weapons/garrote.png",
        "description": "",
        "activation": {
          "cost": 1,
          "type": "attack"
        },
        "unchainedAction": {
          "activation": {
            "cost": 1,
            "type": ""
          }
        },
        "duration": {
          "value": null,
          "units": "inst"
        },
        "target": {
          "value": ""
        },
        "range": {
          "value": 0,
          "units": "melee",
          "maxIncrements": 1,
          "minValue": null,
          "minUnits": ""
        },
        "uses": {
          "autoDeductCharges": true,
          "autoDeductChargesCost": "1",
          "per": "",
          "value": 0,
          "maxFormula": ""
        },
        "measureTemplate": {
          "type": "",
          "size": "",
          "overrideColor": false,
          "customColor": "",
          "overrideTexture": false,
          "customTexture": ""
        },
        "attackName": "",
        "actionType": "mwak",
        "attackBonus": "",
        "critConfirmBonus": "",
        "damage": {
          "parts": [
            [
              "sizeRoll(1, 6, @size)",
              {
                "values": ["slashing"],
                "custom": ""
              }
            ]
          ],
          "critParts": [],
          "nonCritParts": []
        },
        "attackParts": [],
        "formulaicAttacks": {
          "count": {
            "formula": "min(3, ceil(@attributes.bab.total / 5) - 1)"
          },
          "bonus": {
            "formula": "@formulaicAttack * -5"
          },
          "label": null
        },
        "formula": "",
        "ability": {
          "attack": "str",
          "damage": "str",
          "damageMult": 1.5,
          "critRange": 20,
          "critMult": 2
        },
        "save": {
          "dc": "0",
          "type": "",
          "description": ""
        },
        "effectNotes": [],
        "attackNotes": [],
        "soundEffect": "",
        "powerAttack": {
          "multiplier": "",
          "damageBonus": 2,
          "critMultiplier": 1
        },
        "naturalAttack": {
          "secondary": {
            "attackBonus": "-5",
            "damageMult": 0.5
          }
        },
        "nonlethal": false,
        "usesAmmo": false,
        "spellEffect": "",
        "spellArea": "",
        "conditionals": [],
        "enh": {
          "override": false,
          "value": 0
        }
      }
    ],
    "uses": {
      "per": ""
    },
    "attackNotes": [],
    "effectNotes": [],
    "contextNotes": [],
    "links": {
      "children": []
    },
    "tag": "garrote",
    "scriptCalls": [],
    "held": "2h",
    "weaponGroups": {
      "value": ["close"]
    },
    "weaponType": "exotic",
    "weaponSubtype": "2h"
  },
  "effects": [],
  "folder": null,
  "sort": 0,
  "permission": {
    "default": 0
  },
  "flags": {}
}
