{
  "_id": "2NbFpmi1wz20yJxm",
  "name": "Kestros Dart",
  "type": "loot",
  "img": "icons/weapons/ammunition/arrows-bodkin-yellow-red.webp",
  "data": {
    "description": {
      "value": "<p><strong>Source</strong> <em>Ultimate Equipment pg. 22</em></p>\n<h3 class=\"framing\"><img style=\"margin: 3px 3px 0px 3px;\" title=\"PFS Legal\" src=\"https://www.aonprd.com/images/PathfinderSocietySymbol.gif\" />Statistics</h3>\n<p><strong>Cost</strong> 5 gp <strong>Weight</strong> 5 lbs.</p>\n<p><strong>Category</strong> Ammunition; <strong>Proficiency</strong> Ammunition</p>\n<h3 class=\"framing\">Description</h3>\n<p>This dart, meant to be thrown using a kestros, consists of a heavy metal point about 9 inches long attached to a shaft of wood about 12 inches long, fletched with feathers for stability. If used as a melee weapon, it is a light improvised weapon (-4 penalty on attack rolls) and deals damage as a dagger of its size (critical multiplier x2). Kestros darts come in a quiver that holds 10 darts.</p>"
    },
    "tags": [],
    "quantity": 10,
    "weight": 0.5,
    "price": 0.5,
    "equipped": false,
    "hp": {
      "max": "1",
      "value": "1"
    },
    "hardness": 5,
    "identifiedName": "Kestros Dart",
    "changes": [],
    "contextNotes": [],
    "links": {
      "children": []
    },
    "tag": "kestrosDart10",
    "flags": {
      "boolean": [],
      "dictionary": []
    },
    "scriptCalls": [],
    "subType": "ammo",
    "extraType": "dart"
  },
  "effects": [],
  "folder": null,
  "sort": 0,
  "permission": {
    "default": 0
  },
  "flags": {}
}
