{
  "_id": "LtX8f84MPa1OT1iI",
  "name": "Knobkerrie",
  "type": "weapon",
  "img": "systems/pf1/icons/items/weapons/knobkerry.png",
  "data": {
    "description": {
      "value": "<p><strong>Source</strong> <em>Ranged Tactics Toolbox pg. 18</em></p><h3 class=\"framing\"><img src=\"https://www.aonprd.com/images/PathfinderSocietySymbol.gif\" title=\"PFS Legal\" style=\"margin:3px 3px 0px 3px;\">Statistics</h3><p><strong>Cost</strong> 5 gp <strong>Weight</strong> 4 lbs.</p><p><strong>Damage</strong> 1d4 (small), 1d6 (medium); <strong>Critical</strong> x2; <strong>Range</strong> 20 ft.; <strong>Type</strong> B; <strong>Special</strong> see text</p><p><strong>Category</strong> One-Handed; <strong>Proficiency</strong> Exotic</p><h3 class=\"framing\">Description</h3><p>A knobkerrie, or iwisa, is carved from a single piece of hardwood with a shaft 2 to 4 feet long surmounted by a bulbous knob. The knobkerrie is a traditional hunting weapon among the Zenj people of the Mwangi, but it's also used as a symbol of authority. Many tribal elders use decorated knobkerries as scepters or canes. A knobkerrie is thrown end-over-end. If you are proficient, you gain a +1 bonus on ranged attack rolls with a knobkerrie against opponents using bucklers, light shields, or heavy shields. If you aren't proficient with a knobkerrie, treat it as a club.</p>"
    },
    "tags": [],
    "weight": 4,
    "price": 5,
    "hp": {
      "max": "5",
      "value": "5"
    },
    "hardness": 10,
    "identifiedName": "Knobkerrie",
    "changes": [],
    "actions": [
      {
        "_id": "8kkhy9x6f6hkf5k6",
        "name": "Attack",
        "img": "systems/pf1/icons/items/weapons/knobkerry.png",
        "description": "",
        "activation": {
          "cost": 1,
          "type": "attack"
        },
        "unchainedAction": {
          "activation": {
            "cost": 1,
            "type": ""
          }
        },
        "duration": {
          "value": null,
          "units": "inst"
        },
        "target": {
          "value": ""
        },
        "range": {
          "value": 20,
          "units": "melee",
          "maxIncrements": 1,
          "minValue": null,
          "minUnits": ""
        },
        "uses": {
          "autoDeductCharges": true,
          "autoDeductChargesCost": "1",
          "per": "",
          "value": 0,
          "maxFormula": ""
        },
        "measureTemplate": {
          "type": "",
          "size": "",
          "overrideColor": false,
          "customColor": "",
          "overrideTexture": false,
          "customTexture": ""
        },
        "attackName": "",
        "actionType": "mwak",
        "attackBonus": "",
        "critConfirmBonus": "",
        "damage": {
          "parts": [
            [
              "sizeRoll(1, 6, @size)",
              {
                "values": ["bludgeoning"],
                "custom": ""
              }
            ]
          ],
          "critParts": [],
          "nonCritParts": []
        },
        "attackParts": [],
        "formulaicAttacks": {
          "count": {
            "formula": "min(3, ceil(@attributes.bab.total / 5) - 1)"
          },
          "bonus": {
            "formula": "@formulaicAttack * -5"
          },
          "label": null
        },
        "formula": "",
        "ability": {
          "attack": "str",
          "damage": "str",
          "damageMult": 1,
          "critRange": 20,
          "critMult": 2
        },
        "save": {
          "dc": "0",
          "type": "",
          "description": ""
        },
        "effectNotes": [],
        "attackNotes": [],
        "soundEffect": "",
        "powerAttack": {
          "multiplier": "",
          "damageBonus": 2,
          "critMultiplier": 1
        },
        "naturalAttack": {
          "secondary": {
            "attackBonus": "-5",
            "damageMult": 0.5
          }
        },
        "nonlethal": false,
        "usesAmmo": false,
        "spellEffect": "",
        "spellArea": "",
        "conditionals": [],
        "enh": {
          "override": false,
          "value": 0
        }
      }
    ],
    "uses": {
      "per": ""
    },
    "attackNotes": [],
    "effectNotes": [],
    "contextNotes": [],
    "links": {
      "children": []
    },
    "tag": "knobkerrie",
    "scriptCalls": [],
    "weaponGroups": {
      "value": ["hammers", "thrown"]
    },
    "weaponType": "exotic",
    "weaponSubtype": "1h"
  },
  "effects": [],
  "folder": null,
  "sort": 0,
  "permission": {
    "default": 0
  },
  "flags": {}
}
