{
  "_id": "QhRGBeQuwG6OWZxM",
  "name": "Paddle-Foot Pistol",
  "type": "weapon",
  "img": "icons/weapons/guns/gun-pistol-wood.webp",
  "data": {
    "description": {
      "value": "<p><strong>Source</strong> <em>People of the Wastes pg. 15</em></p>\n<h3 class=\"framing\"><img style=\"margin: 3px 3px 0px 3px;\" title=\"PFS Legal\" src=\"https://www.aonprd.com/images/PathfinderSocietySymbol.gif\" />Statistics</h3>\n<p><strong>Cost</strong> 2,500 gp <strong>Weight</strong> 5 lbs.</p>\n<p><strong>Damage</strong> 1d4 (small), 1d6 (medium); <strong>Critical</strong> x3; <strong>Range</strong> 20 ft.; <strong>Type</strong> B and P; <strong>Special</strong> scatter</p>\n<p><strong>Misfire</strong> 1-2 (5 ft.); <strong>Capacity</strong> 4</p>\n<p><strong>Category</strong> One-Handed; <strong>Proficiency</strong> Exotic</p>\n<h3 class=\"framing\">Description</h3>\n<p>This early firearm has four barrels, each of which can be fired one at a time with a single adjustable flintlock. The paddle-foot pistol fires in a 20-foot cone when making a scattering shot, and it has a 20-foot range increment when firing a bullet.</p>\n<p>Additionally, the paddle-foot pistol has a maximum range of three range increments. Each barrel of a paddle-foot pistol can hold 1 dose of black powder, along with either pellets or a bullet, or it can hold a single alchemical cartridge.</p>"
    },
    "tags": [],
    "weight": 5,
    "price": 2500,
    "hp": {
      "max": "10",
      "value": "10"
    },
    "hardness": 10,
    "identifiedName": "Paddle-Foot Pistol",
    "changes": [],
    "actions": [
      {
        "_id": "ljd4otk2q4sfyy7r",
        "name": "Attack",
        "img": "icons/weapons/guns/gun-pistol-wood.webp",
        "description": "",
        "activation": {
          "cost": 1,
          "type": "attack"
        },
        "unchainedAction": {
          "activation": {
            "cost": 1,
            "type": ""
          }
        },
        "duration": {
          "value": null,
          "units": "inst"
        },
        "target": {
          "value": ""
        },
        "range": {
          "value": "20",
          "units": "ft",
          "maxIncrements": 10,
          "minValue": null,
          "minUnits": ""
        },
        "uses": {
          "autoDeductCharges": true,
          "autoDeductChargesCost": "1",
          "per": "",
          "value": 0,
          "maxFormula": ""
        },
        "measureTemplate": {
          "type": "",
          "size": "",
          "overrideColor": false,
          "customColor": "",
          "overrideTexture": false,
          "customTexture": ""
        },
        "attackName": "",
        "actionType": "rwak",
        "attackBonus": "",
        "critConfirmBonus": "",
        "damage": {
          "parts": [
            [
              "sizeRoll(1, 6, @size)",
              {
                "values": ["bludgeoning", "piercing"],
                "custom": ""
              }
            ]
          ],
          "critParts": [],
          "nonCritParts": []
        },
        "attackParts": [],
        "formulaicAttacks": {
          "count": {
            "formula": "min(3, ceil(@attributes.bab.total / 5) - 1)"
          },
          "bonus": {
            "formula": "@formulaicAttack * -5"
          },
          "label": null
        },
        "formula": "",
        "ability": {
          "attack": "dex",
          "damage": "",
          "damageMult": 1,
          "critRange": 20,
          "critMult": 3
        },
        "save": {
          "dc": "0",
          "type": "",
          "description": ""
        },
        "effectNotes": [],
        "attackNotes": [],
        "soundEffect": "",
        "powerAttack": {
          "multiplier": "",
          "damageBonus": 2,
          "critMultiplier": 1
        },
        "naturalAttack": {
          "secondary": {
            "attackBonus": "-5",
            "damageMult": 0.5
          }
        },
        "nonlethal": false,
        "usesAmmo": true,
        "spellEffect": "",
        "spellArea": "",
        "conditionals": [],
        "enh": {
          "override": false,
          "value": 0
        }
      }
    ],
    "uses": {
      "per": ""
    },
    "attackNotes": [],
    "effectNotes": [],
    "contextNotes": [],
    "links": {
      "children": []
    },
    "tag": "paddlefootPistol",
    "scriptCalls": [],
    "weaponGroups": {
      "value": ["firearms"]
    },
    "weaponType": "exotic",
    "weaponSubtype": "ranged",
    "ammoType": "gunBullet"
  },
  "effects": [],
  "folder": null,
  "sort": 0,
  "permission": {
    "default": 0
  },
  "flags": {}
}
