{
  "_id": "jk9EoGeHslLieXsf",
  "name": "Reflex Bow",
  "type": "weapon",
  "img": "icons/weapons/bows/longbow-leather-green.webp",
  "data": {
    "description": {
      "value": "<p><strong>Source</strong> <em>Merchant's Manifest pg. 11</em></p><h3 class=\"framing\">Statistics</h3><p><strong>Cost</strong> 125 gp <strong>Weight</strong> 2 lbs.</p><p><strong>Damage</strong> 1d4 (small), 1d6 (medium); <strong>Critical</strong> x3; <strong>Range</strong> 100 ft.; <strong>Type</strong> P; <strong>Special</strong> See text</p><p><strong>Category</strong> Ranged; <strong>Proficiency</strong> Martial</p><h3 class=\"framing\">Description</h3><p>These C-shaped bows are most often used in the Hongal tundra by the outriders of Tianjing, and in rare cases by the nobility of Xa Hoi. The unique shape and craft of these bows allows them to shoot with the same velocity and power as a longbow. The shorter size also allows them to be wielded easily while mounted on horseback (or atop any other steed). While mounted, you gain a +1 circumstance bonus on attack rolls with a reflex bow. All reflex bows are composite bows and can be modified to benefit from high Strength scores in the same way as composite bows. Effects that apply to both longbows and shortbows also apply to reflex bows.</p>"
    },
    "tags": [],
    "weight": 2,
    "price": 125,
    "hp": {
      "max": "5",
      "value": "5"
    },
    "hardness": 5,
    "identifiedName": "Reflex Bow",
    "changes": [],
    "actions": [
      {
        "_id": "qxcyr6uhuu5ws8bi",
        "name": "Attack",
        "img": "icons/weapons/bows/longbow-leather-green.webp",
        "description": "",
        "activation": {
          "cost": 1,
          "type": "attack"
        },
        "unchainedAction": {
          "activation": {
            "cost": 1,
            "type": ""
          }
        },
        "duration": {
          "value": null,
          "units": "inst"
        },
        "target": {
          "value": ""
        },
        "range": {
          "value": "100",
          "units": "ft",
          "maxIncrements": 1,
          "minValue": null,
          "minUnits": ""
        },
        "uses": {
          "autoDeductCharges": true,
          "autoDeductChargesCost": "1",
          "per": "",
          "value": 0,
          "maxFormula": ""
        },
        "measureTemplate": {
          "type": "",
          "size": "",
          "overrideColor": false,
          "customColor": "",
          "overrideTexture": false,
          "customTexture": ""
        },
        "attackName": "",
        "actionType": "rwak",
        "attackBonus": "",
        "critConfirmBonus": "",
        "damage": {
          "parts": [
            [
              "sizeRoll(1, 6, @size) + min(@abilities.str.mod, 0)[Strength]",
              {
                "values": ["piercing"],
                "custom": ""
              }
            ]
          ],
          "critParts": [],
          "nonCritParts": []
        },
        "attackParts": [],
        "formulaicAttacks": {
          "count": {
            "formula": "min(3, ceil(@attributes.bab.total / 5) - 1)"
          },
          "bonus": {
            "formula": "@formulaicAttack * -5"
          },
          "label": null
        },
        "formula": "",
        "ability": {
          "attack": "dex",
          "damage": "",
          "damageMult": 1,
          "critRange": 20,
          "critMult": 3
        },
        "save": {
          "dc": "0",
          "type": "",
          "description": ""
        },
        "effectNotes": [],
        "attackNotes": [],
        "soundEffect": "",
        "powerAttack": {
          "multiplier": "",
          "damageBonus": 2,
          "critMultiplier": 1
        },
        "naturalAttack": {
          "secondary": {
            "attackBonus": "-5",
            "damageMult": 0.5
          }
        },
        "nonlethal": false,
        "usesAmmo": true,
        "spellEffect": "",
        "spellArea": "",
        "conditionals": [],
        "enh": {
          "override": false,
          "value": 0
        }
      }
    ],
    "uses": {
      "per": ""
    },
    "attackNotes": [],
    "effectNotes": [],
    "contextNotes": [],
    "links": {
      "children": []
    },
    "tag": "reflexBow",
    "scriptCalls": [],
    "weaponGroups": {
      "value": ["bows"]
    },
    "weaponType": "martial",
    "weaponSubtype": "ranged",
    "ammoType": "arrow"
  },
  "effects": [],
  "folder": null,
  "sort": 0,
  "permission": {
    "default": 0
  },
  "flags": {}
}
