{
  "_id": "PeUTJgqI4cNADvyW",
  "name": "Shield Spikes (Heavy)",
  "type": "weapon",
  "img": "systems/pf1/icons/items/weapons/shield-spikes.PNG",
  "data": {
    "description": {
      "value": "<p>These spikes turn a shield into a martial piercing weapon and increase the damage dealt by a&nbsp;<a href=\"https://www.d20pfsrd.com/equipment/weapons/weapon-descriptions/shield-heavy-or-light\">shield bash</a>&nbsp;as if the shield were designed for a creature one size category larger than you. You can’t put spikes on a buckler or a tower shield. Otherwise, attacking with a spiked shield is like making a shield bash attack.</p>"
    },
    "tags": [],
    "weight": 5,
    "price": 10,
    "hp": {
      "max": 5,
      "value": 5
    },
    "hardness": 10,
    "changes": [],
    "actions": [
      {
        "_id": "exggsyy29pbhxdlw",
        "name": "Attack",
        "img": "systems/pf1/icons/items/weapons/shield-spikes.PNG",
        "description": "",
        "activation": {
          "cost": 1,
          "type": "attack"
        },
        "unchainedAction": {
          "activation": {
            "cost": 1,
            "type": ""
          }
        },
        "duration": {
          "value": null,
          "units": "inst"
        },
        "target": {
          "value": ""
        },
        "range": {
          "value": null,
          "units": "melee",
          "maxIncrements": 1,
          "minValue": null,
          "minUnits": ""
        },
        "uses": {
          "autoDeductCharges": true,
          "autoDeductChargesCost": "1",
          "per": null,
          "value": 0,
          "maxFormula": ""
        },
        "measureTemplate": {
          "type": "",
          "size": "",
          "overrideColor": false,
          "customColor": "",
          "overrideTexture": false,
          "customTexture": ""
        },
        "attackName": "",
        "actionType": "mwak",
        "attackBonus": "",
        "critConfirmBonus": "",
        "damage": {
          "parts": [
            [
              "sizeRoll(1, 6, @size)",
              {
                "values": ["piercing"],
                "custom": ""
              }
            ]
          ],
          "critParts": [],
          "nonCritParts": []
        },
        "attackParts": [],
        "formulaicAttacks": {
          "count": {
            "formula": "min(3, ceil(@attributes.bab.total / 5) - 1)"
          },
          "bonus": {
            "formula": "@formulaicAttack * -5"
          },
          "label": null
        },
        "formula": "",
        "ability": {
          "attack": "str",
          "damage": "str",
          "damageMult": 1,
          "critRange": "20",
          "critMult": "2"
        },
        "save": {
          "dc": 0,
          "type": "",
          "description": ""
        },
        "effectNotes": [],
        "attackNotes": [],
        "soundEffect": "",
        "powerAttack": {
          "multiplier": "",
          "damageBonus": 2,
          "critMultiplier": 1
        },
        "naturalAttack": {
          "secondary": {
            "attackBonus": "-5",
            "damageMult": 0.5
          }
        },
        "nonlethal": false,
        "usesAmmo": false,
        "spellEffect": "",
        "spellArea": "",
        "conditionals": [],
        "enh": {
          "override": false,
          "value": 0
        }
      }
    ],
    "attackNotes": [],
    "effectNotes": [],
    "contextNotes": [],
    "links": {
      "children": []
    },
    "scriptCalls": [],
    "weaponGroups": {
      "value": ["close"]
    },
    "weaponType": "martial",
    "weaponSubtype": "1h"
  },
  "effects": [],
  "folder": null,
  "sort": 0,
  "permission": {
    "default": 0
  },
  "flags": {}
}
