{
  "_id": "dhloqorqrxaqghis",
  "name": "Abacus",
  "type": "loot",
  "img": "systems/pf1/icons/items/inventory/dice.jpg",
  "data": {
    "description": {
      "value": "\r\n<p><b>Price</b> 2 gp; <b>Weight</b> 2 lbs.</p>\r\n<p>This device helps you perform mathematical calculations.</p>\r\n\r\n"
    },
    "tags": [],
    "weight": 2,
    "price": 2,
    "equipped": false,
    "changes": [],
    "contextNotes": [],
    "links": {
      "children": []
    },
    "flags": {
      "boolean": [],
      "dictionary": []
    },
    "scriptCalls": [],
    "subType": "gear"
  },
  "effects": [],
  "folder": null,
  "sort": 0,
  "permission": {
    "default": 0
  },
  "flags": {}
}
