{
  "_id": "sUw8RMVNvDOCBl4u",
  "name": "Alchemist's Fire",
  "type": "weapon",
  "img": "systems/pf1/icons/items/potions/unique-6.jpg",
  "data": {
    "description": {
      "value": "<p class=\"source\" style=\"box-sizing: border-box; user-select: text; color: #191813; font-size: 13px;\"><strong style=\"box-sizing: border-box; user-select: text;\">Source</strong>&nbsp;<a style=\"box-sizing: border-box; user-select: text;\" title=\"PZO1110\" href=\"http://www.amazon.com/gp/product/1601251505/ref=as_li_qf_sp_asin_il_tl?ie=UTF8&amp;camp=1789&amp;creative=9325&amp;creativeASIN=1601251505&amp;linkCode=as2&amp;tag=httpwwwd20pfs-20\" target=\"_blank\" rel=\"noopener\">PZO1110</a></p>\n<p style=\"box-sizing: border-box; user-select: text; color: #191813; font-size: 13px;\">You can throw a flask of alchemist's fire as a&nbsp;<a style=\"box-sizing: border-box; user-select: text;\" href=\"https://www.d20pfsrd.com/gamemastering/combat#TOC-Throw-Splash-Weapon\">splash weapon</a>&nbsp;with a range increment of 10 feet.</p>\n<p style=\"box-sizing: border-box; user-select: text; color: #191813; font-size: 13px;\">A direct hit deals 1d6 points of fire damage. Every creature within 5 feet of the point where the flask hits takes 1 point of fire damage from the splash. On the round following a direct hit, the target takes an additional 1d6 points of damage. If desired, the target can use a&nbsp;<a style=\"box-sizing: border-box; user-select: text;\" href=\"https://www.d20pfsrd.com/gamemastering/combat#TOC-Full-Round-Actions\">full-round action</a>&nbsp;to attempt to extinguish the flames before taking this additional damage. Extinguishing the flames requires a DC 15&nbsp;<a style=\"box-sizing: border-box; user-select: text;\" href=\"https://www.d20pfsrd.com/gamemastering/combat#TOC-Reflex\">Reflex</a>&nbsp;save. Rolling on the ground provides the target a +2 bonus on the save. Leaping into a lake or magically extinguishing the flames automatically smothers the fire.</p>\n<p style=\"box-sizing: border-box; user-select: text; color: #191813; font-size: 13px;\"><a style=\"box-sizing: border-box; user-select: text;\" href=\"https://www.d20pfsrd.com/skills/craft\">Craft</a>&nbsp;(alchemy) DC: 20</p>\n<p class=\"header\" style=\"box-sizing: border-box; user-select: text; color: #191813; font-size: 13px;\">Alchemical Power Component</p>\n<p class=\"source\" style=\"box-sizing: border-box; user-select: text; color: #191813; font-size: 13px;\"><strong style=\"box-sizing: border-box; user-select: text;\">Source</strong>&nbsp;<a style=\"box-sizing: border-box; user-select: text;\" title=\"PZO9410\" href=\"http://www.amazon.com/gp/product/1601252226/ref=as_li_qf_sp_asin_il_tl?ie=UTF8&amp;camp=1789&amp;creative=9325&amp;creativeASIN=1601252226&amp;linkCode=as2&amp;tag=httpwwwd20pfs-20\" target=\"_blank\" rel=\"noopener\">PZO9410</a></p>\n<p style=\"box-sizing: border-box; user-select: text; color: #191813; font-size: 13px;\">This dwarven favorite can make fire spells last longer.</p>\n<ul style=\"box-sizing: border-box; user-select: text; color: #191813; font-size: 13px;\">\n<li style=\"box-sizing: border-box; user-select: text; align-items: center;\"><a class=\"spell\" style=\"box-sizing: border-box; user-select: text;\" href=\"https://www.d20pfsrd.com/magic/all-spells/b/burning-hands\">Burning Hands</a>&nbsp;(M): One target that fails its&nbsp;<a style=\"box-sizing: border-box; user-select: text;\" href=\"https://www.d20pfsrd.com/gamemastering/combat#TOC-Reflex\">Reflex</a>&nbsp;saving throw (your choice) catches on fire as if it has been struck by&nbsp;<a style=\"box-sizing: border-box; user-select: text;\" href=\"https://www.d20pfsrd.com/classes/base-classes/alchemist\">alchemist's</a>&nbsp;fire.</li>\n<li style=\"box-sizing: border-box; user-select: text; align-items: center;\"><a class=\"spell\" style=\"box-sizing: border-box; user-select: text;\" href=\"https://www.d20pfsrd.com/magic/all-spells/f/fireball\">Fireball</a>&nbsp;(M): One target per&nbsp;<a style=\"box-sizing: border-box; user-select: text;\" href=\"https://www.d20pfsrd.com/magic#TOC-Caster-Level\">caster level</a>&nbsp;that fails its&nbsp;<a style=\"box-sizing: border-box; user-select: text;\" href=\"https://www.d20pfsrd.com/gamemastering/combat#TOC-Reflex\">Reflex</a>&nbsp;saving throw (your choice) catches on fire as if it has been struck by&nbsp;<a style=\"box-sizing: border-box; user-select: text;\" href=\"https://www.d20pfsrd.com/classes/base-classes/alchemist\">alchemist's</a>&nbsp;fire.</li>\n<li style=\"box-sizing: border-box; user-select: text; align-items: center;\"><a class=\"spell\" style=\"box-sizing: border-box; user-select: text;\" href=\"https://www.d20pfsrd.com/magic/all-spells/f/flaming-sphere\">Flaming Sphere</a>&nbsp;(M): Any creature damaged by a&nbsp;<a class=\"spell\" style=\"box-sizing: border-box; user-select: text;\" href=\"https://www.d20pfsrd.com/magic/all-spells/f/flaming-sphere\">flaming sphere</a>&nbsp;catches on fire as if it has been struck by&nbsp;<a style=\"box-sizing: border-box; user-select: text;\" href=\"https://www.d20pfsrd.com/classes/base-classes/alchemist\">alchemist's</a>&nbsp;fire.</li>\n<li style=\"box-sizing: border-box; user-select: text; align-items: center;\"><a class=\"spell\" style=\"box-sizing: border-box; user-select: text;\" href=\"https://www.d20pfsrd.com/magic/all-spells/p/protection-from-energy\">Protection from Energy</a>&nbsp;(M): If cast to ward against cold, increase the amount of cold damage absorbed by 5.</li>\n<li style=\"box-sizing: border-box; user-select: text; align-items: center;\"><a class=\"spell\" style=\"box-sizing: border-box; user-select: text;\" href=\"https://www.d20pfsrd.com/magic/all-spells/r/resist-energy\">Resist Energy</a>&nbsp;(M): If cast to ward against cold, increase the cold&nbsp;<a style=\"box-sizing: border-box; user-select: text;\" href=\"https://www.d20pfsrd.com/gamemastering/special-abilities#TOC-Energy-Resistance\">resistance</a>&nbsp;to 12. At&nbsp;<a style=\"box-sizing: border-box; user-select: text;\" href=\"https://www.d20pfsrd.com/magic#TOC-Caster-Level\">caster level</a>&nbsp;7th, you may use two flasks of&nbsp;<a style=\"box-sizing: border-box; user-select: text;\" href=\"https://www.d20pfsrd.com/classes/base-classes/alchemist\">alchemist's</a>&nbsp;fire as a power component to increase the cold&nbsp;<a style=\"box-sizing: border-box; user-select: text;\" href=\"https://www.d20pfsrd.com/gamemastering/special-abilities#TOC-Energy-Resistance\">resistance</a>&nbsp;to 24. At&nbsp;<a style=\"box-sizing: border-box; user-select: text;\" href=\"https://www.d20pfsrd.com/magic#TOC-Caster-Level\">caster level</a>&nbsp;11th, you may use three flasks as a power component to increase the cold&nbsp;<a style=\"box-sizing: border-box; user-select: text;\" href=\"https://www.d20pfsrd.com/gamemastering/special-abilities#TOC-Energy-Resistance\">resistance</a>&nbsp;to 36.</li>\n<li style=\"box-sizing: border-box; user-select: text; align-items: center;\"><a class=\"spell\" style=\"box-sizing: border-box; user-select: text;\" href=\"https://www.d20pfsrd.com/magic/all-spells/s/scorching-ray\">Scorching Ray</a>&nbsp;(F): Add a +1&nbsp;<a style=\"box-sizing: border-box; user-select: text;\" href=\"https://www.d20pfsrd.com/basics-ability-scores/glossary#TOC-Circumstance-Bonus\">circumstance bonus</a>&nbsp;on your&nbsp;<a style=\"box-sizing: border-box; user-select: text;\" href=\"https://www.d20pfsrd.com/gamemastering/combat#TOC-Attack-Roll\">attack roll</a>&nbsp;with all rays from the spell.</li>\n<li style=\"box-sizing: border-box; user-select: text; align-items: center;\"><a class=\"spell\" style=\"box-sizing: border-box; user-select: text;\" href=\"https://www.d20pfsrd.com/magic/all-spells/s/scorching-ray\">Scorching Ray</a>&nbsp;(M): Any target damaged by a&nbsp;<a class=\"spell\" style=\"box-sizing: border-box; user-select: text;\" href=\"https://www.d20pfsrd.com/magic/all-spells/s/scorching-ray\">scorching ray</a>&nbsp;catches on fire as if it has been struck by&nbsp;<a style=\"box-sizing: border-box; user-select: text;\" href=\"https://www.d20pfsrd.com/classes/base-classes/alchemist\">alchemist's</a>&nbsp;fire.</li>\n</ul>"
    },
    "tags": [],
    "weight": 1,
    "price": 20,
    "hp": {
      "max": "10",
      "value": "10"
    },
    "identifiedName": "Alchemist's Fire",
    "changes": [],
    "actions": [
      {
        "_id": "0sbs7lavoyzvoeth",
        "name": "Attack",
        "img": "systems/pf1/icons/items/potions/unique-6.jpg",
        "description": "",
        "activation": {
          "cost": 1,
          "type": "attack"
        },
        "unchainedAction": {
          "activation": {
            "cost": 1,
            "type": ""
          }
        },
        "duration": {
          "value": null,
          "units": "inst"
        },
        "target": {
          "value": ""
        },
        "range": {
          "value": "10",
          "units": "ft",
          "maxIncrements": 5,
          "minValue": null,
          "minUnits": ""
        },
        "uses": {
          "autoDeductCharges": true,
          "autoDeductChargesCost": "1",
          "per": "single",
          "value": 0,
          "maxFormula": ""
        },
        "measureTemplate": {
          "type": "",
          "size": "",
          "overrideColor": false,
          "customColor": "",
          "overrideTexture": false,
          "customTexture": ""
        },
        "attackName": "",
        "actionType": "rwak",
        "attackBonus": "",
        "critConfirmBonus": "",
        "damage": {
          "parts": [
            [
              "1d6",
              {
                "values": ["fire"],
                "custom": ""
              }
            ]
          ],
          "critParts": [],
          "nonCritParts": []
        },
        "attackParts": [],
        "formulaicAttacks": {
          "count": {
            "formula": ""
          },
          "bonus": {
            "formula": ""
          },
          "label": ""
        },
        "formula": "",
        "ability": {
          "attack": "dex",
          "damage": "",
          "damageMult": 1,
          "critRange": 20,
          "critMult": 2
        },
        "save": {
          "dc": "0",
          "type": "",
          "description": ""
        },
        "effectNotes": [],
        "attackNotes": [],
        "soundEffect": "",
        "powerAttack": {
          "multiplier": "",
          "damageBonus": 2,
          "critMultiplier": 1
        },
        "naturalAttack": {
          "secondary": {
            "attackBonus": "-5",
            "damageMult": 0.5
          }
        },
        "nonlethal": false,
        "usesAmmo": false,
        "spellEffect": "",
        "spellArea": "",
        "conditionals": [],
        "enh": {
          "override": false,
          "value": 0
        }
      }
    ],
    "uses": {
      "per": "single"
    },
    "attackNotes": [],
    "effectNotes": [],
    "contextNotes": [],
    "links": {
      "children": []
    },
    "scriptCalls": [],
    "weaponType": "misc",
    "weaponSubtype": "other"
  },
  "effects": [],
  "folder": null,
  "sort": 0,
  "permission": {
    "default": 0
  },
  "flags": {}
}
