{
  "_id": "lmkfribudweixchx",
  "name": "Ambrosia",
  "type": "loot",
  "img": "systems/pf1/icons/items/inventory/dice.jpg",
  "data": {
    "description": {
      "value": "\r\n<p class=\"source\"><b>Source</b> <a title=\"PZO1121\" href=\"http://www.amazon.com/gp/product/1601253907/ref=as_li_qf_sp_asin_il_tl?ie=UTF8&amp;camp=1789&amp;creative=9325&amp;creativeASIN=1601253907&amp;linkCode=as2&amp;tag=httpwwwd20pfs-20\" target=\"_blank\" rel=\"noopener\">PZO1121</a></p>\r\n<p>Upon consumption, this heavenly elixir, brewed from holy water and blessed herbs, grants a +2 <a href=\"https://www.d20pfsrd.com/basics-ability-scores/glossary#TOC-Sacred-Bonus\">sacred bonus</a> on saving throws against negative energy, <a class=\"spell\" href=\"https://www.d20pfsrd.com/magic/all-spells/e/energy-drain\">energy drain</a>, and death effects for 1 hour, including saves to remove <a href=\"https://www.d20pfsrd.com/gamemastering/special-abilities#TOC-Energy-Drain-and-Negative-Levels\">negative levels</a>. Ambrosia affects <a href=\"https://www.d20pfsrd.com/bestiary/rules-for-monsters/creature-types#TOC-Undead\">undead</a> and evil <a href=\"https://www.d20pfsrd.com/bestiary/rules-for-monsters/creature-types#TOC-Outsider\">outsiders</a> as holy water.</p>\r\n"
    },
    "tags": [],
    "weight": 1,
    "price": 100,
    "equipped": false,
    "changes": [],
    "contextNotes": [],
    "links": {
      "children": []
    },
    "flags": {
      "boolean": [],
      "dictionary": []
    },
    "scriptCalls": [],
    "subType": "gear"
  },
  "effects": [],
  "folder": null,
  "sort": 0,
  "permission": {
    "default": 0
  },
  "flags": {}
}
