{
  "_id": "emmanqsefelnmuar",
  "name": "Angelstep",
  "type": "loot",
  "img": "systems/pf1/icons/items/inventory/dice.jpg",
  "data": {
    "description": {
      "value": "\r\n<p class=\"source\"><b>Source</b> <a href=\"http://amzn.to/2z71S07\" target=\"_blank\" rel=\"noopener\">PZO1140</a></p>\r\n<p><b>Price</b> 25 gp</p>\r\n<p>This iridescent white shelf fungus is said to have first grown from the footsteps of an <a href=\"https://www.d20pfsrd.com/bestiary/rules-for-monsters/creature-types#TOC-Angel\">angel</a>, though some claim it instead comes from the footsteps of a <a href=\"https://www.d20pfsrd.com/bestiary/monster-listings/outsiders/genie/djinni\">djinni</a>.</p>\r\n<p><b>Gather</b> DC 18; <b>Yield</b> 1 dose</p>\r\n<p><b>Terrain</b> temperate or warm deserts</p>\r\n<p><b>Preparation</b> A dose of angelstep can be used raw or processed into a pigment that can be worn on the skin. Processing a dose of the pigment takes 4 hours and requires a successful DC 15 <a href=\"https://www.d20pfsrd.com/skills/craft\">Craft</a> (alchemy) check. Angelstep pigment costs twice as much as the raw fungus.</p>\r\n<p><b>Use</b> As part of an attempt to <a href=\"https://www.d20pfsrd.com/gamemastering/conditions#TOC-Stable\">stabilize</a> a <a href=\"https://www.d20pfsrd.com/gamemastering/conditions#TOC-Dying\">dying</a> creature, a dose of raw angelstep can be rubbed on the creature to grant a +4 bonus on the <a href=\"https://www.d20pfsrd.com/skills/heal\">Heal</a> check to <a href=\"https://www.d20pfsrd.com/gamemastering/conditions#TOC-Stable\">stabilize</a> the creature. A dose of angelstep pigment applied to the skin of a Medium or smaller creature helps to protect that creature against death for 2d4 hours. The next time the wearer of angelstep pigment drops to negative <a href=\"https://www.d20pfsrd.com/gamemastering/combat#TOC-Hit-Points\">hit points</a>, it gains a +4 <a href=\"https://www.d20pfsrd.com/basics-ability-scores/glossary#TOC-Bonus-Alchemical-\">alchemical bonus</a> on its next 1d6 <a href=\"https://www.d20pfsrd.com/basics-ability-scores/ability-scores#TOC-Constitution-Con-\">Constitution</a> checks to <a href=\"https://www.d20pfsrd.com/gamemastering/conditions#TOC-Stable\">stabilize</a>. The pigment loses its effect once all these checks are attempted or once the victim is stabilized.</p>\r\n"
    },
    "tags": [],
    "price": 25,
    "equipped": false,
    "changes": [],
    "contextNotes": [],
    "links": {
      "children": []
    },
    "flags": {
      "boolean": [],
      "dictionary": []
    },
    "scriptCalls": [],
    "subType": "gear"
  },
  "effects": [],
  "folder": null,
  "sort": 0,
  "permission": {
    "default": 0
  },
  "flags": {}
}
