{
  "_id": "ipacehwlcrvdvqnu",
  "name": "Baijiu",
  "type": "loot",
  "img": "systems/pf1/icons/items/inventory/dice.jpg",
  "data": {
    "description": {
      "value": "<h4><span id=\"Baijiu\"><a name=\"TOC-Baijiu\"></a>Baijiu</span></h4>\r\n<p><b>Price</b> 10 gp; <b>Weight</b> 2 lbs.</p>\r\n<p>This clear alcoholic beverage, distilled from sorghum, is extremely potent, and is often regarded as an acquired taste due to its corrosive flavor.</p>\r\n"
    },
    "tags": [],
    "weight": 2,
    "price": 10,
    "equipped": false,
    "changes": [],
    "contextNotes": [],
    "links": {
      "children": []
    },
    "flags": {
      "boolean": [],
      "dictionary": []
    },
    "scriptCalls": [],
    "subType": "gear"
  },
  "effects": [],
  "folder": null,
  "sort": 0,
  "permission": {
    "default": 0
  },
  "flags": {}
}
