{
  "_id": "xqitaldtgoukvjbd",
  "name": "Block And Tackle",
  "type": "loot",
  "img": "systems/pf1/icons/items/inventory/dice.jpg",
  "data": {
    "description": {
      "value": "\r\n<p><b>Price</b> 5 gp; <b>Weight</b> 5 lbs.</p>\r\n<p>Whether it is used to hoist treasure from a pit or move supplies, a simple block-and-tackle pulley, when it is properly secured, adds a +5 circumstance bonus on Strength checks to lift heavy objects. Securing the pulley requires 1 minute.</p>\r\n\r\n"
    },
    "tags": [],
    "weight": 5,
    "price": 5,
    "equipped": false,
    "changes": [],
    "contextNotes": [],
    "links": {
      "children": []
    },
    "flags": {
      "boolean": [],
      "dictionary": []
    },
    "scriptCalls": [],
    "subType": "gear"
  },
  "effects": [],
  "folder": null,
  "sort": 0,
  "permission": {
    "default": 0
  },
  "flags": {}
}
