{
  "_id": "vgfrxllvvpmegziy",
  "name": "Bombchucker",
  "type": "loot",
  "img": "systems/pf1/icons/items/inventory/dice.jpg",
  "data": {
    "description": {
      "value": "\r\n<p class=\"source\"><b>Source</b>: <a href=\"http://www.amazon.com/gp/product/1601256868/ref=as_li_qf_sp_asin_il_tl?ie=UTF8&amp;amp;camp=1789&amp;amp;creative=9325&amp;amp;creativeASIN=1601256868&amp;amp;linkCode=as2&amp;amp;tag=httpwwwd20pfs-20&amp;amp;linkId=AS2DENHF4GXHQTXE\" target=\"_blank\" rel=\"noopener\">PRG:MC</a></p>\r\n<p><b>Price</b> 12 gp; <b>Weight</b> 1 lb.<br /><b>Category</b> Tools</p>\r\n<p>This curved wicker basket is worn like a glove over one hand. The basket extends approximately 2 feet in a steady curve, allowing you to launch a thrown splash weapon at incredible speeds and over long distances. Using a bombchucker increases the range increment of any thrown splash weapon by 10 feet. Loading a bombchucker requires a free hand, as the hand wielding the bombchucker can't be used for any other purpose. A bombchucker doesn't get in the way of preparing and throwing a bomb created with the bomb class feature.</p>\r\n\r\n"
    },
    "tags": [],
    "weight": 1,
    "price": 12,
    "equipped": false,
    "changes": [],
    "contextNotes": [],
    "links": {
      "children": []
    },
    "flags": {
      "boolean": [],
      "dictionary": []
    },
    "scriptCalls": [],
    "subType": "gear"
  },
  "effects": [],
  "folder": null,
  "sort": 0,
  "permission": {
    "default": 0
  },
  "flags": {}
}
