{
  "_id": "lysahnxmljquflql",
  "name": "Bone Reed",
  "type": "loot",
  "img": "systems/pf1/icons/items/inventory/dice.jpg",
  "data": {
    "description": {
      "value": "\r\n<p class=\"source\"><b>Source</b> <a href=\"http://amzn.to/2z71S07\" target=\"_blank\" rel=\"noopener\">PZO1140</a></p>\r\n<p><b>Price</b> 75 gp</p>\r\n<p>This aquatic grass resembles translucent white horsetail.</p>\r\n<p><b>Gather</b> DC 24; <b>Yield</b> 1 dose</p>\r\n<p><b>Terrain</b> any swamps</p>\r\n<p><b>Preparation</b> A bone reed must be pressed and dried. This process requires a successful DC 10 <a href=\"https://www.d20pfsrd.com/skills/craft\">Craft</a> (alchemy) check and takes 8 hours to complete.</p>\r\n<p><b>Use</b> A creature that sleeps for at least 8 hours in 1 day with a bone reed bound to one of its arms or legs heals double the normal <a href=\"https://www.d20pfsrd.com/basics-ability-scores/ability-scores#TOC-Ability-Score-Damage\">ability damage</a> and hit point damage (or triple with full bed rest). A bone reed loses its effectiveness after use. <a class=\"spell\" href=\"https://www.d20pfsrd.com/magic/all-spells/b/binding\">Binding</a> a bone reed to a limb requires 1 minute of work.</p>\r\n"
    },
    "tags": [],
    "price": 75,
    "equipped": false,
    "changes": [],
    "contextNotes": [],
    "links": {
      "children": []
    },
    "flags": {
      "boolean": [],
      "dictionary": []
    },
    "scriptCalls": [],
    "subType": "gear"
  },
  "effects": [],
  "folder": null,
  "sort": 0,
  "permission": {
    "default": 0
  },
  "flags": {}
}
