{
  "_id": "yjmepzuljtnyhmak",
  "name": "Bottle",
  "type": "loot",
  "img": "systems/pf1/icons/items/inventory/dice.jpg",
  "data": {
    "description": {
      "value": " \n<p><b>Price</b> 2 gp; <b>Weight</b> 1 lb.</p> \n<p>This glass bottle holds about a pint and includes a cork.</p> \n"
    },
    "tags": [],
    "weight": 1,
    "price": 2,
    "equipped": false,
    "changes": [],
    "contextNotes": [],
    "links": {
      "children": []
    },
    "flags": {
      "boolean": [],
      "dictionary": []
    },
    "scriptCalls": [],
    "subType": "gear"
  },
  "effects": [],
  "folder": null,
  "sort": 0,
  "permission": {
    "default": 0
  },
  "flags": {}
}
