{
  "_id": "cK51QG96kIE1lSFr",
  "name": "Caltrops (Vicious)",
  "type": "loot",
  "img": "systems/pf1/icons/items/inventory/dice.jpg",
  "data": {
    "description": {
      "value": "<p>Source&nbsp;<a href=\"http://paizo.com/store/games/roleplayingGames/p/pathfinderRPG/paizo/pathfinderCompanion/v5748btpy8mfk\" target=\"_blank\" rel=\"noopener\">Goblins of Golarion pg. 12</a><br>Price&nbsp;50 gp;&nbsp;Weight&nbsp;4 lbs.<br>Category&nbsp;Adventuring Gear</p>\n<h3>Description</h3>\n<p>These specially modified caltrops have clusters of needle-sharp spines that are slightly longer and more brittle than those on normal caltrops. Like standard caltrops, a 2-pound bag of vicious caltrops covers a 5-foot-square area. Vicious caltrops work just like normal caltrops, save that they have an attack bonus of +4, do 1d2 points of damage, and require a DC 20 Heal check to fully treat.</p>"
    },
    "tags": [],
    "weight": 4,
    "price": 50,
    "equipped": false,
    "identifiedName": "Caltrops (Vicious)",
    "changes": [],
    "contextNotes": [],
    "links": {
      "children": []
    },
    "flags": {
      "boolean": [],
      "dictionary": []
    },
    "scriptCalls": [],
    "subType": "gear"
  },
  "effects": [],
  "folder": null,
  "sort": 0,
  "permission": {
    "default": 0
  },
  "flags": {}
}
