{
  "_id": "rketafoqnfebqrpp",
  "name": "Cauim",
  "type": "loot",
  "img": "systems/pf1/icons/items/inventory/dice.jpg",
  "data": {
    "description": {
      "value": "<h4><span id=\"Cauim\"><a name=\"TOC-Cauim\"></a>Cauim</span></h4>\r\n<p><b>Price</b> 1 gp; <b>Weight</b> 2 lbs.</p>\r\n<p>This beer-like drink, made from manioc root or corn, requires extensive chewing as part of its production.</p>\r\n"
    },
    "tags": [],
    "weight": 2,
    "price": 1,
    "equipped": false,
    "changes": [],
    "contextNotes": [],
    "links": {
      "children": []
    },
    "flags": {
      "boolean": [],
      "dictionary": []
    },
    "scriptCalls": [],
    "subType": "gear"
  },
  "effects": [],
  "folder": null,
  "sort": 0,
  "permission": {
    "default": 0
  },
  "flags": {}
}
