{
  "_id": "fyymygovwcvqnuxl",
  "name": "Chair, Folding",
  "type": "loot",
  "img": "systems/pf1/icons/items/inventory/dice.jpg",
  "data": {
    "description": {
      "value": "<h4><span id=\"Chair_Folding\"><a name=\"TOC-Chair-Folding\"></a>Chair, Folding</span></h4>\r\n<p><b>Price</b> 2 gp; <b>Weight</b> 10 lbs.</p>\r\n<p>This simple folding chair has a wooden frame and canvas seat and back, making it easy to transport and set up wherever you wish. It folds up easily and fits in a handy carrying bag. The chair can support up to 250 pounds with ease.</p>\r\n"
    },
    "tags": [],
    "weight": 10,
    "price": 2,
    "equipped": false,
    "changes": [],
    "contextNotes": [],
    "links": {
      "children": []
    },
    "flags": {
      "boolean": [],
      "dictionary": []
    },
    "scriptCalls": [],
    "subType": "gear"
  },
  "effects": [],
  "folder": null,
  "sort": 0,
  "permission": {
    "default": 0
  },
  "flags": {}
}
