{
  "_id": "scfwjoikobftzgbn",
  "name": "Cloak, Reversible",
  "type": "loot",
  "img": "systems/pf1/icons/items/inventory/dice.jpg",
  "data": {
    "description": {
      "value": " \n<p><b>Price</b> varies; <b>Weight</b> 1 lb.</p> \n<p>This cloak has an outer layer of fabric and an inner layer of a different color. They are worn for the sake of fashion, in theater performances, or to aid a quick appearance change as part of a disguise. The price varies depending on the cloak's quality, with the low end being a simple linen cloak and the high end being made of silk or decorated with fur trim.</p> \n"
    },
    "tags": [],
    "weight": 1,
    "price": 0.2,
    "equipped": false,
    "changes": [],
    "contextNotes": [],
    "links": {
      "children": []
    },
    "flags": {
      "boolean": [],
      "dictionary": []
    },
    "scriptCalls": [],
    "subType": "gear"
  },
  "effects": [],
  "folder": null,
  "sort": 0,
  "permission": {
    "default": 0
  },
  "flags": {}
}
