{
  "_id": "pzxgojmlevlsbfed",
  "name": "Cot",
  "type": "loot",
  "img": "systems/pf1/icons/items/inventory/dice.jpg",
  "data": {
    "description": {
      "value": "<h4><span id=\"Cot\"><a name=\"TOC-Cot\"></a>Cot</span></h4>\r\n<p><b>Price</b> 1 gp; <b>Weight</b> 30 lbs.</p>\r\n<p>This elevated camp bed is made of wood and canvas, and is particularly useful when the ground is wet or rocky. It is large enough for a full-grown human, but folds down into a 4-foot-by-9-inch cylindrical bag.</p>\r\n"
    },
    "tags": [],
    "weight": 30,
    "price": 1,
    "equipped": false,
    "changes": [],
    "contextNotes": [],
    "links": {
      "children": []
    },
    "flags": {
      "boolean": [],
      "dictionary": []
    },
    "scriptCalls": [],
    "subType": "gear"
  },
  "effects": [],
  "folder": null,
  "sort": 0,
  "permission": {
    "default": 0
  },
  "flags": {}
}
