{
  "_id": "krvxjegbdkuyfsjd",
  "name": "Cypher Books",
  "type": "loot",
  "img": "systems/pf1/icons/items/inventory/dice.jpg",
  "data": {
    "description": {
      "value": "\r\n<p><b>Cypher Books</b> These books, always sold in identical pairs, contain numbered grids on each page which simply and easily catalog random lists of words. This allows a user to write messages which substitute letters and numbers that reference the page, row, and column of a particular word found within the cypher book. A creature without access to the appropriate cypher book takes a -10 penalty on Linguistic checks made to decipher each page of a coded message. Writing a message using the cipher takes 10 times as long as writing an uncoded message, and decoding it with the cipher book takes as much time as writing the original coded message. <b>Price</b> 150 gp; <b>Weight</b> 2 lbs.</p>\r\n"
    },
    "tags": [],
    "weight": 2,
    "price": 150,
    "equipped": false,
    "changes": [],
    "contextNotes": [],
    "links": {
      "children": []
    },
    "flags": {
      "boolean": [],
      "dictionary": []
    },
    "scriptCalls": [],
    "subType": "gear"
  },
  "effects": [],
  "folder": null,
  "sort": 0,
  "permission": {
    "default": 0
  },
  "flags": {}
}
