{
  "_id": "kuaqnhesurdacanx",
  "name": "Earplugs",
  "type": "loot",
  "img": "systems/pf1/icons/items/inventory/dice.jpg",
  "data": {
    "description": {
      "value": "\r\n<p><b>Price</b> 3 cp; <b>Weight</b> -</p>\r\n<p>Made of waxed cotton or cork, earplugs give you a +2 <a href=\"https://www.d20pfsrd.com/basics-ability-scores/glossary#TOC-Circumstance-Bonus\">circumstance bonus</a> on saves against effects that require hearing, but also cause a -5 penalty on hearing-based <a href=\"https://www.d20pfsrd.com/skills/perception\">Perception</a> checks.</p>\r\n\r\n"
    },
    "tags": [],
    "price": 0.03,
    "equipped": false,
    "changes": [],
    "contextNotes": [],
    "links": {
      "children": []
    },
    "flags": {
      "boolean": [],
      "dictionary": []
    },
    "scriptCalls": [],
    "subType": "gear"
  },
  "effects": [],
  "folder": null,
  "sort": 0,
  "permission": {
    "default": 0
  },
  "flags": {}
}
