{
  "_id": "djfbgejxobybhmkh",
  "name": "Godsbrew",
  "type": "loot",
  "img": "systems/pf1/icons/items/inventory/dice.jpg",
  "data": {
    "description": {
      "value": "<h4><span id=\"Godsbrew\"><a name=\"TOC-Godsbrew\"></a>Godsbrew</span></h4>\r\n<p class=\"source\"><b>Source</b> <a title=\"PPZO9410\" href=\"http://www.amazon.com/gp/product/1601252226/ref=as_li_qf_sp_asin_il_tl?ie=UTF8&amp;camp=1789&amp;creative=9325&amp;creativeASIN=1601252226&amp;linkCode=as2&amp;tag=httpwwwd20pfs-20\" target=\"_blank\" rel=\"noopener\">PPZO9410</a></p>\r\n<p>The recipe for this beer was said to be the last beer imbibed by a god before he undertook a great challenge.</p>\r\n<p>The listed prices are for a tavern or restaurant in an average city.</p>\r\n<p class=\"source\">*Are you looking for the official Pathfinder Roleplaying Game version of this item? Click <a href=\"http://www.pathfindercommunity.net/home/equipment/goods-and-services\">here</a> to find it!</p>\r\n"
    },
    "tags": [],
    "equipped": false,
    "changes": [],
    "contextNotes": [],
    "links": {
      "children": []
    },
    "flags": {
      "boolean": [],
      "dictionary": []
    },
    "scriptCalls": [],
    "subType": "gear"
  },
  "effects": [],
  "folder": null,
  "sort": 0,
  "permission": {
    "default": 0
  },
  "flags": {}
}
