{
  "_id": "nwkkmpvpkoopmvum",
  "name": "Grave Journal",
  "type": "loot",
  "img": "systems/pf1/icons/items/inventory/dice.jpg",
  "data": {
    "description": {
      "value": "\r\n<p class=\"source\"><b>Source</b> <a href=\"http://www.amazon.com/gp/product/1601255101/ref=as_li_qf_sp_asin_il_tl?ie=UTF8&amp;camp=1789&amp;creative=9325&amp;creativeASIN=1601255101&amp;linkCode=as2&amp;tag=httpwwwd20pfs-20\" target=\"_blank\" rel=\"noopener\">PPC:DHB</a></p>\r\n<p><b>Price</b> 4,600 gp; <b>Accuracy</b> +6; <b>Associated Skill</b> <a href=\"https://www.d20pfsrd.com/skills/knowledge\">Knowledge</a> (religion) (DC 25)</p>\r\n<p class=\"divider\"><a name=\"TOC-DESCRIPTION\"></a>DESCRIPTION</p>\r\n<p>This long-lost tome contains the detailed accounts of the mysterious and terrible things found when exploring a haunted burial ground centuries ago.</p>\r\n<p class=\"divider\"><a name=\"TOC-SKILL-BONUSES\"></a>SKILL BONUSES</p>\r\n<ul>\r\n<li>See through a <a href=\"https://www.d20pfsrd.com/bestiary/monster-listings/templates/vampire\">vampire</a> or <a href=\"https://www.d20pfsrd.com/races/other-races/featured-races/arg-dhampir\">dhampir's</a> disguise (<a href=\"https://www.d20pfsrd.com/skills/perception\">Perception</a> +4)</li>\r\n</ul>\r\n"
    },
    "tags": [],
    "weight": 2,
    "price": 4600,
    "equipped": false,
    "changes": [],
    "contextNotes": [],
    "links": {
      "children": []
    },
    "flags": {
      "boolean": [],
      "dictionary": []
    },
    "scriptCalls": [],
    "subType": "gear"
  },
  "effects": [],
  "folder": null,
  "sort": 0,
  "permission": {
    "default": 0
  },
  "flags": {}
}
