{
  "_id": "nYB3tL0Fs6nRPS46",
  "name": "Haggis",
  "type": "loot",
  "img": "systems/pf1/icons/items/inventory/dice.jpg",
  "data": {
    "description": {
      "value": "<div><strong>Source</strong> <a class=\"external-link\" href=\"http://paizo.com/products/btpy8tmc?Pathfinder-Roleplaying-Game-Ultimate-Equipment\" target=\"_blank\" rel=\"noopener\"><em>Ultimate Equipment pg. 95</em></a></div>\n<div>\n<div>&nbsp;</div>\n<div>This dish is a meaty pudding made of sheep organs (mainly heart, liver, and lungs) minced with onion, oats, fat, spices, and salt, wrapped in a sheep stomach and slow-cooked. Though its ingredients discourage cautious eaters, fans of haggis consider it a hearty meal with a wonderful texture. It is usually served with turnips, potatoes, and whiskey.</div>\n</div>"
    },
    "tags": [],
    "weight": 1.5,
    "price": 0.1,
    "equipped": false,
    "identifiedName": "Haggis",
    "changes": [],
    "contextNotes": [],
    "links": {
      "children": []
    },
    "flags": {
      "boolean": [],
      "dictionary": []
    },
    "scriptCalls": []
  },
  "effects": [],
  "folder": null,
  "sort": 0,
  "permission": {
    "default": 0
  },
  "flags": {}
}
