{
  "_id": "uiowypjhbvdjobmw",
  "name": "Kit, Infiltration",
  "type": "loot",
  "img": "systems/pf1/icons/items/inventory/dice.jpg",
  "data": {
    "description": {
      "value": "\r\n<p><b>Price</b> 140 gp; <b>Weight</b> 15 lbs.</p>\r\n<p>This kit is useful to adventurers who must practice guile and deception in order to acquire useful information, and includes a set of caltrops, chalk, a disguise kit, an ear trumpet, fake footprint shoes, a skeleton key, and a wrist sheath. For Small creatures, the weight of an infiltration kit is 9 pounds.</p>\r\n\r\n"
    },
    "tags": [],
    "weight": 15,
    "price": 140,
    "equipped": false,
    "changes": [],
    "contextNotes": [],
    "links": {
      "children": []
    },
    "flags": {
      "boolean": [],
      "dictionary": []
    },
    "scriptCalls": [],
    "subType": "gear"
  },
  "effects": [],
  "folder": null,
  "sort": 0,
  "permission": {
    "default": 0
  },
  "flags": {}
}
