{
  "_id": "rlhcjivyyofcwjwt",
  "name": "Kit, Seance",
  "type": "loot",
  "img": "systems/pf1/icons/items/inventory/dice.jpg",
  "data": {
    "description": {
      "value": "\r\n<p class=\"source\"><b>Source</b>: <a title=\"PZO9444\" href=\"http://www.amazon.com/gp/product/1601256043/ref=as_li_qf_sp_asin_il_tl?ie=UTF8&amp;camp=1789&amp;creative=9325&amp;creativeASIN=1601256043&amp;linkCode=as2&amp;tag=httpwwwd20pfs-20&amp;linkId=RI56HP6FPZYWBQMM\" target=\"_blank\" rel=\"noopener\">USH</a></p>\r\n<p><b>Price</b> 290 gp; <b>Weight</b> 12 lbs.</p>\r\n<p>This stained mahogany box contains tools that aid in contacting <a href=\"https://www.d20pfsrd.com/magic#TOC-Supernatural-Abilities-Su-\">supernatural</a> beings either as part of an act or a genuine ritual. This kit includes a non-magical <a href=\"https://www.d20pfsrd.com/magic-items/wondrous-items/wondrous-items/r-z/spirit-planchette\">spirit planchette</a> set (treat as a board game worth 25 gp), 10 candles, 10 candlesticks, one <a href=\"https://www.d20pfsrd.com/equipment/goods-and-services/containers-bags-boxes-more#TOC-Outfit-Entertainer-s\">entertainer's outfit</a>, one harrow deck, one magnet, 10 sticks of incense, one <a href=\"https://www.d20pfsrd.com/magic-items/scrolls\">scroll of</a> <a class=\"spell\" href=\"https://www.d20pfsrd.com/magic/all-spells/a/augury\">augury</a>, and two <a href=\"https://www.d20pfsrd.com/magic-items/scrolls\">scrolls of</a> <a class=\"spell\" href=\"https://www.d20pfsrd.com/magic/all-spells/p/prestidigitation\">prestidigitation</a>.</p>\r\n\r\n"
    },
    "tags": [],
    "weight": 12,
    "price": 290,
    "equipped": false,
    "changes": [],
    "contextNotes": [],
    "links": {
      "children": []
    },
    "flags": {
      "boolean": [],
      "dictionary": []
    },
    "scriptCalls": [],
    "subType": "gear"
  },
  "effects": [],
  "folder": null,
  "sort": 0,
  "permission": {
    "default": 0
  },
  "flags": {}
}
