{
  "_id": "mqotewaresovmkld",
  "name": "Kit, Entertainer's",
  "type": "loot",
  "img": "systems/pf1/icons/items/inventory/dice.jpg",
  "data": {
    "description": {
      "value": "\r\n<p><b>Price</b> 5 sp; <b>Weight</b> 3 lbs.</p>\r\n<p>This kit includes juggling balls, colored handkerchiefs, playing cards, clownish makeup, and other simple props for stage magicians and other street entertainers.</p>\r\n\r\n"
    },
    "tags": [],
    "weight": 3,
    "price": 0.5,
    "equipped": false,
    "changes": [],
    "contextNotes": [],
    "links": {
      "children": []
    },
    "flags": {
      "boolean": [],
      "dictionary": []
    },
    "scriptCalls": [],
    "subType": "gear"
  },
  "effects": [],
  "folder": null,
  "sort": 0,
  "permission": {
    "default": 0
  },
  "flags": {}
}
