{
  "_id": "bascdsklyibhfpmg",
  "name": "Lamp, Celestial",
  "type": "loot",
  "img": "systems/pf1/icons/items/inventory/dice.jpg",
  "data": {
    "description": {
      "value": "<h4><span id=\"Lamp_Celestial\"><a name=\"TOC-Lamp-Celestial\"></a>Lamp, Celestial</span></h4>\r\n<p class=\"source\"><b>Source</b> <a title=\"PZO1121\" href=\"http://www.amazon.com/gp/product/1601253907/ref=as_li_qf_sp_asin_il_tl?ie=UTF8&amp;camp=1789&amp;creative=9325&amp;creativeASIN=1601253907&amp;linkCode=as2&amp;tag=httpwwwd20pfs-20\" target=\"_blank\" rel=\"noopener\">PZO1121</a></p>\r\n<p>This polished lantern contains a <a class=\"spell\" href=\"https://www.d20pfsrd.com/magic/all-spells/c/continual-flame\">continual flame</a> and sheds light as a common lamp. If its font of consecrated crystal and metalwork is filled with <a href=\"https://www.d20pfsrd.com/equipment/goods-and-services/hunting-camping-survival-geaR/#TOC-Holy-Water\">holy water</a>, the lamp's light is sanctified for 24 hours, adding a +1 bonus to the save DC of channeled positive energy or energy channeled to harm evil <a href=\"https://www.d20pfsrd.com/bestiary/rules-for-monsters/creature-types#TOC-Outsider\">outsiders</a> within a 30-foot radius.</p>\r\n"
    },
    "tags": [],
    "equipped": false,
    "changes": [],
    "contextNotes": [],
    "links": {
      "children": []
    },
    "flags": {
      "boolean": [],
      "dictionary": []
    },
    "scriptCalls": [],
    "subType": "gear"
  },
  "effects": [],
  "folder": null,
  "sort": 0,
  "permission": {
    "default": 0
  },
  "flags": {}
}
