{
  "_id": "jjdfqhjenucvwfbt",
  "name": "Lamp",
  "type": "loot",
  "img": "systems/pf1/icons/items/inventory/dice.jpg",
  "data": {
    "description": {
      "value": "<h4><span id=\"Lamp\"><a name=\"TOC-Lamp\"></a>Lamp</span></h4>\r\n<p class=\"source\"><b>Source</b> <a title=\"PZO1110\" href=\"http://www.amazon.com/gp/product/1601251505/ref=as_li_qf_sp_asin_il_tl?ie=UTF8&amp;camp=1789&amp;creative=9325&amp;creativeASIN=1601251505&amp;linkCode=as2&amp;tag=httpwwwd20pfs-20\" target=\"_blank\" rel=\"noopener\">PZO1110</a></p>\r\n<p><b>Price</b> 1 sp; <b>Weight</b> 1 lb.</p>\r\n<p>A common lamp illuminates a small area, providing normal light in a 15-foot radius and increasing the light level by one step for an additional 15 feet beyond that area (darkness becomes dim light and dim light becomes normal light). A lamp does not increase the light level in normal light or bright light. A lamp burns for 6 hours on 1 pint of <a href=\"https://www.d20pfsrd.com/equipment/goods-and-services/hunting-camping-survival-geaR/#TOC-Oil\">oil</a>. You can carry a lamp in one hand.</p>\r\n"
    },
    "tags": [],
    "weight": 1,
    "price": 0.1,
    "equipped": false,
    "changes": [],
    "contextNotes": [],
    "links": {
      "children": []
    },
    "flags": {
      "boolean": [],
      "dictionary": []
    },
    "scriptCalls": [],
    "subType": "gear"
  },
  "effects": [],
  "folder": null,
  "sort": 0,
  "permission": {
    "default": 0
  },
  "flags": {}
}
