{
  "_id": "iywlpneajhmwxgvp",
  "name": "Light Detector",
  "type": "loot",
  "img": "systems/pf1/icons/items/inventory/dice.jpg",
  "data": {
    "description": {
      "value": "\r\n<p><b>Price</b> 1 gp; <b>Weight</b> -</p>\r\n<p>This hand-sized metal plate is covered with a thin layer of light-sensitive transparent paste. If exposed to light, the paste darkens and becomes opaque, depending on the amount of light. Bright light causes it to fully darken in 1 round, normal light in 3 rounds, and dim light in 10 rounds. It is mainly used by creatures with <a href=\"https://www.d20pfsrd.com/gamemastering/special-abilities#TOC-Darkvision\">darkvision</a> to determine whether creatures carrying light have recently passed through an area. The plate is sold wrapped in a thick black cloth to prevent accidental light exposure from ruining the plate.</p>\r\n"
    },
    "tags": [],
    "price": 1,
    "equipped": false,
    "changes": [],
    "contextNotes": [],
    "links": {
      "children": []
    },
    "flags": {
      "boolean": [],
      "dictionary": []
    },
    "scriptCalls": [],
    "subType": "gear"
  },
  "effects": [],
  "folder": null,
  "sort": 0,
  "permission": {
    "default": 0
  },
  "flags": {}
}
