{
  "_id": "vexlkmenxcgcqopc",
  "name": "Lock",
  "type": "loot",
  "img": "systems/pf1/icons/items/inventory/dice.jpg",
  "data": {
    "description": {
      "value": "\r\n<p class=\"source\"><b>Source</b>: <a title=\"PZO1110\" href=\"http://www.amazon.com/gp/product/1601251505/ref=as_li_qf_sp_asin_il_tl?ie=UTF8&amp;camp=1789&amp;creative=9325&amp;creativeASIN=1601251505&amp;linkCode=as2&amp;tag=httpwwwd20pfs-20\" target=\"_blank\" rel=\"noopener\">PZO1110</a></p>\r\n<p>The DC to open a lock with the <a href=\"https://www.d20pfsrd.com/skills/disable-device\">Disable Device</a> skill depends on the lock's quality: <b>simple</b> (DC 20), <b>average</b> (DC 25), <b>good</b> (DC 30), or <b>superior</b> (DC 40).</p>\r\n\r\n"
    },
    "tags": [],
    "equipped": false,
    "changes": [],
    "contextNotes": [],
    "links": {
      "children": []
    },
    "flags": {
      "boolean": [],
      "dictionary": []
    },
    "scriptCalls": [],
    "subType": "gear"
  },
  "effects": [],
  "folder": null,
  "sort": 0,
  "permission": {
    "default": 0
  },
  "flags": {}
}
