{
  "_id": "kufxykxfevwmibqj",
  "name": "Meat",
  "type": "loot",
  "img": "systems/pf1/icons/items/inventory/dice.jpg",
  "data": {
    "description": {
      "value": "<h4><span id=\"Meat\"><a name=\"TOC-Meat\"></a>Meat</span></h4>\r\n<p class=\"source\"><b>Source</b> <a title=\"PZO1110\" href=\"http://www.amazon.com/gp/product/1601251505/ref=as_li_qf_sp_asin_il_tl?ie=UTF8&amp;camp=1789&amp;creative=9325&amp;creativeASIN=1601251505&amp;linkCode=as2&amp;tag=httpwwwd20pfs-20\" target=\"_blank\" rel=\"noopener\">PZO1110</a></p>\r\n<p>The listed prices are for a tavern or restaurant in an average city.</p>\r\n"
    },
    "tags": [],
    "equipped": false,
    "changes": [],
    "contextNotes": [],
    "links": {
      "children": []
    },
    "flags": {
      "boolean": [],
      "dictionary": []
    },
    "scriptCalls": [],
    "subType": "gear"
  },
  "effects": [],
  "folder": null,
  "sort": 0,
  "permission": {
    "default": 0
  },
  "flags": {}
}
