{
  "_id": "ijvthxdltvptzbsn",
  "name": "Mellowroot",
  "type": "loot",
  "img": "systems/pf1/icons/items/inventory/dice.jpg",
  "data": {
    "description": {
      "value": "\r\n<p class=\"source\"><b>Source</b> <a title=\"PZO1121\" href=\"http://www.amazon.com/gp/product/1601253907/ref=as_li_qf_sp_asin_il_tl?ie=UTF8&amp;camp=1789&amp;creative=9325&amp;creativeASIN=1601253907&amp;linkCode=as2&amp;tag=httpwwwd20pfs-20\" target=\"_blank\" rel=\"noopener\">PZO1121</a></p>\r\n<p>Sneaky <a href=\"https://www.d20pfsrd.com/bestiary/monster-listings/humanoids/goblin\">goblin</a> chieftains give this orange paste to the tribe's warriors before proposing a particularly bold raid. Consuming mellowroot causes a euphoric feeling that makes you feel invulnerable. For 1 hour after consuming mellowroot, you gain a +5 <a href=\"https://www.d20pfsrd.com/basics-ability-scores/glossary#TOC-Bonus-Alchemical-\">alchemical bonus</a> versus fear effects. However, while under the effects of mellowroot, you must make a DC 15 <a href=\"https://www.d20pfsrd.com/gamemastering/combat#TOC-Will\">Will</a> saving throw when you try to leave the <a href=\"https://www.d20pfsrd.com/gamemastering/combat#TOC-Threatened-Squares\">threatened</a> area of an opponent. If you fail the saving throw, you cannot leave the <a href=\"https://www.d20pfsrd.com/gamemastering/combat#TOC-Threatened-Squares\">threatened</a> area with that action but do not lose the action.</p>\r\n"
    },
    "tags": [],
    "price": 25,
    "equipped": false,
    "changes": [],
    "contextNotes": [],
    "links": {
      "children": []
    },
    "flags": {
      "boolean": [],
      "dictionary": []
    },
    "scriptCalls": [],
    "subType": "gear"
  },
  "effects": [],
  "folder": null,
  "sort": 0,
  "permission": {
    "default": 0
  },
  "flags": {}
}
