{
  "_id": "ilrlpecljcitjnjz",
  "name": "Moly",
  "type": "loot",
  "img": "systems/pf1/icons/items/inventory/dice.jpg",
  "data": {
    "description": {
      "value": "\r\n<p class=\"source\"><b>Source</b> <a href=\"http://amzn.to/2z71S07\" target=\"_blank\" rel=\"noopener\">PZO1140</a></p>\r\n<p><b>Price</b> 1,200 gp</p>\r\n<p>Moly is a plant with flowers white as pure milk and roots black as night.</p>\r\n<p><b>Gather</b> DC 25; <b>Yield</b> 1 dose</p>\r\n<p><b>Terrain</b> any forests or plains</p>\r\n<p><b>Preparation</b> This flowering herb must be picked whole and boiled with water until the entire amount is reduced by half. The resulting mixture is then strained and poured into a shallow pan to evaporate. The resulting crust is scraped off as a powder.</p>\r\n<p><b>Use</b> Anyone wearing or carrying fresh moly gains a +4 <a href=\"https://www.d20pfsrd.com/basics-ability-scores/glossary#TOC-Resistance-Bonus\">resistance bonus</a> on saving throws against spells and <a href=\"https://www.d20pfsrd.com/magic#TOC-Spell-Like-Abilities-Sp-\">spell-like abilities</a>. Moly remains fresh in this way for only 12 hours, regardless of magical attempts to preserve it. When processed into a powder with a successful DC 25 <a href=\"https://www.d20pfsrd.com/skills/craft\">Craft</a> (alchemy) check, moly can be sprinkled on a creature, object, or area (a <a href=\"https://www.d20pfsrd.com/gamemastering/combat#TOC-Standard-Actions\">standard action</a>) to end a spell as if with <a class=\"spell\" href=\"https://www.d20pfsrd.com/magic/all-spells/d/dispel-magic\">dispel magic</a> (<a href=\"https://www.d20pfsrd.com/magic#TOC-Caster-Level\">caster level</a> 6th).</p>\r\n"
    },
    "tags": [],
    "price": 1200,
    "equipped": false,
    "changes": [],
    "contextNotes": [],
    "links": {
      "children": []
    },
    "flags": {
      "boolean": [],
      "dictionary": []
    },
    "scriptCalls": [],
    "subType": "gear"
  },
  "effects": [],
  "folder": null,
  "sort": 0,
  "permission": {
    "default": 0
  },
  "flags": {}
}
