{
  "_id": "tjbmqhvqzbqgtemd",
  "name": "Nightsage",
  "type": "loot",
  "img": "systems/pf1/icons/items/inventory/dice.jpg",
  "data": {
    "description": {
      "value": "\r\n<p class=\"source\"><b>Source</b> <a href=\"http://amzn.to/2z71S07\" target=\"_blank\" rel=\"noopener\">PZO1140</a></p>\r\n<p><b>Price</b> 100 gp</p>\r\n<p>The fragrant purple blossoms of this night-blooming wildflower are so deep in hue that they appear almost black.</p>\r\n<p><b>Gather</b> DC 14; <b>Yield</b> 1 dose</p>\r\n<p><b>Terrain</b> any jungles</p>\r\n<p><b>Preparation</b> A dose of nightsage must be sprinkled with <a href=\"https://www.d20pfsrd.com/equipment/goods-and-services/toys-games-puzzles#TOC-Holy-Water\">holy water</a> periodically over an 8-hour drying process in natural sunlight; this process requires a successful DC 12 <a href=\"https://www.d20pfsrd.com/skills/craft\">Craft</a> (alchemy) check and one <a href=\"https://www.d20pfsrd.com/equipment/goods-and-services/containers-bags-boxes-more#TOC-Flask\">flask</a> of <a href=\"https://www.d20pfsrd.com/equipment/goods-and-services/toys-games-puzzles#TOC-Holy-Water\">holy water</a>.</p>\r\n<p><b>Use</b> When dried nightsage is lit on fire (a <a href=\"https://www.d20pfsrd.com/gamemastering/combat#TOC-Standard-Actions\">standard action</a>), it produces a thin but pleasant-smelling smoke almost like that produced by a stick of incense. A dose of nightsage burns for 10 minutes and can be extinguished and reignited for multiple uses (but it is always used in 1 minute increments, regardless of the actual time spent burning).</p>\r\n<p>While nightsage burns, each corporeal <a href=\"https://www.d20pfsrd.com/bestiary/rules-for-monsters/creature-types#TOC-Undead\">undead</a> creature within a 5-foot radius gains a +2 <a href=\"https://www.d20pfsrd.com/basics-ability-scores/glossary#TOC-Profane-Bonus\">profane bonus</a> on saving throws against positive energy effects (including <a href=\"https://www.d20pfsrd.com/classes/core-classes/cleric#TOC-Channel-Energy-Su-\">channel energy</a> effects). Necromancers are fond of supplying their <a href=\"https://www.d20pfsrd.com/bestiary/rules-for-monsters/creature-types#TOC-Undead\">undead</a> minions with small thuribles containing a burning stick of nightsage that can be worn while carrying out their commands. A moderate or stronger wind extinguishes a burning stick of nightsage.</p>\r\n"
    },
    "tags": [],
    "price": 100,
    "equipped": false,
    "changes": [],
    "contextNotes": [],
    "links": {
      "children": []
    },
    "flags": {
      "boolean": [],
      "dictionary": []
    },
    "scriptCalls": [],
    "subType": "gear"
  },
  "effects": [],
  "folder": null,
  "sort": 0,
  "permission": {
    "default": 0
  },
  "flags": {}
}
