{
  "_id": "wjwlkmtwaiqezfhg",
  "name": "Obsession Log",
  "type": "loot",
  "img": "systems/pf1/icons/items/inventory/dice.jpg",
  "data": {
    "description": {
      "value": "\r\n<p><b>Obsession Log</b> Gnomes use these small books to record information about their obsessions. When a <a href=\"https://www.d20pfsrd.com/races/core-races/gnome\">gnome</a> consults her obsession log (taking 1 minute), she gains a +2 <a href=\"https://www.d20pfsrd.com/basics-ability-scores/glossary#TOC-Circumstance-Bonus\">circumstance bonus</a> on the next <a href=\"https://www.d20pfsrd.com/skills/craft\">Craft</a> or <a href=\"https://www.d20pfsrd.com/skills/profession\">Profession</a> check she makes, as long as that skill was the one chosen for her obsessive racial trait. <b>Price</b> 25 gp; <b>Weight</b> 1 lb. <b>Source</b> <a title=\"PZO1121\" href=\"http://www.amazon.com/gp/product/1601253907/ref=as_li_qf_sp_asin_il_tl?ie=UTF8&amp;camp=1789&amp;creative=9325&amp;creativeASIN=1601253907&amp;linkCode=as2&amp;tag=httpwwwd20pfs-20\" target=\"_blank\" rel=\"noopener\">PZO1121</a></p>\r\n"
    },
    "tags": [],
    "weight": 1,
    "price": 25,
    "equipped": false,
    "changes": [],
    "contextNotes": [],
    "links": {
      "children": []
    },
    "flags": {
      "boolean": [],
      "dictionary": []
    },
    "scriptCalls": [],
    "subType": "gear"
  },
  "effects": [],
  "folder": null,
  "sort": 0,
  "permission": {
    "default": 0
  },
  "flags": {}
}
