{
  "_id": "sxvfysladoipddog",
  "name": "Oil, Stalkers",
  "type": "loot",
  "img": "systems/pf1/icons/items/inventory/dice.jpg",
  "data": {
    "description": {
      "value": "\r\n<p class=\"source\"><b>Source</b> <a href=\"https://www.amazon.com/gp/product/1640780009/ref=as_li_qf_sp_asin_il_tl?ie=UTF8&amp;tag=httpwwwd20pfs-20&amp;camp=1789&amp;creative=9325&amp;linkCode=as2&amp;creativeASIN=1640780009&amp;linkId=d3f2e5793ff9d46f3715c8cc97eccd3f\" target=\"_blank\" rel=\"noopener\">PZO9487E</a></p>\r\n<p><b>Price</b> 50 gp; <b>Weight</b> -</p>\r\n<p>This is a clear, viscous liquid that is typically kept in a frosted glass vial with an unassuming label and cork. The oil is used to reduce the sound armor and weapons make while moving.</p>\r\n<p>Applying this oil to a single piece of equipment takes 1 minute and grants the wearer a +2 <a href=\"https://www.d20pfsrd.com/basics-ability-scores/glossary#TOC-Circumstance-Bonus\">circumstance bonus</a> on <a href=\"https://www.d20pfsrd.com/skills/stealth\">Stealth</a> checks for 30 minutes. A <a href=\"https://www.d20pfsrd.com/equipment/goods-and-services/containers-bags-boxes-more#TOC-Vial\">vial</a> of this oil is enough to coat one Medium piece of equipment, while a Large piece of equipment requires 4 vials. Two pieces of Small equipment can be covered with a single vial of oil. Exposure to or submersion in large amounts of water, such as swimming, immediately ends the effect of the oil.</p>\r\n"
    },
    "tags": [],
    "price": 50,
    "equipped": false,
    "changes": [],
    "contextNotes": [],
    "links": {
      "children": []
    },
    "flags": {
      "boolean": [],
      "dictionary": []
    },
    "scriptCalls": [],
    "subType": "gear"
  },
  "effects": [],
  "folder": null,
  "sort": 0,
  "permission": {
    "default": 0
  },
  "flags": {}
}
