{
  "_id": "rgtekmzusxufhcuf",
  "name": "Ointment, Loping",
  "type": "loot",
  "img": "systems/pf1/icons/items/inventory/dice.jpg",
  "data": {
    "description": {
      "value": "\r\n<p class=\"source\"><b>Source</b> <a href=\"http://amzn.to/2CbteVz\" target=\"_blank\" rel=\"noopener\">PZO90115</a></p>\r\n<p><b>Price</b> 60 gp; <b>Weight</b> 1 lb.</p>\r\n<p>This gray, greasy topical lotion strengthens and straightens the leg muscles of bandy-legged <a href=\"https://www.d20pfsrd.com/bestiary/monster-listings/humanoids/hobgoblin\">hobgoblins</a>. Applying loping ointment requires 1 <a href=\"https://www.d20pfsrd.com/gamemastering/combat#TOC-Full-Round-Actions\">full-round action</a>. A <a href=\"https://www.d20pfsrd.com/races/other-races/featured-races/arg-hobgoblin\">hobgoblin</a> under the effects of loping ointment gains a 10-foot <a href=\"https://www.d20pfsrd.com/basics-ability-scores/glossary#TOC-Bonus-Alchemical-\">alchemical bonus</a> to his speed when using the <a href=\"https://www.d20pfsrd.com/gamemastering/combat#TOC-Charge\">charge</a>, run, or <a href=\"https://www.d20pfsrd.com/gamemastering/combat#TOC-Withdraw\">withdraw action</a>. This bonus lasts for 10 minutes. Loping ointment is specifically created to enhance <a href=\"https://www.d20pfsrd.com/races/other-races/featured-races/arg-hobgoblin\">hobgoblin</a> physiology; other creatures gain no benefit from this ointment and find it unpleasantly itchy. Crafting this item requires a successful DC 25 <a href=\"https://www.d20pfsrd.com/skills/craft\">Craft</a> (alchemy) check.</p>\r\n"
    },
    "tags": [],
    "equipped": false,
    "changes": [],
    "contextNotes": [],
    "links": {
      "children": []
    },
    "flags": {
      "boolean": [],
      "dictionary": []
    },
    "scriptCalls": [],
    "subType": "gear"
  },
  "effects": [],
  "folder": null,
  "sort": 0,
  "permission": {
    "default": 0
  },
  "flags": {}
}
