{
  "_id": "5bPq9fmGxiqBXFzc",
  "name": "Outfit, Companion Cold-Weather",
  "type": "equipment",
  "img": "systems/pf1/icons/items/equipment/cloak-fur.jpg",
  "data": {
    "description": {
      "value": "<p style=\"box-sizing: border-box; user-select: text; color: #191813; font-size: 13px;\">This vestment works just like a cold-weather outfit, granting a +5&nbsp;<a style=\"box-sizing: border-box; user-select: text;\" href=\"https://www.d20pfsrd.com/basics-ability-scores/glossary#TOC-Circumstance-Bonus\">circumstance bonus</a>&nbsp;on&nbsp;<a style=\"box-sizing: border-box; user-select: text;\" href=\"https://www.d20pfsrd.com/gamemastering/combat#TOC-Fortitude\">Fortitude</a>&nbsp;saving throws against exposure to cold weather, except it is custom made for an&nbsp;<a style=\"box-sizing: border-box; user-select: text;\" href=\"https://www.d20pfsrd.com/classes/core-classes/druid/animal-companions\">animal companion</a>. The added cost represents custom tailoring to ensure that the furs used don't cause unwanted reactions from the&nbsp;<a style=\"box-sizing: border-box; user-select: text;\" href=\"https://www.d20pfsrd.com/bestiary/rules-for-monsters/creature-types#TOC-Animal\">animal</a>&nbsp;wearing the outfit.</p>"
    },
    "tags": [],
    "weight": 6,
    "price": 15,
    "identifiedName": "Outfit, Companion Cold-Weather",
    "changes": [],
    "contextNotes": [
      {
        "text": "+[[5]] <b>Circumstance</b> vs cold weather effects",
        "target": "savingThrows",
        "subTarget": "fort"
      }
    ],
    "actions": [],
    "attackNotes": [],
    "effectNotes": [],
    "links": {
      "children": [],
      "charges": []
    },
    "flags": {
      "boolean": [],
      "dictionary": []
    },
    "scriptCalls": [],
    "equipmentType": "misc",
    "equipmentSubtype": "clothing",
    "slot": "body"
  },
  "effects": [],
  "folder": null,
  "sort": 0,
  "permission": {
    "default": 0
  },
  "flags": {}
}
