{
  "_id": "oDiFOt3YZlbHhsJh",
  "name": "Outfit, Courtesan's",
  "type": "equipment",
  "img": "systems/pf1/icons/items/equipment/cloak-pink.jpg",
  "data": {
    "description": {
      "value": "<p class=\"source\" style=\"box-sizing: border-box; user-select: text; color: #191813; font-size: 13px;\"><strong style=\"box-sizing: border-box; user-select: text;\">Source</strong>&nbsp;<a style=\"box-sizing: border-box; user-select: text;\" href=\"http://amzn.to/2eT3m9D\" target=\"_blank\" rel=\"noopener\">PPZO94102</a></p>\n<p style=\"box-sizing: border-box; user-select: text; color: #191813; font-size: 13px;\">This outfit includes fine silk or satin garments tailored to complement your figure. In addition, the outfit contains a loose shawl or robe with several discreet pockets for items such as&nbsp;<a style=\"box-sizing: border-box; user-select: text;\" href=\"https://www.d20pfsrd.com/equipment/goods-and-services/containers-bags-boxes-more#TOC-Perfume-or-Cologne\">perfume</a>, massage oils, or even a small @Compendium[pf1.weapons-and-ammo.fOSuWwRSZLTrROch]{dagger}.</p>"
    },
    "tags": [],
    "weight": 4,
    "price": 8,
    "identifiedName": "Outfit, Courtesan's",
    "changes": [],
    "contextNotes": [],
    "actions": [],
    "attackNotes": [],
    "effectNotes": [],
    "links": {
      "children": [],
      "charges": []
    },
    "flags": {
      "boolean": [],
      "dictionary": []
    },
    "scriptCalls": [],
    "equipmentType": "misc",
    "equipmentSubtype": "clothing",
    "slot": "body"
  },
  "effects": [],
  "folder": null,
  "sort": 0,
  "permission": {
    "default": 0
  },
  "flags": {}
}
