{
  "_id": "cFzXcc8MM5xyAA0S",
  "name": "Outfit, Peasant's",
  "type": "equipment",
  "img": "systems/pf1/icons/items/equipment/tunic.jpg",
  "data": {
    "description": {
      "value": "<p class=\"source\" style=\"box-sizing: border-box; user-select: text; color: #191813; font-size: 13px;\"><strong style=\"box-sizing: border-box; user-select: text;\">Source</strong>&nbsp;<a style=\"box-sizing: border-box; user-select: text;\" title=\"PZO1110\" href=\"http://www.amazon.com/gp/product/1601251505/ref=as_li_qf_sp_asin_il_tl?ie=UTF8&amp;camp=1789&amp;creative=9325&amp;creativeASIN=1601251505&amp;linkCode=as2&amp;tag=httpwwwd20pfs-20\" target=\"_blank\" rel=\"noopener\">PZO1110</a></p>\n<p style=\"box-sizing: border-box; user-select: text; color: #191813; font-size: 13px;\">This set of clothes consists of a loose shirt and baggy breeches, or a loose shirt and skirt or overdress. Cloth wrappings are used for shoes.</p>"
    },
    "tags": [],
    "weight": 2,
    "price": 0.1,
    "identifiedName": "Outfit, Peasant's",
    "changes": [],
    "contextNotes": [],
    "actions": [],
    "attackNotes": [],
    "effectNotes": [],
    "links": {
      "children": [],
      "charges": []
    },
    "flags": {
      "boolean": [],
      "dictionary": []
    },
    "scriptCalls": [],
    "equipmentType": "misc",
    "equipmentSubtype": "clothing",
    "armor": {
      "dex": ""
    },
    "slot": "body"
  },
  "effects": [],
  "folder": null,
  "sort": 0,
  "permission": {
    "default": 0
  },
  "flags": {}
}
