{
  "_id": "cusrgzhtfmjrlhdv",
  "name": "Paper, Glue",
  "type": "loot",
  "img": "systems/pf1/icons/items/inventory/dice.jpg",
  "data": {
    "description": {
      "value": "\r\n<p>This 1-foot-square piece of paper is coated on one side with a weak glue or sticky material such as tree sap or even honey. It is stored folded in half. If you apply glue paper to a window before you break it, the broken pieces stick to the glue rather than noisily falling to the ground. Glue paper is good for a single use.</p>\r\n<p><b>Price</b> 1 sp; <b>Weight</b> -</p>\r\n"
    },
    "tags": [],
    "price": 0.1,
    "equipped": false,
    "changes": [],
    "contextNotes": [],
    "links": {
      "children": []
    },
    "flags": {
      "boolean": [],
      "dictionary": []
    },
    "scriptCalls": [],
    "subType": "gear"
  },
  "effects": [],
  "folder": null,
  "sort": 0,
  "permission": {
    "default": 0
  },
  "flags": {}
}
