{
  "_id": "PAMQomgfgGioyhuT",
  "name": "Portable ram",
  "type": "loot",
  "img": "systems/pf1/icons/items/inventory/dice.jpg",
  "data": {
    "description": {
      "value": "<p>Source&nbsp;<a href=\"http://paizo.com/products/btpy8tmc?Pathfinder-Roleplaying-Game-Ultimate-Equipment\" target=\"_blank\" rel=\"noopener\">Ultimate Equipment pg. 57</a><br>Price&nbsp;10 gp;&nbsp;Weight&nbsp;20 lbs.<br>Category&nbsp;Adventuring Gear</p>\n<h3>Description</h3>\n<p>This iron-shod wooden beam gives you a +2 circumstance bonus on Strength checks made to break open a door and allows a second person to help, automatically increasing your bonus by +2.</p>"
    },
    "tags": [],
    "weight": 20,
    "price": 10,
    "equipped": false,
    "identifiedName": "Portable ram",
    "changes": [],
    "contextNotes": [],
    "links": {
      "children": []
    },
    "flags": {
      "boolean": [],
      "dictionary": []
    },
    "scriptCalls": [],
    "subType": "gear"
  },
  "effects": [],
  "folder": null,
  "sort": 0,
  "permission": {
    "default": 0
  },
  "flags": {}
}
