{
  "_id": "zmuyimoowyrucivg",
  "name": "Potion Sponge",
  "type": "loot",
  "img": "systems/pf1/icons/items/inventory/dice.jpg",
  "data": {
    "description": {
      "value": " \n<p class=\"source\"><b>Source</b> <a title=\"PZO1121\" href=\"http://www.amazon.com/gp/product/1601253907/ref=as_li_qf_sp_asin_il_tl?ie=UTF8&amp;camp=1789&amp;creative=9325&amp;creativeASIN=1601253907&amp;linkCode=as2&amp;tag=httpwwwd20pfs-20\" target=\"_blank\" rel=\"noopener\">PZO1121</a></p> \n<p>This egg-sized sponge is covered in a layer of waterproof edible wax, designed to absorb 1 dose of a <a style=\"font-style: italic\" href=\"https://www.d20pfsrd.com/magic-items/potions\">potion</a>. Chewing a <a style=\"font-style: italic\" href=\"https://www.d20pfsrd.com/magic-items/potions\">potion</a> sponge and swallowing its liquid contents is a <a href=\"https://www.d20pfsrd.com/gamemastering/combat#TOC-Full-Round-Actions\">full-round action</a>. A creature of at least Large size can swallow the sponge in its entirely; other creatures must spit out the sponge once it's depleted (a <a href=\"https://www.d20pfsrd.com/gamemastering/combat#TOC-Free-Actions\">free action</a>). Unlike a <a style=\"font-style: italic\" href=\"https://www.d20pfsrd.com/magic-items/potions\">potion</a> that is drunk from a vial, a <a style=\"font-style: italic\" href=\"https://www.d20pfsrd.com/magic-items/potions\">potion</a> sponge can be used underwater. A <a style=\"font-style: italic\" href=\"https://www.d20pfsrd.com/magic-items/potions\">potion</a> can be poured from a vial into a sponge <a style=\"font-style: italic\" href=\"https://www.d20pfsrd.com/magic-items/potions\">potion</a> (or squeezed from a sponge into a vial) as a <a href=\"https://www.d20pfsrd.com/gamemastering/combat#TOC-Full-Round-Actions\">full-round action</a>. The potion sponge is immune to attacks that specifically target crystal, glass, ceramic, or porcelain, such as <a class=\"spell\" href=\"https://www.d20pfsrd.com/magic/all-spells/s/shatter\">shatter</a>. It otherwise works like a <a style=\"font-style: italic\" href=\"https://www.d20pfsrd.com/magic-items/potions\">potion</a> vial.</p> \n"
    },
    "tags": [],
    "price": 2,
    "equipped": false,
    "changes": [],
    "contextNotes": [],
    "links": {
      "children": []
    },
    "flags": {
      "boolean": [],
      "dictionary": []
    },
    "scriptCalls": [],
    "subType": "gear"
  },
  "effects": [],
  "folder": null,
  "sort": 0,
  "permission": {
    "default": 0
  },
  "flags": {}
}
