{
  "_id": "kkprgkchaojnwezk",
  "name": "Pulque",
  "type": "loot",
  "img": "systems/pf1/icons/items/inventory/dice.jpg",
  "data": {
    "description": {
      "value": "<h4><span id=\"Pulque\"><a name=\"TOC-Pulque\"></a>Pulque</span></h4>\r\n<p><b>Price</b> 1 sp-4 sp; <b>Weight</b> 1/2 lb.-2 lbs.</p>\r\n<p>This nutritious milk-colored alcoholic beverage is fermented from the heart of the agave or century plant.</p>\r\n"
    },
    "tags": [],
    "equipped": false,
    "changes": [],
    "contextNotes": [],
    "links": {
      "children": []
    },
    "flags": {
      "boolean": [],
      "dictionary": []
    },
    "scriptCalls": [],
    "subType": "gear"
  },
  "effects": [],
  "folder": null,
  "sort": 0,
  "permission": {
    "default": 0
  },
  "flags": {}
}
