{
  "_id": "yrgbjejhfwctpvbe",
  "name": "Ring, Poison Pill",
  "type": "loot",
  "img": "systems/pf1/icons/items/inventory/dice.jpg",
  "data": {
    "description": {
      "value": " \n<p class=\"source\"><b>Source</b> <a title=\"PZO1115\" href=\"http://www.amazon.com/gp/product/1601252463/ref=as_li_qf_sp_asin_il_tl?ie=UTF8&amp;camp=1789&amp;creative=9325&amp;creativeASIN=1601252463&amp;linkCode=as2&amp;tag=httpwwwd20pfs-20\" target=\"_blank\" rel=\"noopener\">PZO1115</a></p> \n<p>This ring has a tiny compartment under the setting, typically used to hold <a href=\"https://www.d20pfsrd.com/gamemastering/afflictions#TOC-Poison\">poison</a>. Opening and closing a ring is a <a href=\"https://www.d20pfsrd.com/gamemastering/combat#TOC-Move-Actions\">move action</a>; doing so unseen requires a DC 20 <a href=\"https://www.d20pfsrd.com/skills/sleight-of-hand\">Sleight of Hand</a> check.</p> \n"
    },
    "tags": [],
    "price": 20,
    "equipped": false,
    "changes": [],
    "contextNotes": [],
    "links": {
      "children": []
    },
    "flags": {
      "boolean": [],
      "dictionary": []
    },
    "scriptCalls": [],
    "subType": "gear"
  },
  "effects": [],
  "folder": null,
  "sort": 0,
  "permission": {
    "default": 0
  },
  "flags": {}
}
