{
  "_id": "ovmuotfglyqldnnf",
  "name": "Salt",
  "type": "loot",
  "img": "systems/pf1/icons/items/inventory/dice.jpg",
  "data": {
    "description": {
      "value": "\r\n<p class=\"source\"><b>Source</b> <a href=\"http://www.amazon.com/gp/product/1601256051/ref=as_li_qf_sp_asin_il_tl?ie=UTF8&amp;camp=1789&amp;creative=9325&amp;creativeASIN=1601256051&amp;linkCode=as2&amp;tag=httpwwwd20pfs-20\" target=\"_blank\" rel=\"noopener\">PZO9445</a></p>\r\n<p><b>Price</b> 5 sp; <b>Weight</b> -</p>\r\n<p>Salt is a vital mineral commodity. It is most commonly used as a desiccant and as a catalyst.</p>\r\n<p class=\"header\">Alchemical Power Component</p>\r\n<p><b>Doses</b> 20 (10 gp); <b>Spells</b> necromancy school</p>\r\n<p>Spells of the necromancy school are cast at +1 caster level for the purpose of effects.</p>\r\n"
    },
    "tags": [],
    "price": 0.5,
    "equipped": false,
    "changes": [],
    "contextNotes": [],
    "links": {
      "children": []
    },
    "flags": {
      "boolean": [],
      "dictionary": []
    },
    "scriptCalls": [],
    "subType": "gear"
  },
  "effects": [],
  "folder": null,
  "sort": 0,
  "permission": {
    "default": 0
  },
  "flags": {}
}
