{
  "_id": "lzupxmcxhslzyiyj",
  "name": "Smokestick",
  "type": "loot",
  "img": "systems/pf1/icons/items/inventory/dice.jpg",
  "data": {
    "description": {
      "value": "\r\n<p><b>Price</b> 20 gp; <b>Weight</b> 1/2 lb.</p>\r\n<p>This alchemically treated wooden stick instantly creates thick, opaque smoke when burned. The smoke fills a 10-foot cube (treat the effect as a <a class=\"spell\" href=\"https://www.d20pfsrd.com/magic/all-spells/f/fog-cloud\">fog cloud</a> spell, except that a moderate or stronger wind dissipates the smoke in 1 round). The stick is consumed after 1 round, and the smoke dissipates naturally after 1 minute.</p>\r\n<p class=\"header\">Alchemical Power Component</p>\r\n<p class=\"source\"><b>Source</b> <a title=\"PZO9410\" href=\"http://www.amazon.com/gp/product/1601252226/ref=as_li_qf_sp_asin_il_tl?ie=UTF8&amp;camp=1789&amp;creative=9325&amp;creativeASIN=1601252226&amp;linkCode=as2&amp;tag=httpwwwd20pfs-20\" target=\"_blank\" rel=\"noopener\">PZO9410</a></p>\r\n<p>Smokesticks work best with spells that create clouds or smoke.</p>\r\n<ul>\r\n<li><a class=\"spell\" href=\"https://www.d20pfsrd.com/magic/all-spells/f/fog-cloud\">Fog Cloud</a> (M): Increase the radius of the cloud by 5 feet.</li>\r\n<li><a class=\"spell\" href=\"https://www.d20pfsrd.com/magic/all-spells/o/obscuring-mist\">Obscuring Mist</a> (M): The spell creates a smoky haze instead of mist. This haze cannot be dispersed by fire spells and dissipates naturally after 1 minute.</li>\r\n<li><a class=\"spell\" href=\"https://www.d20pfsrd.com/magic/all-spells/p/pyrotechnics\">Pyrotechnics</a> (M): Increase the radius of the cloud by 5 feet and the duration by 2 rounds.</li>\r\n</ul>\r\n"
    },
    "tags": [],
    "weight": 0.5,
    "price": 20,
    "equipped": false,
    "changes": [],
    "contextNotes": [],
    "links": {
      "children": []
    },
    "flags": {
      "boolean": [],
      "dictionary": []
    },
    "scriptCalls": [],
    "subType": "gear"
  },
  "effects": [],
  "folder": null,
  "sort": 0,
  "permission": {
    "default": 0
  },
  "flags": {}
}
