{
  "_id": "mybgfzefwpawhvhy",
  "name": "Star Charts",
  "type": "loot",
  "img": "systems/pf1/icons/items/inventory/dice.jpg",
  "data": {
    "description": {
      "value": "<h4><span id=\"Star_Charts\"><a name=\"TOC-Star-Charts\"></a>Star Charts</span></h4>\r\n<p class=\"source\"><b>Source</b> <a title=\"PZO1121\" href=\"http://www.amazon.com/gp/product/1601253907/ref=as_li_qf_sp_asin_il_tl?ie=UTF8&amp;camp=1789&amp;creative=9325&amp;creativeASIN=1601253907&amp;linkCode=as2&amp;tag=httpwwwd20pfs-20\" target=\"_blank\" rel=\"noopener\">PZO1121</a></p>\r\n<p>Many <a href=\"https://www.d20pfsrd.com/races/core-races/half-elf\">half-elves</a> live in large cities or communities where they find it difficult to commune with nature. While some go on long sojourns to the wilderness, others spend their evenings on high, lonely rooftops, gazing at the stars. These lonely souls use star charts to track the movement of the stars and other celestial bodies. Anyone referencing one of these charts on a clear night can attempt a DC 20 <a href=\"https://www.d20pfsrd.com/skills/knowledge\">Knowledge</a> (geography) check to determine her approximate location and the month. In addition, these charts grant a +2 <a href=\"https://www.d20pfsrd.com/basics-ability-scores/glossary#TOC-Circumstance-Bonus\">circumstance bonus</a> on <a href=\"https://www.d20pfsrd.com/skills/survival\">Survival</a> checks made to avoid getting lost at night with a clear sky.</p>\r\n"
    },
    "tags": [],
    "equipped": false,
    "changes": [],
    "contextNotes": [],
    "links": {
      "children": []
    },
    "flags": {
      "boolean": [],
      "dictionary": []
    },
    "scriptCalls": [],
    "subType": "gear"
  },
  "effects": [],
  "folder": null,
  "sort": 0,
  "permission": {
    "default": 0
  },
  "flags": {}
}
