{
  "_id": "qwzjpiwflsycvcrb",
  "name": "Tea, Meditation",
  "type": "loot",
  "img": "systems/pf1/icons/items/inventory/dice.jpg",
  "data": {
    "description": {
      "value": "\r\n<p><b>Price</b> 30 gp; <b>Weight</b> -</p>\r\n<p>Drinking this cloudy tea has a soothing effect that clarifies your thoughts. For 10 minutes after drinking the tea, you gain a +2 <a href=\"https://www.d20pfsrd.com/basics-ability-scores/glossary#TOC-Bonus-Alchemical-\">alchemical bonus</a> against <a href=\"https://www.d20pfsrd.com/magic#TOC-Magic-Descriptor-Mind-Affecting\">mind-affecting</a> effects. If you drink meditation tea while suffering from a <a href=\"https://www.d20pfsrd.com/magic#TOC-Magic-Descriptor-Mind-Affecting\">mind-affecting</a> affect, you may immediately roll another saving throw (with the +2 bonus) against the effect; you may gain this particular benefit only once per day.</p>\r\n"
    },
    "tags": [],
    "price": 30,
    "equipped": false,
    "changes": [],
    "contextNotes": [],
    "links": {
      "children": []
    },
    "flags": {
      "boolean": [],
      "dictionary": []
    },
    "scriptCalls": [],
    "subType": "gear"
  },
  "effects": [],
  "folder": null,
  "sort": 0,
  "permission": {
    "default": 0
  },
  "flags": {}
}
