{
  "_id": "fcqogbwybinvqxht",
  "name": "Tobacco",
  "type": "loot",
  "img": "systems/pf1/icons/items/inventory/dice.jpg",
  "data": {
    "description": {
      "value": "\r\n<p class=\"source\"><b>Source</b> <a title=\"PZO9410\" href=\"http://www.amazon.com/gp/product/1601252226/ref=as_li_qf_sp_asin_il_tl?ie=UTF8&amp;camp=1789&amp;creative=9325&amp;creativeASIN=1601252226&amp;linkCode=as2&amp;tag=httpwwwd20pfs-20\" target=\"_blank\" rel=\"noopener\">PZO9410</a></p>\r\n<p>These crushed and shredded leaves range in color from peppery red to black; users can either smoke or chew them. Tobacco users experience a certain level of calm and are more easily able to shrug off hunger pangs. Tobacco is addictive (<a href=\"https://www.d20pfsrd.com/gamemastering/combat#TOC-Fortitude\">Fort</a> DC 10 to resist), and long-term users suffer <a href=\"https://www.d20pfsrd.com/basics-ability-scores/ability-scores#TOC-Ability-Score-Damage\">Constitution damage</a>.</p>\r\n"
    },
    "tags": [],
    "weight": 2,
    "price": 1,
    "equipped": false,
    "changes": [],
    "contextNotes": [],
    "links": {
      "children": []
    },
    "flags": {
      "boolean": [],
      "dictionary": []
    },
    "scriptCalls": [],
    "subType": "gear"
  },
  "effects": [],
  "folder": null,
  "sort": 0,
  "permission": {
    "default": 0
  },
  "flags": {}
}
