{
  "_id": "miwosghttpehpvjh",
  "name": "Torch, Everburning",
  "type": "loot",
  "img": "systems/pf1/icons/items/inventory/torch.jpg",
  "data": {
    "description": {
      "value": "\r\n<p><b>Price</b> 110 gp; <b>Weight</b> 1 lb.</p>\r\n<p>This otherwise normal torch has a continual flame spell cast on it. This causes it to shed light like an ordinary torch, but it does not emit heat or deal fire damage if used as a weapon.</p>\r\n"
    },
    "tags": [],
    "weight": 1,
    "price": 110,
    "equipped": false,
    "identifiedName": "Torch, Everburning",
    "changes": [],
    "contextNotes": [],
    "links": {
      "children": []
    },
    "flags": {
      "boolean": [],
      "dictionary": []
    },
    "scriptCalls": [],
    "subType": "gear"
  },
  "effects": [],
  "folder": null,
  "sort": 0,
  "permission": {
    "default": 0
  },
  "flags": {}
}
