{
  "_id": "atwndyfmgtsrjpqy",
  "name": "Troll Styptic",
  "type": "loot",
  "img": "systems/pf1/icons/items/inventory/dice.jpg",
  "data": {
    "description": {
      "value": "\r\n<p class=\"source\"><b>Source</b> <a href=\"http://www.amazon.com/gp/product/1601251785/ref=as_li_qf_sp_asin_il_tl?ie=UTF8&amp;camp=1789&amp;creative=9325&amp;creativeASIN=1601251785&amp;linkCode=as2&amp;tag=httpwwwd20pfs-20&amp;linkId=WA6YCOA7XQTPTTUB\" target=\"_blank\" rel=\"noopener\">PZO9211</a></p>\r\n<p>A witch's brew of <a href=\"https://www.d20pfsrd.com/bestiary/monster-listings/humanoids/giants/troll\">troll</a> blood, powdered <a href=\"https://www.d20pfsrd.com/bestiary/rules-for-monsters/creature-types#TOC-Plant\">plant</a> extracts, and alchemical binders, troll styptic is intended as a field treatment for wounds and bleeding, particularly where magical <a href=\"https://www.d20pfsrd.com/magic#TOC-Conjuration-Healing\">healing</a> is not available. This powder is stored in small packets, and when applied directly to wounds grants a living creature <a href=\"https://www.d20pfsrd.com/bestiary/rules-for-monsters/universal-monster-rules#TOC-Fast-Healing-Ex-\">fast healing</a> 2 for 2d4 rounds, as well as closing any open wounds the subject has or receives while the styptic is active, preventing ongoing damage from bleeding. This is a painful cure and requires the target to make a DC 15 <a href=\"https://www.d20pfsrd.com/gamemastering/combat#TOC-Fortitude\">Fortitude</a> save to avoid being <a href=\"https://www.d20pfsrd.com/gamemastering/conditions#TOC-Sickened\">sickened</a> for the duration of the <a href=\"https://www.d20pfsrd.com/bestiary/rules-for-monsters/universal-monster-rules#TOC-Fast-Healing-Ex-\">fast healing</a>.</p>\r\n<p><b>Create</b>: <a href=\"https://www.d20pfsrd.com/skills/craft\">Craft</a> (alchemy) DC 25</p>\r\n"
    },
    "tags": [],
    "price": 100,
    "equipped": false,
    "changes": [],
    "contextNotes": [],
    "links": {
      "children": []
    },
    "flags": {
      "boolean": [],
      "dictionary": []
    },
    "scriptCalls": [],
    "subType": "gear"
  },
  "effects": [],
  "folder": null,
  "sort": 0,
  "permission": {
    "default": 0
  },
  "flags": {}
}
