{
  "_id": "wpmpltchkryrlxlu",
  "name": "Vestments, Cleric's",
  "type": "loot",
  "img": "systems/pf1/icons/items/inventory/dice.jpg",
  "data": {
    "description": {
      "value": " \n<p class=\"source\"><b>Source</b> <a title=\"PZO1110\" href=\"http://www.amazon.com/gp/product/1601251505/ref=as_li_qf_sp_asin_il_tl?ie=UTF8&amp;camp=1789&amp;creative=9325&amp;creativeASIN=1601251505&amp;linkCode=as2&amp;tag=httpwwwd20pfs-20\" target=\"_blank\" rel=\"noopener\">PZO1110</a></p> \n<p>These clothes are for performing priestly functions, not for adventuring. Cleric's vestments typically include a cassock, stole, and surplice.</p> \n<h3 style=\"margin-top: 30px;border-bottom-style: solid;border-bottom-width: thin\"><a name=\"TOC-Jewelry-Perfumes-and-other-Decorative-Accessories\"></a>Jewelry, Perfumes and other Decorative Accessories</h3> \n"
    },
    "tags": [],
    "weight": 6,
    "price": 5,
    "equipped": false,
    "changes": [],
    "contextNotes": [],
    "links": {
      "children": []
    },
    "flags": {
      "boolean": [],
      "dictionary": []
    },
    "scriptCalls": [],
    "subType": "gear"
  },
  "effects": [],
  "folder": null,
  "sort": 0,
  "permission": {
    "default": 0
  },
  "flags": {}
}
