{
  "_id": "vdzdvyrkhcwcrdxr",
  "name": "Whiskey, Dragon Punch Whiskey",
  "type": "loot",
  "img": "systems/pf1/icons/items/inventory/dice.jpg",
  "data": {
    "description": {
      "value": "<h4><span id=\"Whiskey_Dragon_Punch_Whiskey\"><a name=\"TOC-Whiskey-Dragon-Punch-Whiskey\"></a>Whiskey, Dragon Punch Whiskey</span></h4>\r\n<p class=\"source\"><b>Source</b> <a title=\"PPC:Halflings\" href=\"http://www.amazon.com/gp/product/1601252781/ref=as_li_qf_sp_asin_il_tl?ie=UTF8&amp;camp=1789&amp;creative=9325&amp;creativeASIN=1601252781&amp;linkCode=as2&amp;tag=httpwwwd20pfs-20\" target=\"_blank\" rel=\"noopener\">PPC:Halflings</a></p>\r\n<p>According to legend, the inventor of this dark and harsh liquor actually did attack a dragon bare handed (and presumably lived to pass on the recipe). Halflings who drink four cups of Dragon Punch Whiskey in the space of an hour take a -4 penalty to <a href=\"https://www.d20pfsrd.com/basics-ability-scores/ability-scores#TOC-Dexterity-Dex-\">Dexterity</a> but gain a +4 <a href=\"https://www.d20pfsrd.com/basics-ability-scores/glossary#TOC-Bonus-Alchemical-\">alchemical bonus</a> on saves against fear for the next 10 minutes</p>\r\n<p>The listed prices are for a tavern or restaurant in an average city.</p>\r\n<p><b>Note</b>: Non-<a href=\"https://www.d20pfsrd.com/races/core-races/halfling\">halflings</a> do not receive any bonuses from this drink.</p>\r\n"
    },
    "tags": [],
    "equipped": false,
    "changes": [],
    "contextNotes": [],
    "links": {
      "children": []
    },
    "flags": {
      "boolean": [],
      "dictionary": []
    },
    "scriptCalls": [],
    "subType": "gear"
  },
  "effects": [],
  "folder": null,
  "sort": 0,
  "permission": {
    "default": 0
  },
  "flags": {}
}
