{
  "_id": "gzbzrwxjddrwjihu",
  "name": "Winterbite",
  "type": "loot",
  "img": "systems/pf1/icons/items/inventory/dice.jpg",
  "data": {
    "description": {
      "value": "\r\n<p class=\"source\"><b>Source</b> <a href=\"http://amzn.to/2z71S07\" target=\"_blank\" rel=\"noopener\">PZO1140</a></p>\r\n<p><b>Price</b> 20 gp</p>\r\n<p>The white-veined leaves of this minty sprig carry a pleasant and soothing <a href=\"https://www.d20pfsrd.com/gamemastering/special-abilities#TOC-Scent\">scent</a>.</p>\r\n<p><b>Gather</b> DC 11; <b>Yield</b> 1d4 doses</p>\r\n<p><b>Terrain</b> any cold</p>\r\n<p><b>Preparation</b> A dose of winterbite must be dried near an open flame in which certain alchemically treated sawdust and wood chips are burned.</p>\r\n<p>This requires a successful DC 12 <a href=\"https://www.d20pfsrd.com/skills/craft\">Craft</a> (alchemy) check and 1 hour.</p>\r\n<p><b>Use</b> When held under the nose and crushed (which takes a <a href=\"https://www.d20pfsrd.com/gamemastering/combat#TOC-Standard-Actions\">standard action</a>), a dose of prepared winterbite releases a pungent, sweet odor that clears the sinuses and sharpens the senses. For the next hour, the user of a dose of prepared winterbite gains a +2 <a href=\"https://www.d20pfsrd.com/basics-ability-scores/glossary#TOC-Bonus-Alchemical-\">alchemical bonus</a> on <a href=\"https://www.d20pfsrd.com/gamemastering/special-abilities#TOC-Scent\">scent</a>-based <a href=\"https://www.d20pfsrd.com/skills/perception\">Perception</a> checks.</p>\r\n"
    },
    "tags": [],
    "price": 1,
    "equipped": false,
    "changes": [],
    "contextNotes": [],
    "links": {
      "children": []
    },
    "flags": {
      "boolean": [],
      "dictionary": []
    },
    "scriptCalls": [],
    "subType": "gear"
  },
  "effects": [],
  "folder": null,
  "sort": 0,
  "permission": {
    "default": 0
  },
  "flags": {}
}
