{
  "_id": "LhghRhNNLRoWN9fQ",
  "name": "Air Cushion",
  "type": "feat",
  "img": "systems/pf1/icons/spells/wind-sky-3.jpg",
  "data": {
    "description": {
      "value": "<p><strong>Element&nbsp;</strong>air;&nbsp;<strong>Type&nbsp;</strong>utility (Sp);&nbsp;<strong>Level&nbsp;</strong>1;&nbsp;<strong>Burn&nbsp;</strong>0</p>\n<p>You cushion a fall from any height. You are constantly under the effects of&nbsp;feather fall, and you count as one size category larger for the purpose of determining how you are affected by wind.</p>"
    },
    "tags": [],
    "actions": [],
    "attackNotes": [],
    "effectNotes": [],
    "changes": [],
    "contextNotes": [],
    "links": {
      "children": [],
      "charges": []
    },
    "tag": "classFeat_airCushion",
    "useCustomTag": true,
    "armorProf": {
      "value": []
    },
    "weaponProf": {
      "value": []
    },
    "languages": {
      "value": []
    },
    "scriptCalls": [],
    "featType": "classFeat",
    "associations": {
      "classes": [["Kineticist"]]
    },
    "abilityType": "sp"
  },
  "effects": [],
  "folder": null,
  "sort": 0,
  "permission": {
    "default": 0
  },
  "flags": {}
}
