{
  "_id": "9lMpmvKhps8DBPG5",
  "name": "Alchemy Subdomain",
  "type": "feat",
  "img": "systems/pf1/icons/items/inventory/gem-yellow.jpg",
  "data": {
    "description": {
      "value": "<p><strong>Replacement Domain Spells:</strong></p>\n<ul>\n<li>2nd— @Compendium[pf1.spells.ll1ut0nx5em2uegh]{Touch Injection}</li>\n<li>4th— @Compendium[pf1.spells.sxtpslsxy4yn66tg]{Amplify Elixir}</li>\n<li>6th—@Compendium[pf1.spells.loah8i0n6li2o377]{Delayed Consumption}</li>\n</ul>"
    },
    "tags": [],
    "actions": [],
    "attackNotes": [],
    "effectNotes": [],
    "changes": [],
    "contextNotes": [],
    "links": {
      "children": [],
      "charges": []
    },
    "tag": "classFeat_alchemySubdomain",
    "useCustomTag": true,
    "armorProf": {
      "value": []
    },
    "weaponProf": {
      "value": []
    },
    "languages": {
      "value": []
    },
    "scriptCalls": [],
    "featType": "classFeat",
    "associations": {
      "classes": [["Cleric"]]
    }
  },
  "effects": [],
  "folder": null,
  "sort": 0,
  "permission": {
    "default": 0
  },
  "flags": {}
}
