{
  "_id": "ia0D4h2Ywerw5Ohh",
  "name": "Ancestor Mystery",
  "type": "feat",
  "img": "systems/pf1/icons/spells/light-magenta-2.jpg",
  "data": {
    "description": {
      "value": "<p><strong>Class Skills:</strong> An oracle with the ancestor mystery adds Linguistics, and all Knowledge skills to her list of class skills.<br><br><strong>Bonus Spells:</strong>&nbsp;</p>\n<ul>\n<li>@Compendium[pf1.spells.jhyb2ana8jrk2lut]{Unseen Servant} (2nd),&nbsp;</li>\n<li>@Compendium[pf1.spells.avofn5q2v0f0qxjy]{Spiritual Weapon} (4th),&nbsp;</li>\n<li>@Compendium[pf1.spells.vqfrp8t0c1lw1jna]{Heroism} (6th),&nbsp;</li>\n<li>@Compendium[pf1.spells.0lrux8tmaml5fkw6]{Spiritual Ally} (8th),&nbsp;</li>\n<li>@Compendium[pf1.spells.3lfx1ccxo2hdqrf3]{Telekinesis} (10th),&nbsp;</li>\n<li>@Compendium[pf1.spells.z0duc2v2n3ioynta]{Heroism, Greater} (12th),&nbsp;</li>\n<li>@Compendium[pf1.spells.btccs4sjo2nog1a0]{Ethereal Jaunt} (14th),&nbsp;</li>\n<li>@Compendium[pf1.spells.aqeaxoaozlv9vg35]{Vision} (16th),&nbsp;</li>\n<li>@Compendium[pf1.spells.lnahlmp5mih2ongh]{Astral Projection} (18th).</li>\n</ul>"
    },
    "tags": [],
    "actions": [],
    "attackNotes": [],
    "effectNotes": [],
    "changes": [],
    "contextNotes": [],
    "links": {
      "children": [],
      "charges": []
    },
    "tag": "classFeat_ancestorMystery",
    "useCustomTag": true,
    "armorProf": {
      "value": []
    },
    "weaponProf": {
      "value": []
    },
    "languages": {
      "value": []
    },
    "scriptCalls": [],
    "featType": "classFeat",
    "associations": {
      "classes": [["Oracle"]]
    }
  },
  "effects": [],
  "folder": null,
  "sort": 0,
  "permission": {
    "default": 0
  },
  "flags": {}
}
