{
  "_id": "ebk5Oh7Rs9rOpTI3",
  "name": "Angelic Attacks",
  "type": "feat",
  "img": "systems/pf1/icons/skills/red_05.jpg",
  "data": {
    "description": {
      "value": "<p>At 1st level, your melee attacks are considered good-aligned weapons for the purpose of bypassing damage reduction. Furthermore, when you deal damage with a melee attack to an evil outsider, you deal an additional 1d6 points of damage. This additional damage stacks with effects such as @Compendium[pf1.spells.zujht80bgjdk9cyb]{Align Weapon}&nbsp;and those granted by a weapon with the&nbsp;<a href=\"https://www.aonprd.com/MagicWeaponsDisplay.aspx?ItemName=Holy\">holy</a>&nbsp;weapon special ability.</p>"
    },
    "tags": [],
    "actions": [],
    "attackNotes": [],
    "effectNotes": [],
    "changes": [],
    "contextNotes": [],
    "links": {
      "children": [],
      "charges": []
    },
    "tag": "classFeat_angelicAttacks",
    "useCustomTag": true,
    "armorProf": {
      "value": []
    },
    "weaponProf": {
      "value": []
    },
    "languages": {
      "value": []
    },
    "scriptCalls": [],
    "featType": "classFeat",
    "associations": {
      "classes": [["Bloodrager"]]
    },
    "abilityType": "su"
  },
  "effects": [],
  "folder": null,
  "sort": 0,
  "permission": {
    "default": 0
  },
  "flags": {}
}
