{
  "_id": "6z4HpnEvEPsNKnSp",
  "name": "Arcane Dealer",
  "type": "feat",
  "img": "systems/pf1/icons/spells/enchant-red-3.jpg",
  "data": {
    "description": {
      "value": "<p>The magus gains the Deadly Dealer feat, even if he does not meet the prerequisites. He can use his arcane pool to grant a deck of cards an enhancement bonus as though it were a ranged weapon with 54 pieces of ammunition. The magus must use either Arcane Strike or his arcane pool to enhance the cards in order to use them as weapons.</p>\n<p>The magus must be at least 6th level before selecting this arcana.</p>"
    },
    "tags": [],
    "actions": [],
    "attackNotes": [],
    "effectNotes": [],
    "changes": [],
    "contextNotes": [],
    "links": {
      "children": [],
      "charges": []
    },
    "tag": "classFeat_arcaneDealer",
    "useCustomTag": true,
    "armorProf": {
      "value": []
    },
    "weaponProf": {
      "value": []
    },
    "languages": {
      "value": []
    },
    "scriptCalls": [],
    "featType": "classFeat",
    "associations": {
      "classes": [["Magus"]]
    },
    "abilityType": "su"
  },
  "effects": [],
  "folder": null,
  "sort": 0,
  "permission": {
    "default": 0
  },
  "flags": {}
}
