{
  "_id": "iFq0EX4yovswIox9",
  "name": "Aura of Righteousness",
  "type": "feat",
  "img": "systems/pf1/icons/feats/spellbreaker.jpg",
  "data": {
    "description": {
      "value": "<p>At 17th level, a paladin gains&nbsp;<a href=\"https://www.d20pfsrd.com/gamemastering/special-abilities#TOC-Damage-Reduction\">DR</a>&nbsp;5/evil and immunity to compulsion spells and spell-like abilities. Each ally within 10 feet of her gains a +4 morale bonus on&nbsp;<a href=\"https://www.d20pfsrd.com/gamemastering/combat#TOC-Saving-Throws\">saving throws</a>&nbsp;against compulsion effects.</p>\n<p>This ability functions only while the paladin is conscious, not if she is&nbsp;<a href=\"https://www.d20pfsrd.com/gamemastering/conditions#TOC-Unconscious\">unconscious</a>&nbsp;or dead.</p>"
    },
    "tags": [],
    "actions": [],
    "attackNotes": [],
    "effectNotes": [],
    "changes": [],
    "contextNotes": [],
    "links": {
      "children": [],
      "charges": []
    },
    "tag": "classFeat_auraOfRighteousness",
    "useCustomTag": true,
    "armorProf": {
      "value": []
    },
    "weaponProf": {
      "value": []
    },
    "languages": {
      "value": []
    },
    "scriptCalls": [],
    "featType": "classFeat",
    "associations": {
      "classes": [["Paladin"]]
    },
    "abilityType": "su"
  },
  "effects": [],
  "folder": null,
  "sort": 0,
  "permission": {
    "default": 0
  },
  "flags": {}
}
