{
  "_id": "y5VEa0kjV1UKYnZW",
  "name": "Binding Circles",
  "type": "feat",
  "img": "systems/pf1/icons/spells/runes-orange-3.jpg",
  "data": {
    "description": {
      "value": "<p>At 12th level, whenever the occultist creates a magic circle he can expend 1 additional point of mental focus to make it a binding circle. A binding circle is invisible and counts as a trap. If a living creature of the corresponding alignment steps inside it, the trap triggers and binds the creature inside the circle. While it can move freely within the circle, it can’t leave the circle, make attacks against targets outside the circle, cast spells that cross the circle’s boundary (the circle blocks line of effect from the inside), or use any ability that would allow it to leave the circle or disturb the circle in any way. When the circle traps a creature in this way, the creature can attempt a Reflex save to dive out of the circle before the magic takes hold (DC = 10 + 1/2 the occultist’s level + the occultist’s Intelligence modifier).</p>\n<p>A creature that can see the circle gains a +4 bonus on this save. If it fails its save, the creature must remain in the circle, although it can attempt a Will save at the same DC at the end of each hour of imprisonment to escape. A binding circle can be spotted with a successful Perception check (DC = 25 + 1/2 the occultist’s level). It can also be disarmed using Disable Device, with the same DC. Anything crossing the boundary of the circle from the outside, such as a weapon, spell effect, or special ability, immediately breaks the circle and frees the creature trapped inside.</p>"
    },
    "tags": [],
    "actions": [
      {
        "_id": "8xwz3fmmuc9uhgc2",
        "name": "Use",
        "img": "systems/pf1/icons/spells/runes-orange-3.jpg",
        "description": "",
        "activation": {
          "cost": 1,
          "type": "special"
        },
        "unchainedAction": {
          "activation": {
            "cost": 1,
            "type": "special"
          }
        },
        "duration": {
          "value": null,
          "units": ""
        },
        "target": {
          "value": ""
        },
        "range": {
          "value": null,
          "units": "",
          "maxIncrements": 1,
          "minValue": null,
          "minUnits": ""
        },
        "uses": {
          "autoDeductCharges": true,
          "autoDeductChargesCost": "1",
          "per": "",
          "value": 0,
          "maxFormula": ""
        },
        "measureTemplate": {
          "type": "",
          "size": "",
          "overrideColor": false,
          "customColor": "",
          "overrideTexture": false,
          "customTexture": ""
        },
        "attackName": "",
        "actionType": "",
        "attackBonus": "",
        "critConfirmBonus": "",
        "damage": {
          "parts": [],
          "critParts": [],
          "nonCritParts": []
        },
        "attackParts": [],
        "formulaicAttacks": {
          "count": {
            "formula": ""
          },
          "bonus": {
            "formula": ""
          },
          "label": null
        },
        "formula": "",
        "ability": {
          "attack": null,
          "damage": null,
          "damageMult": 1,
          "critRange": 20,
          "critMult": 2
        },
        "save": {
          "dc": 0,
          "type": "",
          "description": ""
        },
        "effectNotes": [],
        "attackNotes": [],
        "soundEffect": "",
        "powerAttack": {
          "multiplier": "",
          "damageBonus": 2,
          "critMultiplier": 1
        },
        "naturalAttack": {
          "secondary": {
            "attackBonus": "-5",
            "damageMult": 0.5
          }
        },
        "nonlethal": false,
        "usesAmmo": false,
        "spellEffect": "",
        "spellArea": "",
        "conditionals": [],
        "enh": {
          "override": false,
          "value": 0
        }
      }
    ],
    "uses": {
      "per": ""
    },
    "attackNotes": [],
    "effectNotes": [],
    "changes": [],
    "contextNotes": [],
    "links": {
      "children": [],
      "charges": []
    },
    "tag": "classFeat_bindingCircles",
    "useCustomTag": true,
    "armorProf": {
      "value": []
    },
    "weaponProf": {
      "value": []
    },
    "languages": {
      "value": []
    },
    "scriptCalls": [],
    "featType": "classFeat",
    "associations": {
      "classes": [["Occultist"]]
    },
    "abilityType": "su"
  },
  "effects": [],
  "folder": null,
  "sort": 0,
  "permission": {
    "default": 0
  },
  "flags": {}
}
