{
  "_id": "GLMLe6QVZwsqQvwY",
  "name": "Bones Final Revelation",
  "type": "feat",
  "img": "systems/pf1/icons/spells/light-royal-1.jpg",
  "data": {
    "description": {
      "value": "<p>Upon reaching 20th level, you become a master of death. Once per round, you can cast&nbsp;bleed&nbsp;or&nbsp;stabilize&nbsp;as a free action. If you are brought to below 0 hit points, you automatically stabilize. You can cast&nbsp;animate dead&nbsp;at will without paying a material component cost (although you are still subject to the usual Hit Die control limit). Once per day, you can cast @Compendium[pf1.spells.51ob5y7phwlhcuzz]{Power Word Kill}, but the spell can target a creature with 150 hit points or less.</p>"
    },
    "tags": [],
    "actions": [],
    "attackNotes": [],
    "effectNotes": [],
    "changes": [],
    "contextNotes": [],
    "links": {
      "children": [],
      "charges": []
    },
    "tag": "classFeat_bonesFinalRevelation",
    "useCustomTag": true,
    "armorProf": {
      "value": []
    },
    "weaponProf": {
      "value": []
    },
    "languages": {
      "value": []
    },
    "scriptCalls": [],
    "featType": "classFeat",
    "associations": {
      "classes": [["Oracle"]]
    }
  },
  "effects": [],
  "folder": null,
  "sort": 0,
  "permission": {
    "default": 0
  },
  "flags": {}
}
