{
  "_id": "UwcsrKHgN6mEo8Bd",
  "name": "Brawler's Flurry",
  "type": "feat",
  "img": "systems/pf1/icons/skills/fire_07.jpg",
  "data": {
    "description": {
      "value": "<p>Starting at 2nd level, a brawler can make a brawler’s flurry as a full-attack action. When doing so, a brawler has the @Compendium[pf1.feats.Ee7JHADKEK37tTHs]{Two-Weapon Fighting}&nbsp;feat when attacking with any combination of unarmed strikes, weapons from the close fighter weapon group, or weapons with the “monk” special feature. She does not need to use two different weapons to use this ability.<br><br>A brawler applies her full Strength modifier to her damage rolls for all attacks made with brawler’s flurry, whether the attacks are made with an off-hand weapon or a weapon wielded in both hands. A brawler can substitute disarm, sunder, and trip combat maneuvers for unarmed attacks as part of brawler’s flurry. A brawler with natural weapons can’t use such weapons as part of brawler’s flurry, nor can she make natural weapon attacks in addition to her brawler’s flurry attacks.<br><br>At 8th level, the brawler gains use of the @Compendium[pf1.feats.3fNdl7eIUJ5d5fwg]{Improved Two-Weapon Fighting}&nbsp;feat when using brawler’s flurry.</p>\n<p>At 15th level, she gains use of the @Compendium[pf1.feats.ieltigobtFrlTXIt]{Greater Two-Weapon Fighting}&nbsp;feat when using brawler’s flurry.</p>"
    },
    "tags": [],
    "actions": [],
    "attackNotes": [],
    "effectNotes": [],
    "changes": [],
    "contextNotes": [],
    "links": {
      "children": [],
      "charges": []
    },
    "tag": "classFeat_brawlersFlurry",
    "useCustomTag": true,
    "armorProf": {
      "value": []
    },
    "weaponProf": {
      "value": []
    },
    "languages": {
      "value": []
    },
    "scriptCalls": [],
    "featType": "classFeat",
    "associations": {
      "classes": [["Brawler"]]
    },
    "abilityType": "ex"
  },
  "effects": [],
  "folder": null,
  "sort": 0,
  "permission": {
    "default": 0
  },
  "flags": {}
}
