{
  "_id": "4go9jRETtrvWOSxJ",
  "name": "Celestial Bloodrager Bloodline",
  "type": "feat",
  "img": "systems/pf1/icons/skills/red_13.jpg",
  "data": {
    "description": {
      "value": "<p>By way of a celestial ancestor or divine intervention, the blood of angels fills your body with a holy potency, granting you a majestic visage and angelic powers when you enter your bloodrage.<br><br><strong>Bonus Feats:</strong></p>\n<ul>\n<li>@Compendium[pf1.feats.JreaiTHdyWFNj3Tb]{Dodge}</li>\n<li>@Compendium[pf1.feats.Uuiu3p982omhMEPj]{Improved Initiative}</li>\n<li>@Compendium[pf1.feats.iAbIGhm7T2OK9Brt]{Iron Will}</li>\n<li>@Compendium[pf1.feats.R7L4SlGRlnThqFrP]{Mobility}</li>\n<li>@Compendium[pf1.feats.0spsP9ylE3goD3jc]{Mounted Combat}</li>\n<li>@Compendium[pf1.feats.liPAO5urMI9chctT]{Ride-By Attack}</li>\n<li>@Compendium[pf1.feats.n250dFlbykAIAg5Z]{Weapon Focus}</li>\n</ul>\n<p><strong>Bonus Spells:&nbsp;</strong></p>\n<ul>\n<li>@Compendium[pf1.spells.wa0zb2pncesmm9lz]{Bless}&nbsp;(7th),</li>\n<li>@Compendium[pf1.spells.tkjnm3lw7ni82tag]{Resist Energy}&nbsp;(10th),&nbsp;</li>\n<li>@Compendium[pf1.spells.vqfrp8t0c1lw1jna]{Heroism}&nbsp;(13th),&nbsp;</li>\n<li>@Compendium[pf1.spells.erndkoe44rgj0lob]{Holy Smite}&nbsp;(16th)</li>\n</ul>"
    },
    "tags": [],
    "actions": [],
    "attackNotes": [],
    "effectNotes": [],
    "changes": [],
    "contextNotes": [],
    "links": {
      "children": [],
      "charges": []
    },
    "tag": "classFeat_celestialBloodragerBloodline",
    "useCustomTag": true,
    "armorProf": {
      "value": []
    },
    "weaponProf": {
      "value": []
    },
    "languages": {
      "value": []
    },
    "scriptCalls": [],
    "featType": "classFeat",
    "associations": {
      "classes": [["Bloodrager"]]
    }
  },
  "effects": [],
  "folder": null,
  "sort": 0,
  "permission": {
    "default": 0
  },
  "flags": {}
}
