{
  "_id": "P79a6VCXRY8MEd42",
  "name": "Chosen Victim",
  "type": "feat",
  "img": "systems/pf1/icons/items/inventory/badge-cross.jpg",
  "data": {
    "description": {
      "value": "<p>Once per day, you can designate a creature as your chosen victim. You gain a +2 bonus on Diplomacy checks to gather information about your target, on Bluff and Intimidate checks against your target, and on Survival checks to track your target. The benefits of your destruction, piercing, purity, and smiting judgments against your chosen victim increase as if your inquisitor level were 3 higher.</p>"
    },
    "tags": [],
    "actions": [],
    "attackNotes": [],
    "effectNotes": [],
    "changes": [],
    "contextNotes": [],
    "links": {
      "children": [],
      "charges": []
    },
    "tag": "classFeat_chosenVictim",
    "useCustomTag": true,
    "armorProf": {
      "value": []
    },
    "weaponProf": {
      "value": []
    },
    "languages": {
      "value": []
    },
    "scriptCalls": [],
    "featType": "classFeat",
    "associations": {
      "classes": [["Inquisitor"]]
    },
    "abilityType": "sp"
  },
  "effects": [],
  "folder": null,
  "sort": 0,
  "permission": {
    "default": 0
  },
  "flags": {}
}
