{
  "_id": "8NiRshjuex4BcHjO",
  "name": "Cloud Infusion",
  "type": "feat",
  "img": "systems/pf1/icons/spells/wind-sky-3.jpg",
  "data": {
    "description": {
      "value": "<p><strong>Element</strong>&nbsp;air, water;&nbsp;<strong>Type</strong>&nbsp;form infusion;&nbsp;<strong>Level</strong>&nbsp;7;&nbsp;<strong>Burn</strong>&nbsp;4<br><strong>Prerequisite</strong>&nbsp;extended range<br><strong>Associated Blasts</strong>&nbsp;blizzard, sandstorm, steam, thunderstorm<br><strong>Saving Throw</strong>&nbsp;none</p>\n<p>You release your power in a diffuse cloud. You can center this 20-foot-radius spread anywhere within 120 feet of you. All creatures and objects within the cloud when you create it automatically take 1/4 the normal amount of damage from your blast with no saving throw. Any time a creature enters the cloud, it takes half the normal amount of damage from your blast, as do creatures that end their turns in the cloud. Your cloud obscures vision as obscuring mist. It lasts for a number of rounds equal to your Constitution modifier or until you use the cloud infusion again.</p>"
    },
    "tags": [],
    "actions": [],
    "attackNotes": [],
    "effectNotes": [],
    "changes": [],
    "contextNotes": [],
    "links": {
      "children": [],
      "charges": []
    },
    "tag": "classFeat_cloudInfusion",
    "useCustomTag": true,
    "armorProf": {
      "value": []
    },
    "weaponProf": {
      "value": []
    },
    "languages": {
      "value": []
    },
    "scriptCalls": [],
    "featType": "classFeat",
    "associations": {
      "classes": [["Kineticist"]]
    }
  },
  "effects": [],
  "folder": null,
  "sort": 0,
  "permission": {
    "default": 0
  },
  "flags": {}
}
