{
  "_id": "SZnDZ4hBn60qIi3j",
  "name": "Community Blessing: Fight as One",
  "type": "feat",
  "img": "systems/pf1/icons/spells/link-blue-2.jpg",
  "data": {
    "description": {
      "value": "<p>At 10th level, you can rally your allies to fight together. For 1 minute, whenever you make a successful melee or ranged attack against a foe, allies within 10 feet of you gain a +2 insight bonus on attacks of the same type you made against that foe—melee attacks if you made a melee attack, or ranged attacks if you made a ranged attack. If you score a critical hit, this bonus increases to +4 until the start of your next turn.</p>"
    },
    "tags": [],
    "actions": [],
    "attackNotes": [],
    "effectNotes": [],
    "changes": [],
    "contextNotes": [],
    "links": {
      "children": [],
      "charges": []
    },
    "tag": "classFeat_communityBlessingFightAsOne",
    "useCustomTag": true,
    "armorProf": {
      "value": []
    },
    "weaponProf": {
      "value": []
    },
    "languages": {
      "value": []
    },
    "scriptCalls": [],
    "featType": "classFeat",
    "associations": {
      "classes": [["Warpriest"]]
    }
  },
  "effects": [],
  "folder": null,
  "sort": 0,
  "permission": {
    "default": 0
  },
  "flags": {}
}
