{
  "_id": "UwsvNVAJJGYtuRiN",
  "name": "Community Domain",
  "type": "feat",
  "img": "systems/pf1/icons/races/hobgoblin.png",
  "data": {
    "description": {
      "value": "<p><strong>Granted Powers:</strong> Your touch can heal wounds, and your presence instills unity and strengthens emotional bonds.</p>\n<p><strong>Domain Spells:</strong></p>\n<ul>\n<li>1st—@Compendium[pf1.spells.wa0zb2pncesmm9lz]{Bless}</li>\n<li>2nd—@Compendium[pf1.spells.menqakfoa1ftvi3f]{Shield Other}</li>\n<li>3rd—@Compendium[pf1.spells.hu8179fdqfkl0bqj]{Prayer}</li>\n<li>4th—@Compendium[pf1.spells.0axqb92kzlesc24q]{Imbue with Spell Ability}</li>\n<li>5th—@Compendium[pf1.spells.zuqlok69lapqc6lg]{Telepathic Bond}</li>\n<li>6th—@Compendium[pf1.spells.op40qjf9oohlx5nu]{Heroes' Feast}</li>\n<li>7th—@Compendium[pf1.spells.080el1lfozrhf6c2]{Refuge}</li>\n<li>8th—@Compendium[pf1.spells.6346rs0f4sra9gt4]{Cure Critical Wounds, Mass}</li>\n<li>9th—@Compendium[pf1.spells.suel7sgnztenv551]{Miracle}</li>\n</ul>"
    },
    "tags": [],
    "actions": [],
    "attackNotes": [],
    "effectNotes": [],
    "changes": [],
    "contextNotes": [],
    "links": {
      "children": [],
      "charges": []
    },
    "tag": "classFeat_communityDomain",
    "useCustomTag": true,
    "armorProf": {
      "value": []
    },
    "weaponProf": {
      "value": []
    },
    "languages": {
      "value": []
    },
    "scriptCalls": [],
    "featType": "classFeat",
    "associations": {
      "classes": [["Cleric"]]
    }
  },
  "effects": [],
  "folder": null,
  "sort": 0,
  "permission": {
    "default": 0
  },
  "flags": {}
}
