{
  "_id": "wxPsA25DTWBHcX9O",
  "name": "Connection Channel",
  "type": "feat",
  "img": "systems/pf1/icons/skills/ice_17.jpg",
  "data": {
    "description": {
      "value": "<p>At 7th level, a medium can use his location channel ability at any location, so long as he possesses some connection to the deceased. If another participant in the seance is more familiar with the deceased than the medium, the medium can substitute that participant’s familiarity in place of his own to determine the DC of the&nbsp;call spirit&nbsp;effect.</p>"
    },
    "tags": [],
    "actions": [],
    "attackNotes": [],
    "effectNotes": [],
    "changes": [],
    "contextNotes": [],
    "links": {
      "children": [],
      "charges": []
    },
    "tag": "classFeat_connectionChannel",
    "useCustomTag": true,
    "armorProf": {
      "value": []
    },
    "weaponProf": {
      "value": []
    },
    "languages": {
      "value": []
    },
    "scriptCalls": [],
    "featType": "classFeat",
    "associations": {
      "classes": [["Medium"]]
    },
    "abilityType": "sp"
  },
  "effects": [],
  "folder": null,
  "sort": 0,
  "permission": {
    "default": 0
  },
  "flags": {}
}
