{
  "_id": "Uapd7L6qbrrOMRrJ",
  "name": "Daemon Totem, Greater",
  "type": "feat",
  "img": "systems/pf1/icons/feats/deafening-critical.jpg",
  "data": {
    "description": {
      "value": "<p>If the barbarian kills an intelligent creature with a CR equal to at least half her character level while raging, she heals 5 hit points. If she is already at her maximum number of hit points, she instead gains 5 temporary hit points, which don’t stack if she kills multiple creatures.</p>\n<p>A barbarian must be at least 10th level and have the lesser daemon totem and daemon totem rage powers to select this rage power.</p>"
    },
    "tags": [],
    "actions": [],
    "attackNotes": [],
    "effectNotes": [],
    "changes": [],
    "contextNotes": [],
    "links": {
      "children": [],
      "charges": []
    },
    "tag": "classFeat_daemonTotemGreater",
    "useCustomTag": true,
    "armorProf": {
      "value": []
    },
    "weaponProf": {
      "value": []
    },
    "languages": {
      "value": []
    },
    "scriptCalls": [],
    "featType": "classFeat",
    "associations": {
      "classes": [["Barbarian"], ["Skald"]]
    },
    "abilityType": "su"
  },
  "effects": [],
  "folder": null,
  "sort": 0,
  "permission": {
    "default": 0
  },
  "flags": {}
}
