{
  "_id": "AknYsE7Iirq0LXtj",
  "name": "Damage Reduction (BLO)",
  "type": "feat",
  "img": "systems/pf1/icons/skills/blue_18.jpg",
  "data": {
    "description": {
      "value": "<p>At 7th level, a bloodrager gains damage reduction. Subtract 1 from the damage the bloodrager takes each time he is dealt damage from a weapon or a natural attack.</p>\n<p>At 10th level, and every 3 levels thereafter, this damage reduction increases by 1 point. Damage reduction can reduce damage to 0, but not below 0.</p>"
    },
    "tags": [],
    "actions": [],
    "attackNotes": [],
    "effectNotes": [],
    "changes": [],
    "contextNotes": [],
    "links": {
      "children": [],
      "charges": []
    },
    "tag": "classFeat_damageReductionBlo",
    "useCustomTag": true,
    "armorProf": {
      "value": []
    },
    "weaponProf": {
      "value": []
    },
    "languages": {
      "value": []
    },
    "scriptCalls": [],
    "featType": "classFeat",
    "associations": {
      "classes": [["Bloodrager"]]
    },
    "abilityType": "ex"
  },
  "effects": [],
  "folder": null,
  "sort": 0,
  "permission": {
    "default": 0
  },
  "flags": {}
}
