{
  "_id": "SO7dxu6tQvQOvO9Q",
  "name": "Darkness Infusion, Greater",
  "type": "feat",
  "img": "systems/pf1/icons/spells/rip-sky-1.jpg",
  "data": {
    "description": {
      "value": "<p><strong>Element&nbsp;</strong>void;&nbsp;<strong>Type&nbsp;</strong>substance infusion;&nbsp;<strong>Level&nbsp;</strong>6;&nbsp;<strong>Burn&nbsp;</strong>4<br><strong>Prerequisite&nbsp;</strong>darkness infusion<br><strong>Associated Blasts&nbsp;</strong>gravity, negative, void<br><strong>Saving Throw&nbsp;</strong>none</p>\n<p>Your blast creates supernatural darkness, as per the darkness infusion, except it acts as&nbsp;deeper darkness&nbsp;and counts as a 6th-level darkness spell.</p>"
    },
    "tags": [],
    "actions": [],
    "attackNotes": [],
    "effectNotes": [],
    "changes": [],
    "contextNotes": [],
    "links": {
      "children": [],
      "charges": []
    },
    "tag": "classFeat_darknessInfusionGreater",
    "useCustomTag": true,
    "armorProf": {
      "value": []
    },
    "weaponProf": {
      "value": []
    },
    "languages": {
      "value": []
    },
    "scriptCalls": [],
    "featType": "classFeat",
    "associations": {
      "classes": [["Kineticist"]]
    }
  },
  "effects": [],
  "folder": null,
  "sort": 0,
  "permission": {
    "default": 0
  },
  "flags": {}
}
