{
  "_id": "4UlxxUhrMwDjR76W",
  "name": "Dark Tapestry Final Revelation",
  "type": "feat",
  "img": "systems/pf1/icons/spells/light-royal-1.jpg",
  "data": {
    "description": {
      "value": "<p>Upon reaching 20th level, you become a truly alien and unnatural creature. You gain damage reduction 5/— and immunity to acid, critical hits, and sneak attacks. Once per day, you can cast @Compendium[pf1.spells.n3lp01euzcdmtbw5]{Shapechange}&nbsp;as a spell-like ability without requiring a material component.</p>"
    },
    "tags": [],
    "actions": [],
    "attackNotes": [],
    "effectNotes": [],
    "changes": [],
    "contextNotes": [],
    "links": {
      "children": [],
      "charges": []
    },
    "tag": "classFeat_darkTapestryFinalRevelation",
    "useCustomTag": true,
    "armorProf": {
      "value": []
    },
    "weaponProf": {
      "value": []
    },
    "languages": {
      "value": []
    },
    "scriptCalls": [],
    "featType": "classFeat",
    "associations": {
      "classes": [["Oracle"]]
    }
  },
  "effects": [],
  "folder": null,
  "sort": 0,
  "permission": {
    "default": 0
  },
  "flags": {}
}
