{
  "_id": "ec5SOl8XJI5hO7RI",
  "name": "Dawning Realization",
  "type": "feat",
  "img": "systems/pf1/icons/skills/affliction_24.jpg",
  "data": {
    "description": {
      "value": "<p>At 8th level, you can impart a shared vision of unfathomable ineffability to a living creature you touch as a standard action, after which your turn immediately ends. You are dazed and the target confused for 1 round by what you both learn. On the following round, you are both staggered for 1 round by the ramifications of your discovery. On the third round, you are confused and the target dazed for 1 round as you attempt to regain your bearings. Each round, the target can attempt a Will save with a DC equal to 10 + 1/2 your cleric level + your Wisdom modifier to negate that round’s effects for both of you, though the effect does not end until the end of the third round. This is a mindaffecting effect that you can use a number of times per day equal to 1/2 your class level.</p>\n<p>This power replaces the Aura of Madness power of the Madness Domain.</p>"
    },
    "tags": [],
    "actions": [
      {
        "_id": "4tsul3h4vfrq36l6",
        "name": "Use",
        "img": "systems/pf1/icons/skills/affliction_24.jpg",
        "description": "",
        "activation": {
          "cost": 1,
          "type": "standard"
        },
        "unchainedAction": {
          "activation": {
            "cost": 2,
            "type": "action"
          }
        },
        "duration": {
          "value": "3",
          "units": "round"
        },
        "target": {
          "value": "creature touched"
        },
        "range": {
          "value": null,
          "units": "touch",
          "maxIncrements": 1,
          "minValue": null,
          "minUnits": ""
        },
        "uses": {
          "autoDeductCharges": true,
          "autoDeductChargesCost": "1",
          "per": "day",
          "value": 0,
          "maxFormula": "floor(@classes.cleric.level / 2)"
        },
        "measureTemplate": {
          "type": "",
          "size": "0",
          "overrideColor": false,
          "customColor": "",
          "overrideTexture": false,
          "customTexture": ""
        },
        "attackName": "",
        "actionType": "",
        "attackBonus": "",
        "critConfirmBonus": "",
        "damage": {
          "parts": [],
          "critParts": [],
          "nonCritParts": []
        },
        "attackParts": [],
        "formulaicAttacks": {
          "count": {
            "formula": ""
          },
          "bonus": {
            "formula": ""
          },
          "label": null
        },
        "formula": "",
        "ability": {
          "attack": null,
          "damage": null,
          "damageMult": 1,
          "critRange": 20,
          "critMult": 2
        },
        "save": {
          "dc": 0,
          "type": "",
          "description": ""
        },
        "effectNotes": [],
        "attackNotes": [],
        "soundEffect": "",
        "powerAttack": {
          "multiplier": "",
          "damageBonus": 2,
          "critMultiplier": 1
        },
        "naturalAttack": {
          "secondary": {
            "attackBonus": "-5",
            "damageMult": 0.5
          }
        },
        "nonlethal": false,
        "usesAmmo": false,
        "spellEffect": "",
        "spellArea": "",
        "conditionals": [],
        "enh": {
          "override": false,
          "value": 0
        }
      }
    ],
    "uses": {
      "per": "day",
      "maxFormula": "floor(@classes.cleric.level / 2)"
    },
    "attackNotes": [],
    "effectNotes": [],
    "changes": [],
    "contextNotes": [],
    "links": {
      "children": [],
      "charges": []
    },
    "tag": "classFeat_dawningRealization",
    "useCustomTag": true,
    "armorProf": {
      "value": []
    },
    "weaponProf": {
      "value": []
    },
    "languages": {
      "value": []
    },
    "scriptCalls": [],
    "featType": "classFeat",
    "associations": {
      "classes": [["Cleric"]]
    },
    "abilityType": "su"
  },
  "effects": [],
  "folder": null,
  "sort": 0,
  "permission": {
    "default": 0
  },
  "flags": {}
}
