{
  "_id": "UyBjO1RATGX8vWG1",
  "name": "Deaf Curse",
  "type": "feat",
  "img": "systems/pf1/icons/spells/horror-eerie-1.jpg",
  "data": {
    "description": {
      "value": "<p>You cannot hear and suffer all of the usual penalties for being deafened. You cast all of your spells as if they were modified by the @Compendium[pf1.feats.2YuxcUNFMPNBpekG]{Silent Spell} feat. This does not increase their level or casting time.</p>\n<p>At 5th level, you receive a +3 competence bonus on Perception checks that do not rely upon hearing, and the initiative penalty for being deaf is reduced to –2.</p>\n<p>At 10th level, you gain scent and you do not suffer any penalty on initiative checks due to being deaf.</p>\n<p>At 15th level, you gain tremorsense out to a range of 30 feet.</p>"
    },
    "tags": [],
    "actions": [],
    "attackNotes": [],
    "effectNotes": [],
    "changes": [],
    "contextNotes": [],
    "links": {
      "children": [],
      "charges": []
    },
    "tag": "classFeat_deafCurse",
    "useCustomTag": true,
    "armorProf": {
      "value": []
    },
    "weaponProf": {
      "value": []
    },
    "languages": {
      "value": []
    },
    "scriptCalls": [],
    "featType": "classFeat",
    "associations": {
      "classes": [["Oracle"]]
    }
  },
  "effects": [],
  "folder": null,
  "sort": 0,
  "permission": {
    "default": 0
  },
  "flags": {}
}
