{
  "_id": "fgFznAyIzUnw3p6o",
  "name": "Deathless Frenzy",
  "type": "feat",
  "img": "systems/pf1/icons/feats/deafening-critical.jpg",
  "data": {
    "description": {
      "value": "<p>While raging, you ignore the effects of being at 0 or fewer hit points until you have been at 0 or fewer hit points for 1 round, at which point the appropriate consequences for your current hit point total take effect. Even death can be postponed this way, potentially allowing you to survive if you receive sufficient healing before the round is up.</p>\n<p>You must be at least 12th level to select this rage power.</p>"
    },
    "tags": [],
    "actions": [],
    "attackNotes": [],
    "effectNotes": [],
    "changes": [],
    "contextNotes": [],
    "links": {
      "children": [],
      "charges": []
    },
    "tag": "classFeat_deathlessFrenzy",
    "useCustomTag": true,
    "armorProf": {
      "value": []
    },
    "weaponProf": {
      "value": []
    },
    "languages": {
      "value": []
    },
    "scriptCalls": [],
    "featType": "classFeat",
    "associations": {
      "classes": [["Barbarian"], ["Skald"]]
    }
  },
  "effects": [],
  "folder": null,
  "sort": 0,
  "permission": {
    "default": 0
  },
  "flags": {}
}
