{
  "_id": "gcbkOtnZ09HTsFzb",
  "name": "Decay Subdomain",
  "type": "feat",
  "img": "systems/pf1/icons/skills/violet_23.jpg",
  "data": {
    "description": {
      "value": "<p><strong>Replacement Domain Spells:</strong></p>\n<ul>\n<li>3rd—@Compendium[pf1.spells.ppeb97nxg1rmdpme]{Contagion}</li>\n<li>4th—@Compendium[pf1.spells.vdh0yuzpjwhky6kr]{Poison}</li>\n<li>6th—@Compendium[pf1.spells.dvwyzofd0yifs1ac]{Harm}</li>\n</ul>"
    },
    "tags": [],
    "actions": [],
    "attackNotes": [],
    "effectNotes": [],
    "changes": [],
    "contextNotes": [],
    "links": {
      "children": [],
      "charges": []
    },
    "tag": "classFeat_decaySubdomain",
    "useCustomTag": true,
    "armorProf": {
      "value": []
    },
    "weaponProf": {
      "value": []
    },
    "languages": {
      "value": []
    },
    "scriptCalls": [],
    "featType": "classFeat",
    "associations": {
      "classes": [["Cleric"]]
    }
  },
  "effects": [],
  "folder": null,
  "sort": 0,
  "permission": {
    "default": 0
  },
  "flags": {}
}
