{
  "_id": "cdre9IojG8R7LJLC",
  "name": "Dimensional Steps",
  "type": "feat",
  "img": "systems/pf1/icons/spells/wind-grasp-sky-1.jpg",
  "data": {
    "description": {
      "value": "<p>At 8th level, you can use this ability to teleport up to 30 feet per wizard level per day as a standard action. This teleportation must be used in 5-foot increments and such movement does not provoke an&nbsp;<a href=\"https://www.d20pfsrd.com/gamemastering/combat#TOC-Attacks-of-Opportunity\" rel=\"nofollow\">attack of opportunity</a>. You can bring other willing creatures with you, but you must expend an equal amount of distance for each additional creature brought with you.</p>"
    },
    "tags": [],
    "actions": [],
    "attackNotes": [],
    "effectNotes": [],
    "changes": [],
    "contextNotes": [],
    "links": {
      "children": [],
      "charges": []
    },
    "tag": "classFeat_dimensionalSteps",
    "useCustomTag": true,
    "armorProf": {
      "value": []
    },
    "weaponProf": {
      "value": []
    },
    "languages": {
      "value": []
    },
    "scriptCalls": [],
    "featType": "classFeat",
    "associations": {
      "classes": [["Wizard"]]
    },
    "abilityType": "su"
  },
  "effects": [],
  "folder": null,
  "sort": 0,
  "permission": {
    "default": 0
  },
  "flags": {}
}
