{
  "_id": "74M85RvChmjR3bmT",
  "name": "Disease Use",
  "type": "feat",
  "img": "systems/pf1/icons/items/weapons/dagger.PNG",
  "data": {
    "description": {
      "value": "<p>A rogue with this talent can apply filth from garbage, a sewer, a city street, a polluted area, or long-unwashed clothing or fur to a weapon as a standard action. Doing so causes the weapon to inflict filth fever (Pathfinder RPG Core Rulebook&nbsp;557) on its next strike. The rogue does not risk exposure to this disease unless she is damaged by the weapon. After a successful attack with the weapon, the filth is dispersed and must be reapplied.</p>"
    },
    "tags": [],
    "actions": [],
    "attackNotes": [],
    "effectNotes": [],
    "changes": [],
    "contextNotes": [],
    "links": {
      "children": [],
      "charges": []
    },
    "tag": "classFeat_diseaseUse",
    "useCustomTag": true,
    "armorProf": {
      "value": []
    },
    "weaponProf": {
      "value": []
    },
    "languages": {
      "value": []
    },
    "scriptCalls": [],
    "featType": "classFeat",
    "associations": {
      "classes": [["Rogue"]]
    },
    "abilityType": "ex"
  },
  "effects": [],
  "folder": null,
  "sort": 0,
  "permission": {
    "default": 0
  },
  "flags": {}
}
