{
  "_id": "H3f9XbEr3s4ekjp9",
  "name": "Draining Gloom",
  "type": "feat",
  "img": "systems/pf1/icons/items/potions/unique-3.jpg",
  "data": {
    "description": {
      "value": "<p>A creature struck by a direct hit with the gloom must make a successful Fortitude save or gain 1 negative level.</p>\n<p>An alchemist must be at least 8th level and must have the debilitating gloom discovery before selecting this discovery.</p>"
    },
    "tags": [],
    "actions": [],
    "attackNotes": [],
    "effectNotes": [],
    "changes": [],
    "contextNotes": [],
    "links": {
      "children": [],
      "charges": []
    },
    "tag": "classFeat_drainingGloom",
    "useCustomTag": true,
    "armorProf": {
      "value": []
    },
    "weaponProf": {
      "value": []
    },
    "languages": {
      "value": []
    },
    "scriptCalls": [],
    "featType": "classFeat",
    "associations": {
      "classes": [["Alchemist"]]
    }
  },
  "effects": [],
  "folder": null,
  "sort": 0,
  "permission": {
    "default": 0
  },
  "flags": {}
}
