{
  "_id": "1ZsQTWBlLdTciChl",
  "name": "Ectoplasmic Phase Lurch",
  "type": "feat",
  "img": "systems/pf1/icons/skills/blood_12.jpg",
  "data": {
    "description": {
      "value": "<p>A phantom in ectoplasmic form has the ability to pass through walls or material obstacles. In order to use this ability, it must begin and end its turn outside whatever wall or obstacle it’s moving through. An ectoplasmic phantom can’t move through corporeal creatures with this ability, and its movement speed is halved while moving through a wall or obstacle.</p>\n<p>Any surface it moves through is coated with a thin, silvery mucus that lingers for 1 minute.</p>"
    },
    "tags": [],
    "actions": [],
    "attackNotes": [],
    "effectNotes": [],
    "changes": [],
    "contextNotes": [],
    "links": {
      "children": [],
      "charges": []
    },
    "tag": "classFeat_ectoplasmicPhaseLurch",
    "useCustomTag": true,
    "armorProf": {
      "value": []
    },
    "weaponProf": {
      "value": []
    },
    "languages": {
      "value": []
    },
    "scriptCalls": [],
    "featType": "classFeat",
    "associations": {
      "classes": [["Spiritualist"], ["Phantom"]]
    },
    "abilityType": "su"
  },
  "effects": [],
  "folder": null,
  "sort": 0,
  "permission": {
    "default": 0
  },
  "flags": {}
}
