{
  "_id": "tap9LNVtXblKh0sv",
  "name": "Electricity Resistance",
  "type": "feat",
  "img": "systems/pf1/icons/spells/protect-blue-2.jpg",
  "data": {
    "description": {
      "value": "<p>At 6th level, you gain resist electricity 10. This resistance increases to 20 at 12th level. At 20th level, you gain immunity to electricity.</p>"
    },
    "tags": [],
    "actions": [],
    "attackNotes": [],
    "effectNotes": [],
    "changes": [],
    "contextNotes": [],
    "links": {
      "children": [],
      "charges": []
    },
    "tag": "classFeat_electricityResistance",
    "useCustomTag": true,
    "armorProf": {
      "value": []
    },
    "weaponProf": {
      "value": []
    },
    "languages": {
      "value": []
    },
    "scriptCalls": [],
    "featType": "classFeat",
    "associations": {
      "classes": [["Cleric"]]
    },
    "abilityType": "ex"
  },
  "effects": [],
  "folder": null,
  "sort": 0,
  "permission": {
    "default": 0
  },
  "flags": {}
}
