{
  "_id": "w2BOkG47vgd3toxl",
  "name": "Elemental Mystery",
  "type": "feat",
  "img": "systems/pf1/icons/spells/light-magenta-2.jpg",
  "data": {
    "description": {
      "value": "<p><strong>Class Skills: </strong>An oracle with the elemental mystery adds Acrobatics, Climb, Stealth, and Swim to her list of class skills.<br><br><strong>Bonus Spells:</strong>&nbsp;</p>\n<ul>\n<li>@Compendium[pf1.spells.pau0ejk30fs1eebl]{Endure Elements} (2nd),&nbsp;</li>\n<li>@Compendium[pf1.spells.tkjnm3lw7ni82tag]{Resist Energy} (4th),&nbsp;</li>\n<li>@Compendium[pf1.spells.q35l6m4pggb4y98v]{Elemental Aura} (6th),&nbsp;</li>\n<li>@Compendium[pf1.spells.pawbnw1nm4f0b98e]{Elemental Body I} (8th),&nbsp;</li>\n<li>@Compendium[pf1.spells.yldjnorgbx4jsldz]{Elemental Body II} (10th),&nbsp;</li>\n<li>@Compendium[pf1.spells.hd32fuc6e7j4isbn]{Elemental Body III} (12th),&nbsp;</li>\n<li>@Compendium[pf1.spells.v42t5kpxc8mvd615]{Elemental Body IV} (14th),&nbsp;</li>\n<li>@Compendium[pf1.spells.wniqskqkk0cubu9u]{Create Demiplane} (16th),&nbsp;</li>\n<li>@Compendium[pf1.spells.pfy97qyneoa391ek]{Elemental Swarm} (18th).</li>\n</ul>"
    },
    "tags": [],
    "actions": [],
    "attackNotes": [],
    "effectNotes": [],
    "changes": [],
    "contextNotes": [],
    "links": {
      "children": [],
      "charges": []
    },
    "tag": "classFeat_elementalMystery",
    "useCustomTag": true,
    "armorProf": {
      "value": []
    },
    "weaponProf": {
      "value": []
    },
    "languages": {
      "value": []
    },
    "scriptCalls": [],
    "featType": "classFeat",
    "associations": {
      "classes": [["Oracle"]]
    }
  },
  "effects": [],
  "folder": null,
  "sort": 0,
  "permission": {
    "default": 0
  },
  "flags": {}
}
