{
  "_id": "HL5hKsGtgPVuU9UL",
  "name": "Enveloping Winds",
  "type": "feat",
  "img": "systems/pf1/icons/spells/wind-sky-3.jpg",
  "data": {
    "description": {
      "value": "<p><strong>Element</strong>&nbsp;air;&nbsp;<strong>Type</strong>&nbsp;defense (Su);&nbsp;<strong>Level</strong>&nbsp;—;&nbsp;<strong>Burn</strong>&nbsp;0</p>\n<p>You constantly surround yourself with a whirling torrent of air, crackling arcs of lightning, or both to protect yourself from ranged attacks. All ranged attacks made with physical weapons suffer a 20% miss chance against you, except for attacks from massive weapons such as a giant’s thrown boulder or a ballista. This ability has no effect on ray attacks.</p>\n<p>The miss chance increases by 5% for every 5 kineticist levels you possess beyond 2nd. By accepting 1 point of burn, you can increase the miss chance by 5% until the next time your burn is removed. You can continue to accept points of burn to increase the miss chance further, up to a maximum of 75%.</p>\n<p>Whenever you accept burn while using an air wild talent, the energy surging through you causes your enveloping winds to also affect non-physical ranged attacks such as ray attacks for 1 round. You can dismiss or restore this effect as an immediate action.</p>"
    },
    "tags": [],
    "actions": [
      {
        "_id": "3howv7a8rgk3hkpk",
        "name": "Use",
        "img": "systems/pf1/icons/spells/wind-sky-3.jpg",
        "description": "",
        "activation": {
          "cost": 1,
          "type": "passive"
        },
        "unchainedAction": {
          "activation": {
            "cost": 1,
            "type": "passive"
          }
        },
        "duration": {
          "value": null,
          "units": ""
        },
        "target": {
          "value": ""
        },
        "range": {
          "value": null,
          "units": "",
          "maxIncrements": 1,
          "minValue": null,
          "minUnits": ""
        },
        "uses": {
          "autoDeductCharges": true,
          "autoDeductChargesCost": "1",
          "per": "",
          "value": 0,
          "maxFormula": ""
        },
        "measureTemplate": {
          "type": "",
          "size": "",
          "overrideColor": false,
          "customColor": "",
          "overrideTexture": false,
          "customTexture": ""
        },
        "attackName": "",
        "actionType": "",
        "attackBonus": "",
        "critConfirmBonus": "",
        "damage": {
          "parts": [],
          "critParts": [],
          "nonCritParts": []
        },
        "attackParts": [],
        "formulaicAttacks": {
          "count": {
            "formula": ""
          },
          "bonus": {
            "formula": ""
          },
          "label": null
        },
        "formula": "",
        "ability": {
          "attack": null,
          "damage": null,
          "damageMult": 1,
          "critRange": 20,
          "critMult": 2
        },
        "save": {
          "dc": 0,
          "type": "",
          "description": ""
        },
        "effectNotes": [],
        "attackNotes": [],
        "soundEffect": "",
        "powerAttack": {
          "multiplier": "",
          "damageBonus": 2,
          "critMultiplier": 1
        },
        "naturalAttack": {
          "secondary": {
            "attackBonus": "-5",
            "damageMult": 0.5
          }
        },
        "nonlethal": false,
        "usesAmmo": false,
        "spellEffect": "",
        "spellArea": "",
        "conditionals": [],
        "enh": {
          "override": false,
          "value": 0
        }
      }
    ],
    "uses": {
      "per": ""
    },
    "attackNotes": [],
    "effectNotes": [],
    "changes": [],
    "contextNotes": [],
    "links": {
      "children": [],
      "charges": []
    },
    "tag": "classFeat_envelopingWinds",
    "useCustomTag": true,
    "armorProf": {
      "value": []
    },
    "weaponProf": {
      "value": []
    },
    "languages": {
      "value": []
    },
    "scriptCalls": [],
    "featType": "classFeat",
    "associations": {
      "classes": [["Kineticist"]]
    },
    "abilityType": "su"
  },
  "effects": [],
  "folder": null,
  "sort": 0,
  "permission": {
    "default": 0
  },
  "flags": {}
}
