{
  "_id": "BNDCCIvPy1TVupll",
  "name": "Favored Terrain (CAV)",
  "type": "feat",
  "img": "systems/pf1/icons/items/inventory/banner-red.jpg",
  "data": {
    "description": {
      "value": "<p>At 2nd level, an order of the Green cavalier chooses a favored terrain from the list of&nbsp;<a href=\"https://aonprd.com/ClassDisplay.aspx?ItemName=Ranger\">ranger favored terrains</a>. He gains this as a favored terrain, as the ranger class feature of the same name. At 8th level and every 6 levels thereafter, he selects another favored terrain. In addition, at each such interval, the skill bonus in any one favored terrain (including the one just selected, if so desired) increases by 2.</p>"
    },
    "tags": [],
    "actions": [],
    "attackNotes": [],
    "effectNotes": [],
    "changes": [],
    "contextNotes": [],
    "links": {
      "children": [],
      "charges": []
    },
    "tag": "classFeat_favoredTerrainCav",
    "useCustomTag": true,
    "armorProf": {
      "value": []
    },
    "weaponProf": {
      "value": []
    },
    "languages": {
      "value": []
    },
    "scriptCalls": [],
    "featType": "classFeat",
    "associations": {
      "classes": [["Cavalier"]]
    },
    "abilityType": "ex"
  },
  "effects": [],
  "folder": null,
  "sort": 0,
  "permission": {
    "default": 0
  },
  "flags": {}
}
