{
  "_id": "DM9h9C2CJtq7wCd5",
  "name": "Ferocity Discipline",
  "type": "feat",
  "img": "systems/pf1/icons/spells/slice-spirit-3.jpg",
  "data": {
    "description": {
      "value": "<p>You are in touch with the most primal part of your subconscious. Your training allows you to unlock animalistic senses and powers.<br><br><strong>Phrenic Pool Ability:</strong> Wisdom<br><br><strong>Bonus Spells:</strong>&nbsp;</p>\n<ul>\n<li>@Compendium[pf1.spells.ja1p1uuf8fp6fiox]{Anticipate Peril} (1st),&nbsp;</li>\n<li>@Compendium[pf1.spells.05i5rxwim12hwktu]{Bull's Strength} (4th),&nbsp;</li>\n<li>@Compendium[pf1.spells.vqfrp8t0c1lw1jna]{Heroism} (6th),&nbsp;</li>\n<li>@Compendium[pf1.spells.lvzq2mwkqmozolpl]{Freedom of Movement} (8th),&nbsp;</li>\n<li>@Compendium[pf1.spells.knyako6zopc1chrv]{Stoneskin} (10th),&nbsp;</li>\n<li>@Compendium[pf1.spells.9pbl3ktd5oqejl19]{Transformation} (12th),&nbsp;</li>\n<li>@Compendium[pf1.spells.ln4jpuurxbrfxw5j]{Arcane Sight, Greater} (14th),&nbsp;</li>\n<li>@Compendium[pf1.spells.blvetbc929cfx4m8]{Mind Blank} (16th),&nbsp;</li>\n<li>@Compendium[pf1.spells.vl7yer8k1leyuxld]{Foresight}&nbsp;(18th).</li>\n</ul>"
    },
    "tags": [],
    "actions": [],
    "attackNotes": [],
    "effectNotes": [],
    "changes": [],
    "contextNotes": [],
    "links": {
      "children": [],
      "charges": []
    },
    "tag": "classFeat_ferocityDiscipline",
    "useCustomTag": true,
    "armorProf": {
      "value": []
    },
    "weaponProf": {
      "value": []
    },
    "languages": {
      "value": []
    },
    "scriptCalls": [],
    "featType": "classFeat",
    "associations": {
      "classes": [["Psychic"]]
    }
  },
  "effects": [],
  "folder": null,
  "sort": 0,
  "permission": {
    "default": 0
  },
  "flags": {}
}
