{
  "_id": "1hynAO1HTXaMgt46",
  "name": "Fetish",
  "type": "feat",
  "img": "systems/pf1/icons/skills/green_03.jpg",
  "data": {
    "description": {
      "value": "<p>The shaman receives @Compendium[pf1.feats.tD76K8QGco9scT0r]{Craft Wondrous Item} as a bonus feat and gains a +4 insight bonus on Spellcraft checks to identify magic items permanently.</p>"
    },
    "tags": [],
    "actions": [],
    "attackNotes": [],
    "effectNotes": [],
    "changes": [],
    "contextNotes": [],
    "links": {
      "children": [],
      "charges": []
    },
    "tag": "classFeat_fetish",
    "useCustomTag": true,
    "armorProf": {
      "value": []
    },
    "weaponProf": {
      "value": []
    },
    "languages": {
      "value": []
    },
    "scriptCalls": [],
    "featType": "classFeat",
    "associations": {
      "classes": [["Shaman"]]
    },
    "abilityType": "ex"
  },
  "effects": [],
  "folder": null,
  "sort": 0,
  "permission": {
    "default": 0
  },
  "flags": {}
}
