{
  "_id": "JKJoHy5NveXGaZqv",
  "name": "Flurry of Blows",
  "type": "feat",
  "img": "systems/pf1/icons/items/weapons/claw-blades.PNG",
  "data": {
    "description": {
      "value": "<p>Starting at 1st level, a monk can make a flurry of blows as a full-attack action.</p>\n<p>When doing so, he may make one additional attack, taking a –2 penalty on all of his&nbsp;<a href=\"https://www.d20pfsrd.com/gamemastering/combat#TOC-Attack-Roll\">attack rolls</a>, as if using the @Compendium[pf1.feats.Ee7JHADKEK37tTHs]{Two-Weapon Fighting} feat. These attacks can be any combination of unarmed strikes and attacks with a <a href=\"https://www.d20pfsrd.com/classes/core-classes/monk\">monk</a>&nbsp;special weapon (he does not need to use two weapons to utilize this ability).</p>\n<p>For the purpose of these attacks, the monk’s&nbsp;<a href=\"https://www.d20pfsrd.com/gamemastering/combat#TOC-Attack-Bonus\">base attack bonus</a>&nbsp;from his monk class levels is equal to his monk level. For all other purposes, such as qualifying for a feat or a prestige class, the monk uses his normal&nbsp;<a href=\"https://www.d20pfsrd.com/gamemastering/combat#TOC-Attack-Bonus\">base attack bonus</a>.</p>\n<p>At 8th level, the monk can make two additional attacks when he uses flurry of blows, as if using @Compendium[pf1.feats.3fNdl7eIUJ5d5fwg]{Improved Two-Weapon Fighting} (even if the monk does not meet the prerequisites for the feat).</p>\n<p>At 15th level, the monk can make three additional attacks using flurry of blows, as if using @Compendium[pf1.feats.ieltigobtFrlTXIt]{Greater Two-Weapon Fighting} (even if the monk does not meet the prerequisites for the feat).</p>\n<p>A monk applies his full&nbsp;<a href=\"https://www.d20pfsrd.com/basics-ability-scores/ability-scores#TOC-Strength-Str-\">Strength</a>&nbsp;bonus to his damage rolls for all successful attacks made with flurry of blows, whether the attacks are made with an off-hand or with a weapon wielded in both hands. A monk may substitute&nbsp;<a href=\"https://www.d20pfsrd.com/gamemastering/combat#TOC-Disarm\">disarm</a>,&nbsp;<a href=\"https://www.d20pfsrd.com/gamemastering/combat#TOC-Sunder\">sunder</a>, and&nbsp;<a href=\"https://www.d20pfsrd.com/gamemastering/combat#TOC-Trip\">trip</a>&nbsp;<a href=\"https://www.d20pfsrd.com/gamemastering/combat#TOC-Combat-Maneuvers\">combat maneuvers</a>&nbsp;for unarmed attacks as part of a flurry of blows. A monk cannot use any weapon other than an&nbsp;<a href=\"https://www.d20pfsrd.com/equipment/weapons/weapon-descriptions/strike-unarmed\">unarmed strike</a>&nbsp;or a special monk weapon as part of a flurry of blows. A monk with&nbsp;<a href=\"https://www.d20pfsrd.com/bestiary/rules-for-monsters/universal-monster-rules#TOC-Natural-Attacks\">natural weapons</a>&nbsp;cannot use such weapons as part of a flurry of blows, nor can he make&nbsp;<a href=\"https://www.d20pfsrd.com/bestiary/rules-for-monsters/universal-monster-rules#TOC-Natural-Attacks\">natural attacks</a>&nbsp;in addition to his flurry of blows attacks.</p>"
    },
    "tags": [],
    "actions": [],
    "attackNotes": [],
    "effectNotes": [],
    "changes": [],
    "contextNotes": [],
    "links": {
      "children": [],
      "charges": []
    },
    "tag": "classFeat_flurryOfBlows",
    "useCustomTag": true,
    "armorProf": {
      "value": []
    },
    "weaponProf": {
      "value": []
    },
    "languages": {
      "value": []
    },
    "scriptCalls": [],
    "featType": "classFeat",
    "associations": {
      "classes": [["Monk"]]
    },
    "abilityType": "ex"
  },
  "effects": [],
  "folder": null,
  "sort": 0,
  "permission": {
    "default": 0
  },
  "flags": {}
}
