{
  "_id": "BbFREbneAsvcR2Wk",
  "name": "Giant Slayer",
  "type": "feat",
  "img": "systems/pf1/icons/items/inventory/banner-red.jpg",
  "data": {
    "description": {
      "value": "<p>At 15th level, when the cavalier hits the target of his challenge with a melee attack, and that target is at least two size categories larger than the cavalier, he gains a bonus on damage rolls equal to 1/2 his cavalier level. This damage is multiplied on a critical hit.</p>"
    },
    "tags": [],
    "actions": [],
    "attackNotes": [],
    "effectNotes": [],
    "changes": [],
    "contextNotes": [],
    "links": {
      "children": [],
      "charges": []
    },
    "tag": "classFeat_giantSlayer",
    "useCustomTag": true,
    "armorProf": {
      "value": []
    },
    "weaponProf": {
      "value": []
    },
    "languages": {
      "value": []
    },
    "scriptCalls": [],
    "featType": "classFeat",
    "associations": {
      "classes": [["Cavalier"]]
    },
    "abilityType": "ex"
  },
  "effects": [],
  "folder": null,
  "sort": 0,
  "permission": {
    "default": 0
  },
  "flags": {}
}
