{
  "_id": "TNYCH3v1Y9lUQDPT",
  "name": "Greater Bane",
  "type": "feat",
  "img": "systems/pf1/icons/skills/weapon_29.jpg",
  "data": {
    "description": {
      "value": "<p>At 12th level, whenever an inquisitor uses her bane ability, the amount of bonus damage dealt by the weapon against creatures of the selected type increases to 4d6.</p>"
    },
    "tags": [],
    "actions": [],
    "attackNotes": [],
    "effectNotes": [],
    "changes": [],
    "contextNotes": [],
    "links": {
      "children": [],
      "charges": []
    },
    "tag": "classFeat_greaterBane",
    "useCustomTag": true,
    "armorProf": {
      "value": []
    },
    "weaponProf": {
      "value": []
    },
    "languages": {
      "value": []
    },
    "scriptCalls": [],
    "featType": "classFeat",
    "associations": {
      "classes": [["Inquisitor"]]
    },
    "abilityType": "su"
  },
  "effects": [],
  "folder": null,
  "sort": 0,
  "permission": {
    "default": 0
  },
  "flags": {}
}
