{
  "_id": "4bHhPe7eo3JU3RYX",
  "name": "Greater Rasugen",
  "type": "feat",
  "img": "systems/pf1/icons/items/potions/unique-3.jpg",
  "data": {
    "description": {
      "value": "<p>The alchemist’s rasugen now grants a +4 alchemical bonus on all saving throws, 3 temporary hit points per alchemist level, and immunity to mindaffecting effects. The alchemist takes a –4 penalty to Intelligence as long as the greater rasugen persists.</p>\n<p>An alchemist must be at least 12th level and able to brew a rasugen before selecting this discovery.</p>"
    },
    "tags": [],
    "actions": [],
    "attackNotes": [],
    "effectNotes": [],
    "changes": [],
    "contextNotes": [],
    "links": {
      "children": [],
      "charges": []
    },
    "tag": "classFeat_greaterRasugen",
    "useCustomTag": true,
    "armorProf": {
      "value": []
    },
    "weaponProf": {
      "value": []
    },
    "languages": {
      "value": []
    },
    "scriptCalls": [],
    "featType": "classFeat",
    "associations": {
      "classes": [["Alchemist"]]
    }
  },
  "effects": [],
  "folder": null,
  "sort": 0,
  "permission": {
    "default": 0
  },
  "flags": {}
}
