{
  "_id": "TIfkAAUNTp6S4fYP",
  "name": "Guardian's Shield",
  "type": "feat",
  "img": "systems/pf1/icons/skills/blue_18.jpg",
  "data": {
    "description": {
      "value": "<p>You gain proficiency in heavy armors and shields (including tower shields).</p>"
    },
    "tags": [],
    "actions": [],
    "attackNotes": [],
    "effectNotes": [],
    "changes": [],
    "contextNotes": [],
    "links": {
      "children": [],
      "charges": []
    },
    "tag": "classFeat_guardiansShield",
    "useCustomTag": true,
    "armorProf": {
      "value": []
    },
    "weaponProf": {
      "value": []
    },
    "languages": {
      "value": []
    },
    "scriptCalls": [],
    "featType": "classFeat",
    "associations": {
      "classes": [["Medium"]]
    },
    "abilityType": "su"
  },
  "effects": [],
  "folder": null,
  "sort": 0,
  "permission": {
    "default": 0
  },
  "flags": {}
}
