{
  "_id": "lmQ3cNhwFqQv7RVd",
  "name": "Hamstring Strike",
  "type": "feat",
  "img": "systems/pf1/icons/items/weapons/butterfly-knife.PNG",
  "data": {
    "description": {
      "value": "<p>Anytime a rogue with this talent successfully hits an opponent with a sneak attack, she may forgo her sneak attack damage to try to hamstring her opponent. If the attack succeeds, the rogue deals weapon damage as normal, but instead of the rogue dealing sneak attack damage, the target is knocked prone and is unable to take move actions during its next turn. A successful Fortitude save (DC = 10 + 1/2 the rogue’s level + the rogue’s Dexterity modifier) negates this effect.</p>"
    },
    "tags": [],
    "actions": [],
    "attackNotes": [],
    "effectNotes": [],
    "changes": [],
    "contextNotes": [],
    "links": {
      "children": [],
      "charges": []
    },
    "tag": "classFeat_hamstringStrike",
    "useCustomTag": true,
    "armorProf": {
      "value": []
    },
    "weaponProf": {
      "value": []
    },
    "languages": {
      "value": []
    },
    "scriptCalls": [],
    "featType": "classFeat",
    "associations": {
      "classes": [["Rogue"]]
    },
    "abilityType": "ex"
  },
  "effects": [],
  "folder": null,
  "sort": 0,
  "permission": {
    "default": 0
  },
  "flags": {}
}
