{
  "_id": "xRVh0GoPu5csODgL",
  "name": "Harrow Strike",
  "type": "feat",
  "img": "systems/pf1/icons/items/weapons/butterfly-knife.PNG",
  "data": {
    "description": {
      "value": "<p>Once per day while making a sneak attack against a creature, you can draw a random card from a harrow deck you own. If your attack hits, instead of dealing sneak attack damage as normal, you deal a number of points of ability damage equal to your number of sneak attack dice. The ability score damaged is the score affiliated with the suit of the harrow card drawn. You can use this ability an additional time per day at 15th level and 20th level.</p>"
    },
    "tags": [],
    "actions": [],
    "attackNotes": [],
    "effectNotes": [],
    "changes": [],
    "contextNotes": [],
    "links": {
      "children": [],
      "charges": []
    },
    "tag": "classFeat_harrowStrike",
    "useCustomTag": true,
    "armorProf": {
      "value": []
    },
    "weaponProf": {
      "value": []
    },
    "languages": {
      "value": []
    },
    "scriptCalls": [],
    "featType": "classFeat",
    "associations": {
      "classes": [["Rogue"]]
    },
    "abilityType": "ex"
  },
  "effects": [],
  "folder": null,
  "sort": 0,
  "permission": {
    "default": 0
  },
  "flags": {}
}
