{
  "_id": "8Z2BWiU01bhXKyRC",
  "name": "Healing Touch",
  "type": "feat",
  "img": "systems/pf1/icons/items/potions/unique-3.jpg",
  "data": {
    "description": {
      "value": "<p>The alchemist gains the ability to heal other creatures. As a standard action, he may touch a creature and apply 1 round’s effect of his spontaneous healing discovery to that creature; this counts toward his spontaneous healing limit for the day. The alchemist’s daily limit for hit points healed by spontaneous healing increases to 5 × his alchemist level. This ability only functions if the target is the same type of creature (humanoid, undead, and so on) as the alchemist.</p>\n<p>An alchemist must be at least 6th level and must have the spontaneous healing discovery or class ability before selecting this discovery.</p>"
    },
    "tags": [],
    "actions": [],
    "attackNotes": [],
    "effectNotes": [],
    "changes": [],
    "contextNotes": [],
    "links": {
      "children": [],
      "charges": []
    },
    "tag": "classFeat_healingTouch",
    "useCustomTag": true,
    "armorProf": {
      "value": []
    },
    "weaponProf": {
      "value": []
    },
    "languages": {
      "value": []
    },
    "scriptCalls": [],
    "featType": "classFeat",
    "associations": {
      "classes": [["Alchemist"]]
    },
    "abilityType": "ex"
  },
  "effects": [],
  "folder": null,
  "sort": 0,
  "permission": {
    "default": 0
  },
  "flags": {}
}
