{
  "_id": "z9U70wfXGqjAigqv",
  "name": "Heavy Training",
  "type": "feat",
  "img": "systems/pf1/icons/feats/deceitful.jpg",
  "data": {
    "description": {
      "value": "<p>The vigilante gains @Compendium[pf1.feats.3MqcLuZfUJB8xMby]{Armor Proficiency, Heavy} as a bonus feat, if he does not have that feat already. The armor skin vigilante talent also applies to heavy armor.</p>\n<p>At 16th level, if the vigilante has the armor skin vigilante talent, he can move at full speed in heavy armor.</p>\n<p>Only an avenger vigilante can select this talent.</p>"
    },
    "tags": [],
    "actions": [],
    "attackNotes": [],
    "effectNotes": [],
    "changes": [],
    "contextNotes": [],
    "links": {
      "children": [],
      "charges": []
    },
    "tag": "classFeat_heavyTraining",
    "useCustomTag": true,
    "armorProf": {
      "value": []
    },
    "weaponProf": {
      "value": []
    },
    "languages": {
      "value": []
    },
    "scriptCalls": [],
    "featType": "classFeat",
    "associations": {
      "classes": [["Vigilante"]]
    },
    "abilityType": "ex"
  },
  "effects": [],
  "folder": null,
  "sort": 0,
  "permission": {
    "default": 0
  },
  "flags": {}
}
