{
  "_id": "j1fzO9UphypgM5L4",
  "name": "Heavens Mystery",
  "type": "feat",
  "img": "systems/pf1/icons/spells/light-magenta-2.jpg",
  "data": {
    "description": {
      "value": "<p><strong>Class Skills:</strong> An oracle with the heavens mystery adds Fly, Knowledge (arcana), Perception, and Survival to her list of class skills.<br><br><strong>Bonus Spells:</strong>&nbsp;</p>\n<ul>\n<li>@Compendium[pf1.spells.qcjskol4ac3eemhy]{Color Spray} (2nd),&nbsp;</li>\n<li>@Compendium[pf1.spells.zyfm6dq35i4hip4u]{Hypnotic Pattern} (4th),</li>\n<li>@Compendium[pf1.spells.7x2z0i8rcx7s81fk]{Daylight} (6th),</li>\n<li>@Compendium[pf1.spells.6lebv7569xsypp8u]{Rainbow Pattern} (8th),</li>\n<li>@Compendium[pf1.spells.wqvy12w1xgk6l9b0]{Overland Flight} (10th),</li>\n<li>@Compendium[pf1.spells.6vfauefzzmwl4az7]{Chain Lightning} (12th),</li>\n<li>@Compendium[pf1.spells.mb819hvwpk0zmw53]{Prismatic Spray} (14th),</li>\n<li>@Compendium[pf1.spells.j2mwv9wfxhqch10g]{Sunburst} (16th),</li>\n<li>@Compendium[pf1.spells.xhzme0v6tjq95fg6]{Meteor Swarm} (18th).</li>\n</ul>"
    },
    "tags": [],
    "actions": [],
    "attackNotes": [],
    "effectNotes": [],
    "changes": [],
    "contextNotes": [],
    "links": {
      "children": [],
      "charges": []
    },
    "tag": "classFeat_heavensMystery",
    "useCustomTag": true,
    "armorProf": {
      "value": []
    },
    "weaponProf": {
      "value": []
    },
    "languages": {
      "value": []
    },
    "scriptCalls": [],
    "featType": "classFeat",
    "associations": {
      "classes": [["Oracle"]]
    }
  },
  "effects": [],
  "folder": null,
  "sort": 0,
  "permission": {
    "default": 0
  },
  "flags": {}
}
