{
  "_id": "TYR2cSWOyWebnj8O",
  "name": "Hold Breath",
  "type": "feat",
  "img": "systems/pf1/icons/items/weapons/dagger.PNG",
  "data": {
    "description": {
      "value": "<p>A rogue with this talent increases the number of rounds she can hold her breath by 2. She can take this talent multiple times.</p>"
    },
    "tags": [],
    "actions": [],
    "attackNotes": [],
    "effectNotes": [],
    "changes": [],
    "contextNotes": [],
    "links": {
      "children": [],
      "charges": []
    },
    "tag": "classFeat_holdBreath",
    "useCustomTag": true,
    "armorProf": {
      "value": []
    },
    "weaponProf": {
      "value": []
    },
    "languages": {
      "value": []
    },
    "scriptCalls": [],
    "featType": "classFeat",
    "associations": {
      "classes": [["Rogue"]]
    },
    "abilityType": "ex"
  },
  "effects": [],
  "folder": null,
  "sort": 0,
  "permission": {
    "default": 0
  },
  "flags": {}
}
