{
  "_id": "yIVUP0keOg2PctKq",
  "name": "Imp Familiar",
  "type": "feat",
  "img": "systems/pf1/icons/skills/blue_02.jpg",
  "data": {
    "description": {
      "value": "<p>At 7th level, you gain @Compendium[pf1.feats.oRJlgRLS32fmoQpy]{Improved Familiar}&nbsp;as a bonus feat, and must take an imp as a familiar. The imp replaces your current familiar.</p>"
    },
    "tags": [],
    "actions": [],
    "attackNotes": [],
    "effectNotes": [],
    "changes": [],
    "contextNotes": [],
    "links": {
      "children": [],
      "charges": []
    },
    "tag": "classFeat_impFamiliar",
    "useCustomTag": true,
    "armorProf": {
      "value": []
    },
    "weaponProf": {
      "value": []
    },
    "languages": {
      "value": []
    },
    "scriptCalls": [],
    "featType": "classFeat",
    "associations": {
      "classes": [["Wizard"]]
    },
    "abilityType": "ex"
  },
  "effects": [],
  "folder": null,
  "sort": 0,
  "permission": {
    "default": 0
  },
  "flags": {}
}
