{
  "_id": "YNsQRRwIc9yILPpw",
  "name": "Incorporeal Phantom Manifestation",
  "type": "feat",
  "img": "systems/pf1/icons/skills/blood_12.jpg",
  "data": {
    "description": {
      "value": "<p>When the spiritualist chooses to manifest the phantom in incorporeal form, the phantom appears within 30 feet of the spiritualist as a ghostly apparition. It gains the incorporeal subtype (Pathfinder RPG Bestiary&nbsp;301), including a deflection bonus to AC equal to its Charisma modif ier. Since it isn’t an undead creature, it takes no damage from holy water or positive energy. Unlike other incorporeal creatures, an incorporeal phantom can’t attack corporeal creatures, except to deliver touch-attack spells using the deliver touch spell ability.</p>\n<p>An incorporeal manifested phantom can make slam attacks against other incorporeal creatures as if it were in ectoplasmic form.</p>"
    },
    "tags": [],
    "actions": [],
    "attackNotes": [],
    "effectNotes": [],
    "changes": [],
    "contextNotes": [],
    "links": {
      "children": [],
      "charges": []
    },
    "tag": "classFeat_incorporealPhantomManifestation",
    "useCustomTag": true,
    "armorProf": {
      "value": []
    },
    "weaponProf": {
      "value": []
    },
    "languages": {
      "value": []
    },
    "scriptCalls": [],
    "featType": "classFeat",
    "associations": {
      "classes": [["Spiritualist"], ["Phantom"]]
    }
  },
  "effects": [],
  "folder": null,
  "sort": 0,
  "permission": {
    "default": 0
  },
  "flags": {}
}
