{
  "_id": "o5t40Idj3Zrgo7Uo",
  "name": "Insanity Patron",
  "type": "feat",
  "img": "systems/pf1/icons/feats/improved-familiar.jpg",
  "data": {
    "description": {
      "value": "<ul>\n<li>2nd — @Compendium[pf1.spells.5eg2f7nek9cjmv0n]{Memory Lapse}</li>\n<li>4th — @Compendium[pf1.spells.5nr9o7o0it6ewf17]{Hideous Laughter}</li>\n<li>6th — @Compendium[pf1.spells.exe45ci6j1nh9j3l]{Distracting Cacophony}</li>\n<li>8th — @Compendium[pf1.spells.n0bsyxchnigkkuqo]{Confusion}</li>\n<li>10th — @Compendium[pf1.spells.dlmeq0hpxfbjtibb]{Mind Fog}</li>\n<li>12th — @Compendium[pf1.spells.mvgg3g6zs5iutjj9]{Envious Urge}</li>\n<li>14th — @Compendium[pf1.spells.s6q72tw2zra9sycu]{Insanity}</li>\n<li>16th — @Compendium[pf1.spells.picot3viqlfo8arm]{Symbol of Insanity}</li>\n<li>18th — @Compendium[pf1.spells.xuuzj9lr2xbwaim4]{Overwhelming Presence}</li>\n</ul>"
    },
    "tags": [],
    "actions": [],
    "attackNotes": [],
    "effectNotes": [],
    "changes": [],
    "contextNotes": [],
    "links": {
      "children": [],
      "charges": []
    },
    "tag": "classFeat_insanityPatron",
    "useCustomTag": true,
    "armorProf": {
      "value": []
    },
    "weaponProf": {
      "value": []
    },
    "languages": {
      "value": []
    },
    "scriptCalls": [],
    "featType": "classFeat",
    "associations": {
      "classes": [["Witch"]]
    }
  },
  "effects": [],
  "folder": null,
  "sort": 0,
  "permission": {
    "default": 0
  },
  "flags": {}
}
