{
  "_id": "ZL9HxtNLPz1RgAyX",
  "name": "Instant Recognition",
  "type": "feat",
  "img": "systems/pf1/icons/skills/light_07.jpg",
  "data": {
    "description": {
      "value": "<p>The vigilante is so well known that his name precedes him, even to other communities. It only takes 4 hours of effort to get the word out to transfer his renown benefits to a new community.</p>\n<p>A vigilante must be at least 13th level and have both the incredible renown and triumphant return social talents to select this talent.</p>"
    },
    "tags": [],
    "actions": [],
    "attackNotes": [],
    "effectNotes": [],
    "changes": [],
    "contextNotes": [],
    "links": {
      "children": [],
      "charges": []
    },
    "tag": "classFeat_instantRecognition",
    "useCustomTag": true,
    "armorProf": {
      "value": []
    },
    "weaponProf": {
      "value": []
    },
    "languages": {
      "value": []
    },
    "scriptCalls": [],
    "featType": "classFeat",
    "associations": {
      "classes": [["Vigilante"]]
    },
    "abilityType": "ex"
  },
  "effects": [],
  "folder": null,
  "sort": 0,
  "permission": {
    "default": 0
  },
  "flags": {}
}
