{
  "_id": "h4kCx2lOy8jVgTbo",
  "name": "Invisible Blade",
  "type": "feat",
  "img": "systems/pf1/icons/items/weapons/kunai.png",
  "data": {
    "description": {
      "value": "<p>Whenever a ninja uses the vanishing trick ninja trick, she is treated as if she were under the effects of @Compendium[pf1.spells.cxgi0ub77t6aink1]{Invisibility, Greater}.</p>\n<p>The ninja must have the vanishing trick ninja trick before selecting this ninja trick.</p>"
    },
    "tags": [],
    "actions": [],
    "attackNotes": [],
    "effectNotes": [],
    "changes": [],
    "contextNotes": [],
    "links": {
      "children": [],
      "charges": []
    },
    "tag": "classFeat_invisibleBlade",
    "useCustomTag": true,
    "armorProf": {
      "value": []
    },
    "weaponProf": {
      "value": []
    },
    "languages": {
      "value": []
    },
    "scriptCalls": [],
    "featType": "classFeat",
    "associations": {
      "classes": [["Ninja"]]
    },
    "abilityType": "su"
  },
  "effects": [],
  "folder": null,
  "sort": 0,
  "permission": {
    "default": 0
  },
  "flags": {}
}
