{
  "_id": "aPV8b5DEOfJLtwLx",
  "name": "Item Crafting",
  "type": "feat",
  "img": "systems/pf1/icons/spells/runes-blue-2.jpg",
  "data": {
    "description": {
      "value": "<p>The arcanist can select one&nbsp;<a href=\"https://www.aonprd.com/Feats.aspx?Category=ItemCreation\">item creation feat</a>&nbsp;as a bonus feat. She must meet the prerequisites of this feat.</p>"
    },
    "tags": [],
    "actions": [],
    "attackNotes": [],
    "effectNotes": [],
    "changes": [],
    "contextNotes": [],
    "links": {
      "children": [],
      "charges": []
    },
    "tag": "classFeat_itemCrafting",
    "useCustomTag": true,
    "armorProf": {
      "value": []
    },
    "weaponProf": {
      "value": []
    },
    "languages": {
      "value": []
    },
    "scriptCalls": [],
    "featType": "classFeat",
    "associations": {
      "classes": [["Arcanist"]]
    }
  },
  "effects": [],
  "folder": null,
  "sort": 0,
  "permission": {
    "default": 0
  },
  "flags": {}
}
