{
  "_id": "oQEQYePmxxHsbgDW",
  "name": "Jaguar's Protection",
  "type": "feat",
  "img": "systems/pf1/icons/items/weapons/rhoka.PNG",
  "data": {
    "description": {
      "value": "<p>When a slayer with this talent deals sneak attack damage, he draws the target’s attention away from his allies. The affected enemy takes a –2 penalty on attack rolls made against anyone other than the slayer for 1 minute.</p>\n<p>The slayer must have the jaguar’s pounce talent to select this talent.</p>"
    },
    "tags": [],
    "actions": [],
    "attackNotes": [],
    "effectNotes": [],
    "changes": [],
    "contextNotes": [],
    "links": {
      "children": [],
      "charges": []
    },
    "tag": "classFeat_jaguarsProtection",
    "useCustomTag": true,
    "armorProf": {
      "value": []
    },
    "weaponProf": {
      "value": []
    },
    "languages": {
      "value": []
    },
    "scriptCalls": [],
    "featType": "classFeat",
    "associations": {
      "classes": [["Slayer"]]
    },
    "abilityType": "ex"
  },
  "effects": [],
  "folder": null,
  "sort": 0,
  "permission": {
    "default": 0
  },
  "flags": {}
}
