{
  "_id": "6QFJu9vBoHXyyOkP",
  "name": "Knockback (UC)",
  "type": "feat",
  "img": "systems/pf1/icons/feats/deafening-critical.jpg",
  "data": {
    "description": {
      "value": "<p>Once per round, the barbarian can attempt a bull rush against one target in place of a melee attack, using her full CMB regardless of the attack it replaces. If the bull rush is successful, the target takes an amount of damage equal to the barbarian’s Strength modifier and is knocked back as normal. The barbarian doesn’t move with the target.</p>\n<p>This bull rush doesn’t provoke an attack of opportunity.</p>"
    },
    "tags": [],
    "actions": [],
    "attackNotes": [],
    "effectNotes": [],
    "changes": [],
    "contextNotes": [],
    "links": {
      "children": [],
      "charges": []
    },
    "tag": "classFeat_knockbackUc",
    "useCustomTag": true,
    "armorProf": {
      "value": []
    },
    "weaponProf": {
      "value": []
    },
    "languages": {
      "value": []
    },
    "scriptCalls": [],
    "featType": "classFeat",
    "associations": {
      "classes": [["Barbarian (Unchained)"]]
    },
    "abilityType": "ex"
  },
  "effects": [],
  "folder": null,
  "sort": 0,
  "permission": {
    "default": 0
  },
  "flags": {}
}
