{
  "_id": "IfsUqkdorBKIdTII",
  "name": "Knowledge Domain",
  "type": "feat",
  "img": "systems/pf1/icons/items/inventory/book-purple.jpg",
  "data": {
    "description": {
      "value": "<p><strong>Granted Powers:</strong> You are a scholar and a sage of legends. In addition, you treat all Knowledge skills as class skills.</p>\n<p><strong>Domain Spells:</strong></p>\n<ul>\n<li>1st—@Compendium[pf1.spells.jcs7ba5depdyitey]{Comprehend Languages},</li>\n<li>2nd—@Compendium[pf1.spells.xllxylvvqr82o2d5]{Detect Thoughts},</li>\n<li>3rd—@Compendium[pf1.spells.byn5q46du0ck592a]{Speak with Dead},</li>\n<li>4th—@Compendium[pf1.spells.pwueht12qqo0268e]{Divination},</li>\n<li>5th—@Compendium[pf1.spells.jbqo4o2b2tmdz7wv]{True Seeing},</li>\n<li>6th—@Compendium[pf1.spells.x619lrcykmmwts0f]{Find the Path},</li>\n<li>7th—@Compendium[pf1.spells.b5mz8voksps5g4yq]{Legend Lore},</li>\n<li>8th—@Compendium[pf1.spells.gw2sgj93dgarpem8]{Discern Location},</li>\n<li>9th—@Compendium[pf1.spells.vl7yer8k1leyuxld]{Foresight}.</li>\n</ul>"
    },
    "tags": [],
    "actions": [],
    "attackNotes": [],
    "effectNotes": [],
    "changes": [],
    "contextNotes": [],
    "links": {
      "children": [],
      "charges": []
    },
    "tag": "classFeat_knowledgeDomain",
    "useCustomTag": true,
    "armorProf": {
      "value": []
    },
    "weaponProf": {
      "value": []
    },
    "languages": {
      "value": []
    },
    "scriptCalls": [],
    "featType": "classFeat",
    "associations": {
      "classes": [["Cleric"]]
    }
  },
  "effects": [],
  "folder": null,
  "sort": 0,
  "permission": {
    "default": 0
  },
  "flags": {}
}
