{
  "_id": "xDLxqe463zMv22QC",
  "name": "Kyton Subdomain",
  "type": "feat",
  "img": "systems/pf1/icons/skills/blood_05.jpg",
  "data": {
    "description": {
      "value": "<p><strong>Replacement Domain Spells:</strong></p>\n<ul>\n<li>1st—@Compendium[pf1.spells.6zv90r375b5ha994]{Delay Pain}</li>\n<li>2nd—@Compendium[pf1.spells.429wzxjzm1chnsq7]{Instrument of Agony}</li>\n<li>3rd—@Compendium[pf1.spells.kna8nhxmk5b6m6e8]{Agonize}</li>\n<li>5th—@Compendium[pf1.spells.k6nfhf1wvik082wu]{Symbol of Pain}</li>\n</ul>"
    },
    "tags": [],
    "actions": [],
    "attackNotes": [],
    "effectNotes": [],
    "changes": [],
    "contextNotes": [],
    "links": {
      "children": [],
      "charges": []
    },
    "tag": "classFeat_kytonSubdomain",
    "useCustomTag": true,
    "armorProf": {
      "value": []
    },
    "weaponProf": {
      "value": []
    },
    "languages": {
      "value": []
    },
    "scriptCalls": [],
    "featType": "classFeat",
    "associations": {
      "classes": [["Cleric"]]
    }
  },
  "effects": [],
  "folder": null,
  "sort": 0,
  "permission": {
    "default": 0
  },
  "flags": {}
}
