{
  "_id": "NjMyfBFJ42xbUpwC",
  "name": "Liberation Domain",
  "type": "feat",
  "img": "systems/pf1/icons/skills/red_16.jpg",
  "data": {
    "description": {
      "value": "<p><strong>Granted Powers:</strong> You are a spirit of freedom and a staunch foe against all who would enslave and oppress.</p>\n<p><strong>Domain Spells:</strong></p>\n<ul>\n<li>1st—@Compendium[pf1.spells.eu4u4mr1naoiqohz]{Remove Fear}</li>\n<li>2nd—@Compendium[pf1.spells.7xdn59ffjaqchhrz]{Remove Paralysis}</li>\n<li>3rd—@Compendium[pf1.spells.o87h8gjxevcbztgd]{Remove Curse}</li>\n<li>4th—@Compendium[pf1.spells.lvzq2mwkqmozolpl]{Freedom of Movement}</li>\n<li>5th—@Compendium[pf1.spells.myg2b9ww43nnlbr2]{Break Enchantment}</li>\n<li>6th—@Compendium[pf1.spells.e5kw4dwf9qwty6tl]{Dispel Magic, Greater}</li>\n<li>7th—@Compendium[pf1.spells.080el1lfozrhf6c2]{Refuge}</li>\n<li>8th—@Compendium[pf1.spells.blvetbc929cfx4m8]{Mind Blank}</li>\n<li>9th—@Compendium[pf1.spells.kdzx88z16gs8l392]{Freedom}</li>\n</ul>"
    },
    "tags": [],
    "actions": [],
    "attackNotes": [],
    "effectNotes": [],
    "changes": [],
    "contextNotes": [],
    "links": {
      "children": [],
      "charges": []
    },
    "tag": "classFeat_liberationDomain",
    "useCustomTag": true,
    "armorProf": {
      "value": []
    },
    "weaponProf": {
      "value": []
    },
    "languages": {
      "value": []
    },
    "scriptCalls": [],
    "featType": "classFeat",
    "associations": {
      "classes": [["Cleric"]]
    }
  },
  "effects": [],
  "folder": null,
  "sort": 0,
  "permission": {
    "default": 0
  },
  "flags": {}
}
