{
  "_id": "hN7nfIgDvGMd2MZf",
  "name": "Life Subschool",
  "type": "feat",
  "img": "systems/pf1/icons/skills/emerald_05.jpg",
  "data": {
    "description": {
      "value": "<p><strong>Associated School:</strong>&nbsp;<a href=\"https://www.d20pfsrd.com/classes/core-classes/wizard/arcane-schools/paizo-arcane-schools/classic-arcane-schools/necromancy\">Necromancy</a>.</p>\n<p><strong>Replacement Powers:</strong> This subschool replaces the power over&nbsp;<a href=\"https://www.d20pfsrd.com/classes/core-classes/wizard/arcane-schools/paizo-arcane-schools/classic-arcane-schools/bestia/bestiary/rules-for-monsters/creature-types#TOC-Undead\">undead</a>&nbsp;and grave touch powers of the&nbsp;<a href=\"https://www.d20pfsrd.com/magic#TOC-Necromancy\">necromancy</a>&nbsp;school.</p>"
    },
    "tags": [],
    "actions": [],
    "attackNotes": [],
    "effectNotes": [],
    "changes": [],
    "contextNotes": [],
    "links": {
      "children": [],
      "charges": []
    },
    "tag": "classFeat_lifeSubschool",
    "useCustomTag": true,
    "armorProf": {
      "value": []
    },
    "weaponProf": {
      "value": []
    },
    "languages": {
      "value": []
    },
    "scriptCalls": [],
    "featType": "classFeat",
    "associations": {
      "classes": [["Wizard"]]
    }
  },
  "effects": [],
  "folder": null,
  "sort": 0,
  "permission": {
    "default": 0
  },
  "flags": {}
}
