{
  "_id": "P990gOaYTN0dOBkm",
  "name": "Lingering Acid",
  "type": "feat",
  "img": "systems/pf1/icons/spells/runes-blue-3.jpg",
  "data": {
    "description": {
      "value": "<p>Whenever the arcanist uses the acid jet exploit, she can expend 2 points from her arcane reservoir instead of one. If she does, the target takes additional damage on the following rounds if it fails its saving throw. The target takes 1d6 points of acid damage on the following round for every 2d6 points of acid damage dealt by the initial attack. On subsequent rounds, the target continues to take 1d6 points of acid damage for every 2d6 points of acid damage dealt on the previous round. The damage continues until the amount of acid damage dealt on the previous round by this effect is 1d6. For example, a 9th level arcanist would deal 5d6 points of acid damage + the arcanist’s Charisma modifier, 2d6 points of acid damage on the following round, and 1d6 points of acid damage on the third and final round.</p>\n<p>The arcanist must have the acid jet exploit to select this exploit.</p>"
    },
    "tags": [],
    "actions": [
      {
        "_id": "6bgl47o14r5nsf95",
        "name": "Use",
        "img": "systems/pf1/icons/spells/runes-blue-3.jpg",
        "description": "",
        "activation": {
          "cost": 1,
          "type": "passive"
        },
        "unchainedAction": {
          "activation": {
            "cost": 1,
            "type": "passive"
          }
        },
        "duration": {
          "value": null,
          "units": ""
        },
        "target": {
          "value": ""
        },
        "range": {
          "value": null,
          "units": "",
          "maxIncrements": 1,
          "minValue": null,
          "minUnits": ""
        },
        "uses": {
          "autoDeductCharges": true,
          "autoDeductChargesCost": "1",
          "per": "",
          "value": 0,
          "maxFormula": ""
        },
        "measureTemplate": {
          "type": "",
          "size": "",
          "overrideColor": false,
          "customColor": "",
          "overrideTexture": false,
          "customTexture": ""
        },
        "attackName": "",
        "actionType": "",
        "attackBonus": "",
        "critConfirmBonus": "",
        "damage": {
          "parts": [],
          "critParts": [],
          "nonCritParts": []
        },
        "attackParts": [],
        "formulaicAttacks": {
          "count": {
            "formula": ""
          },
          "bonus": {
            "formula": ""
          },
          "label": null
        },
        "formula": "",
        "ability": {
          "attack": null,
          "damage": null,
          "damageMult": 1,
          "critRange": 20,
          "critMult": 2
        },
        "save": {
          "dc": 0,
          "type": "",
          "description": ""
        },
        "effectNotes": [],
        "attackNotes": [],
        "soundEffect": "",
        "powerAttack": {
          "multiplier": "",
          "damageBonus": 2,
          "critMultiplier": 1
        },
        "naturalAttack": {
          "secondary": {
            "attackBonus": "-5",
            "damageMult": 0.5
          }
        },
        "nonlethal": false,
        "usesAmmo": false,
        "spellEffect": "",
        "spellArea": "",
        "conditionals": [],
        "enh": {
          "override": false,
          "value": 0
        }
      }
    ],
    "uses": {
      "per": ""
    },
    "attackNotes": [],
    "effectNotes": [],
    "changes": [],
    "contextNotes": [],
    "links": {
      "children": [],
      "charges": []
    },
    "tag": "classFeat_lingeringAcid",
    "useCustomTag": true,
    "armorProf": {
      "value": []
    },
    "weaponProf": {
      "value": []
    },
    "languages": {
      "value": []
    },
    "scriptCalls": [],
    "featType": "classFeat",
    "associations": {
      "classes": [["Arcanist"]]
    },
    "abilityType": "su"
  },
  "effects": [],
  "folder": null,
  "sort": 0,
  "permission": {
    "default": 0
  },
  "flags": {}
}
