{
  "_id": "kQr2Fby4I67CqXGM",
  "name": "Lingering Plague",
  "type": "feat",
  "img": "systems/pf1/icons/items/potions/unique-3.jpg",
  "data": {
    "description": {
      "value": "<p>Any creature that must make a save against a disease caused by the alchemist’s extract or other class ability must make a second save 1 round later to avoid doubling the duration of the disease effect. If the disease doesn’t have a duration, this discovery reduces its onset time and frequencies by half.</p>\n<p>An alchemist must be at least 8th level before selecting this discovery.</p>"
    },
    "tags": [],
    "actions": [],
    "attackNotes": [],
    "effectNotes": [],
    "changes": [],
    "contextNotes": [],
    "links": {
      "children": [],
      "charges": []
    },
    "tag": "classFeat_lingeringPlague",
    "useCustomTag": true,
    "armorProf": {
      "value": []
    },
    "weaponProf": {
      "value": []
    },
    "languages": {
      "value": []
    },
    "scriptCalls": [],
    "featType": "classFeat",
    "associations": {
      "classes": [["Alchemist"]]
    }
  },
  "effects": [],
  "folder": null,
  "sort": 0,
  "permission": {
    "default": 0
  },
  "flags": {}
}
