{
  "_id": "qfPpv676zeGj6SPZ",
  "name": "Linnorm Death Curse, Fjord",
  "type": "feat",
  "img": "systems/pf1/icons/feats/deafening-critical.jpg",
  "data": {
    "description": {
      "value": "<p>The character channels the power of a&nbsp;<a href=\"https://aonprd.com/MonsterDisplay.aspx?ItemName=Fjord%20Linnorm\">fjord linnorm</a>. The character’s melee attacks deal an additional 1 point of cold damage. If the character is knocked unconscious or killed by an attack or spell, the attacker suffers the curse of drowning (Will negates).</p>\n<p>A character must be at least 4th level to select this rage power.&nbsp;Curse of Drowning:&nbsp;save&nbsp;Will DC 10 + 1/2 character’s level + character’s Charisma bonus;&nbsp;effect&nbsp;target is unable to breathe water (even with magic), can hold its breath only half as long as normal, and is sickened whenever it holds its breath.</p>"
    },
    "tags": [],
    "actions": [],
    "attackNotes": [],
    "effectNotes": [],
    "changes": [],
    "contextNotes": [],
    "links": {
      "children": [],
      "charges": []
    },
    "tag": "classFeat_linnormDeathCurseFjord",
    "useCustomTag": true,
    "armorProf": {
      "value": []
    },
    "weaponProf": {
      "value": []
    },
    "languages": {
      "value": []
    },
    "scriptCalls": [],
    "featType": "classFeat",
    "associations": {
      "classes": [["Barbarian"], ["Skald"]]
    },
    "abilityType": "su"
  },
  "effects": [],
  "folder": null,
  "sort": 0,
  "permission": {
    "default": 0
  },
  "flags": {}
}
