{
  "_id": "LP03Vj3YHpLTlxuU",
  "name": "Lion Aspect",
  "type": "feat",
  "img": "systems/pf1/icons/skills/blue_29.jpg",
  "data": {
    "description": {
      "value": "<p><em>Lions hunt in prides, cooperating to bring down large opponents and defend their territory. A lion’s alternate attack is bite (B, P, S).</em><br><br><strong>Minor Form:</strong> You gain a +4 competence bonus on Intimidate checks.</p>\n<p>This bonus increases to +6 at 8th level and +8 at 15th level.<br><br><strong>Major Form: </strong>Your shape changes to that of a&nbsp;<a href=\"https://www.aonprd.com/MonsterDisplay.aspx?ItemName=Dire%20Lion%20(Spotted%20Lion)\">dire lion</a>. While in this form, you gain a base speed of 40 feet, low-light vision, and scent (30 feet). Once per day for every 2 shifter levels you have, you can utter a mighty roar, allowing you to attempt an Intimidate check with a +5 circumstance bonus to demoralize enemies within 30 feet. Allies gain a +1 morale bonus on attack and damage rolls against creatures affected by this ability.</p>\n<p>At 8th level, you gain one of the following teamwork feats as a bonus feat:&nbsp;<a href=\"https://www.aonprd.com/FeatDisplay.aspx?ItemName=\">Outflank</a>,&nbsp;<a href=\"https://www.aonprd.com/FeatDisplay.aspx?ItemName=Pack%20Attack\">Pack Attack</a>,&nbsp;<a href=\"https://www.aonprd.com/FeatDisplay.aspx?ItemName=Paired%20Opportunists\">Paired Opportunists</a>, or&nbsp;<a href=\"https://www.aonprd.com/FeatDisplay.aspx?ItemName=Shake%20It%20Off\">Shake It Off</a>. You can grant allies within 30 feet the benefits of this feat as a swift action for a number of rounds equal to 3 + your Wisdom modifier.</p>\n<p>At 15th level, you provide a flanking bonus to any ally who threatens the same opponent as you do, and you can change places with an adjacent ally as a move action that does not provoke an attack of opportunity, as if using the&nbsp;<a href=\"https://www.aonprd.com/FeatDisplay.aspx?ItemName=Swap%20Places\">Swap Places</a>&nbsp;feat.<br><br><strong>Alternate Natural Attacks:</strong> Bite (B, P, S)</p>"
    },
    "tags": [],
    "actions": [],
    "attackNotes": [],
    "effectNotes": [],
    "changes": [],
    "contextNotes": [],
    "links": {
      "children": [],
      "charges": []
    },
    "tag": "classFeat_lionAspect",
    "useCustomTag": true,
    "armorProf": {
      "value": []
    },
    "weaponProf": {
      "value": []
    },
    "languages": {
      "value": []
    },
    "scriptCalls": [],
    "featType": "classFeat",
    "associations": {
      "classes": [["Shifter"]]
    }
  },
  "effects": [],
  "folder": null,
  "sort": 0,
  "permission": {
    "default": 0
  },
  "flags": {}
}
