{
  "_id": "adqVxiuM29Q4WkML",
  "name": "Living Capacitor",
  "type": "feat",
  "img": "systems/pf1/icons/spells/wind-sky-3.jpg",
  "data": {
    "description": {
      "value": "<p><strong>Element&nbsp;</strong>air;&nbsp;<strong>Type&nbsp;</strong>utility (Sp);&nbsp;<strong>Level&nbsp;</strong>2;&nbsp;<strong>Burn&nbsp;</strong>0</p>\n<p>You store electricity damage you take within your body, as if you constantly had @Compendium[pf1.spells.0g0pgsbjns61ovln]{Body Capacitance} active. Once you discharge this electricity damage via a touch attack, you must take electricity damage again before you can discharge it again.</p>"
    },
    "tags": [],
    "actions": [],
    "attackNotes": [],
    "effectNotes": [],
    "changes": [],
    "contextNotes": [],
    "links": {
      "children": [],
      "charges": []
    },
    "tag": "classFeat_livingCapacitor",
    "useCustomTag": true,
    "armorProf": {
      "value": []
    },
    "weaponProf": {
      "value": []
    },
    "languages": {
      "value": []
    },
    "scriptCalls": [],
    "featType": "classFeat",
    "associations": {
      "classes": [["Kineticist"]]
    },
    "abilityType": "sp"
  },
  "effects": [],
  "folder": null,
  "sort": 0,
  "permission": {
    "default": 0
  },
  "flags": {}
}
