{
  "_id": "XnAqNDbJ9Ooym6Si",
  "name": "Lorekeeper (Urban Druid)",
  "type": "feat",
  "img": "systems/pf1/icons/spells/leaf-orange-3.jpg",
  "data": {
    "description": {
      "value": "<p><strong>Druid (Urban Druid)</strong></p><p><strong>Level: </strong>2</p><p></p><p>At 2nd level, an urban druid adds Diplomacy, Knowledge (history), Knowledge (local), and Knowledge (nobility) skills to her list of class skills. She also receives a +2 bonus on these skill checks. This ability replaces a druid's woodland stride and trackless step abilities.</p>"
    },
    "tags": [["Druid"], ["Urban Druid"]],
    "actions": [],
    "attackNotes": [],
    "effectNotes": [],
    "changes": [
      {
        "_id": "bxlyc1wj",
        "formula": "2",
        "operator": "add",
        "subTarget": "skill.dip",
        "modifier": "untyped",
        "priority": 0,
        "value": 2
      },
      {
        "_id": "87bp0ewv",
        "formula": "2",
        "operator": "add",
        "subTarget": "skill.khi",
        "modifier": "untyped",
        "priority": 0,
        "value": 2
      },
      {
        "_id": "yet6p6o1",
        "formula": "2",
        "operator": "add",
        "subTarget": "skill.klo",
        "modifier": "untyped",
        "priority": 0,
        "value": 2
      },
      {
        "_id": "73yacu8x",
        "formula": "2",
        "operator": "add",
        "subTarget": "skill.kno",
        "modifier": "untyped",
        "priority": 0,
        "value": 2
      }
    ],
    "contextNotes": [],
    "links": {
      "children": [],
      "charges": []
    },
    "tag": "classFeat_lorekeeperUrbanDruid",
    "useCustomTag": true,
    "armorProf": {
      "value": []
    },
    "weaponProf": {
      "value": []
    },
    "languages": {
      "value": []
    },
    "scriptCalls": [],
    "featType": "classFeat",
    "associations": {
      "classes": [["Druid"]]
    }
  },
  "effects": [],
  "folder": null,
  "sort": 0,
  "permission": {
    "default": 0
  },
  "flags": {}
}
