{
  "_id": "VcDzxyr91GMJXaR1",
  "name": "Lore Final Revelation",
  "type": "feat",
  "img": "systems/pf1/icons/spells/light-royal-1.jpg",
  "data": {
    "description": {
      "value": "<p>You gain the ability to take 20 on all Knowledge skill checks. Your understanding of the fundamental underpinnings of reality has also become so advanced that once per day, you can cast @Compendium[pf1.spells.nnj51dwfkwd15ngj]{Wish}. This ability does not require a material component, but the wish cannot be used to grant ability score bonuses, nor can it be used to replicate spells with expensive material components.</p>"
    },
    "tags": [],
    "actions": [],
    "attackNotes": [],
    "effectNotes": [],
    "changes": [],
    "contextNotes": [],
    "links": {
      "children": [],
      "charges": []
    },
    "tag": "classFeat_loreFinalRevelation",
    "useCustomTag": true,
    "armorProf": {
      "value": []
    },
    "weaponProf": {
      "value": []
    },
    "languages": {
      "value": []
    },
    "scriptCalls": [],
    "featType": "classFeat",
    "associations": {
      "classes": [["Oracle"]]
    }
  },
  "effects": [],
  "folder": null,
  "sort": 0,
  "permission": {
    "default": 0
  },
  "flags": {}
}
