{
  "_id": "JtHGFUJPUL1lJUOA",
  "name": "Loss Subdomain",
  "type": "feat",
  "img": "systems/pf1/icons/skills/affliction_13.jpg",
  "data": {
    "description": {
      "value": "<p><strong>Replacement Domain Spells:</strong></p>\n<ul>\n<li>5th—@Compendium[pf1.spells.bc3nc0ri47egssht]{Enervation}</li>\n<li>6th—@Compendium[pf1.spells.5ll7q13p0skbgonc]{Modify Memory}</li>\n<li>9th—@Compendium[pf1.spells.khfprkujokr9uigq]{Energy Drain}</li>\n</ul>"
    },
    "tags": [],
    "actions": [],
    "attackNotes": [],
    "effectNotes": [],
    "changes": [],
    "contextNotes": [],
    "links": {
      "children": [],
      "charges": []
    },
    "tag": "classFeat_lossSubdomain",
    "useCustomTag": true,
    "armorProf": {
      "value": []
    },
    "weaponProf": {
      "value": []
    },
    "languages": {
      "value": []
    },
    "scriptCalls": [],
    "featType": "classFeat",
    "associations": {
      "classes": [["Cleric"]]
    }
  },
  "effects": [],
  "folder": null,
  "sort": 0,
  "permission": {
    "default": 0
  },
  "flags": {}
}
