{
  "_id": "1ddnC7domPF2vX2Z",
  "name": "Lunar Mystery",
  "type": "feat",
  "img": "systems/pf1/icons/spells/light-magenta-2.jpg",
  "data": {
    "description": {
      "value": "<p><strong>Class Skills: </strong>An oracle with the lunar mystery adds Acrobatics, Knowledge (Nature), Perception, and Survival to her list of class skills.<br><br><strong>Bonus Spells:&nbsp;</strong></p>\n<ul>\n<li>@Compendium[pf1.spells.dol5wzpsk7m6gxsc]{Fumbletongue} (2nd),&nbsp;</li>\n<li>@Compendium[pf1.spells.ech2cibcsmsms9s7]{Dust Of Twilight} (4th),&nbsp;</li>\n<li>@Compendium[pf1.spells.8u1xa5javcxc6szk]{Rage} (6th),&nbsp;</li>\n<li>@Compendium[pf1.spells.2mh7g81k30bv7b5m]{Moonstruck} (8th),&nbsp;</li>\n<li>@Compendium[pf1.spells.knjoprwzcm3jygwk]{Aspect of the Wolf} (10th),&nbsp;</li>\n<li>@Compendium[pf1.spells.cxp0vodhvuwnfmye]{Litany Of Madness} (12th),&nbsp;</li>\n<li>@Compendium[pf1.spells.8rf2ucrtzmxooyw6]{Lunar Veil} (14th),&nbsp;</li>\n<li>@Compendium[pf1.spells.1btrja5u0cz66cy8]{Blood Mist} (16th),&nbsp;</li>\n<li>@Compendium[pf1.spells.0mt9mso6wdhfafpo]{Polar Midnight} (18th).</li>\n</ul>"
    },
    "tags": [],
    "actions": [],
    "attackNotes": [],
    "effectNotes": [],
    "changes": [],
    "contextNotes": [],
    "links": {
      "children": [],
      "charges": []
    },
    "tag": "classFeat_lunarMystery",
    "useCustomTag": true,
    "armorProf": {
      "value": []
    },
    "weaponProf": {
      "value": []
    },
    "languages": {
      "value": []
    },
    "scriptCalls": [],
    "featType": "classFeat",
    "associations": {
      "classes": [["Oracle"]]
    }
  },
  "effects": [],
  "folder": null,
  "sort": 0,
  "permission": {
    "default": 0
  },
  "flags": {}
}
