{
  "_id": "7axY55VaNclgpi70",
  "name": "Magnetism",
  "type": "feat",
  "img": "systems/pf1/icons/spells/wind-sky-3.jpg",
  "data": {
    "description": {
      "value": "<p><strong>Element&nbsp;</strong>air, earth;&nbsp;<strong>Type&nbsp;</strong>utility (Sp);&nbsp;<strong>Level&nbsp;</strong>3;&nbsp;<strong>Burn&nbsp;</strong>0<br><strong>Prerequisite&nbsp;</strong>magnetic infusion<br><strong>Saving Throw&nbsp;</strong>none;&nbsp;<strong>SR&nbsp;</strong>yes</p>\n<p>You can push and pull metal objects using magnetism. This functions as telekinetic maneuvers but you can make only bull rush and drag combat maneuvers, and can do so only against metal objects or creatures.</p>\n<p>If you use this ability on an attended metal object, you must exceed the creature’s CMD as normal, and if it’s holding the object, it must drop it or this ability pushes or pulls the creature.</p>"
    },
    "tags": [],
    "actions": [],
    "attackNotes": [],
    "effectNotes": [],
    "changes": [],
    "contextNotes": [],
    "links": {
      "children": [],
      "charges": []
    },
    "tag": "classFeat_magnetism",
    "useCustomTag": true,
    "armorProf": {
      "value": []
    },
    "weaponProf": {
      "value": []
    },
    "languages": {
      "value": []
    },
    "scriptCalls": [],
    "featType": "classFeat",
    "associations": {
      "classes": [["Kineticist"]]
    },
    "abilityType": "sp"
  },
  "effects": [],
  "folder": null,
  "sort": 0,
  "permission": {
    "default": 0
  },
  "flags": {}
}
