{
  "_id": "nO6cI6JoY2THQoxZ",
  "name": "Major Amplifications",
  "type": "feat",
  "img": "systems/pf1/icons/spells/shielding-spirit-3.jpg",
  "data": {
    "description": {
      "value": "<p>At 11th level and every 4 levels thereafter, a psychic can choose a major amplification in place of a phrenic amplification.</p>"
    },
    "tags": [],
    "actions": [],
    "attackNotes": [],
    "effectNotes": [],
    "changes": [],
    "contextNotes": [],
    "links": {
      "children": [],
      "charges": []
    },
    "tag": "classFeat_majorAmplifications",
    "useCustomTag": true,
    "armorProf": {
      "value": []
    },
    "weaponProf": {
      "value": []
    },
    "languages": {
      "value": []
    },
    "scriptCalls": [],
    "featType": "classFeat",
    "associations": {
      "classes": [["Psychic"]]
    }
  },
  "effects": [],
  "folder": null,
  "sort": 0,
  "permission": {
    "default": 0
  },
  "flags": {}
}
