{
  "_id": "ivjBTPROVOB0yKnp",
  "name": "Many Guises (NIN)",
  "type": "feat",
  "img": "systems/pf1/icons/items/weapons/kunai.png",
  "data": {
    "description": {
      "value": "<p>A ninja with this trick gains the&nbsp;<a href=\"https://www.aonprd.com/VigilanteTalents.aspx\">vigilante social talent of the same name</a>.</p>\n<p>The ninja must have the deep cover ninja trick before selecting this trick.</p>"
    },
    "tags": [],
    "actions": [],
    "attackNotes": [],
    "effectNotes": [],
    "changes": [],
    "contextNotes": [],
    "links": {
      "children": [],
      "charges": []
    },
    "tag": "classFeat_manyGuisesNin",
    "useCustomTag": true,
    "armorProf": {
      "value": []
    },
    "weaponProf": {
      "value": []
    },
    "languages": {
      "value": []
    },
    "scriptCalls": [],
    "featType": "classFeat",
    "associations": {
      "classes": [["Ninja"]]
    },
    "abilityType": "ex"
  },
  "effects": [],
  "folder": null,
  "sort": 0,
  "permission": {
    "default": 0
  },
  "flags": {}
}
