{
  "_id": "LmTAiXHRPsujTlKC",
  "name": "Masquerade",
  "type": "feat",
  "img": "systems/pf1/icons/items/jewelry/ring-orange.jpg",
  "data": {
    "description": {
      "value": "<p>As a standard action, you can expend 1 point of mental focus to take on the appearance of another creature that you touch. If the creature is not friendly to you, this requires a melee touch attack, but the target doesn’t receive a saving throw to negate the effect. You gain a circumstance bonus on Disguise checks equal to your occultist level + 10, but only to look like the creature touched. This bonus doesn’t stack with the bonuses from polymorph spells or spells like&nbsp;disguise self. While using this ability, you can change your disguise as a standard action by touching a different creature and assuming its appearance. You can end this effect at any time.</p>\n<p>This effect lasts for 10 minutes per occultist level you possess, but you can renew the duration at any time by expending 1 additional point of mental focus.</p>\n<p>You must be at least 7th level to select this focus power.</p>"
    },
    "tags": [],
    "actions": [
      {
        "_id": "53g0es07d1yggn41",
        "name": "Use",
        "img": "systems/pf1/icons/items/jewelry/ring-orange.jpg",
        "description": "",
        "activation": {
          "cost": 1,
          "type": "standard"
        },
        "unchainedAction": {
          "activation": {
            "cost": 2,
            "type": "action"
          }
        },
        "duration": {
          "value": "10*@classes.occultist.level",
          "units": "minute"
        },
        "target": {
          "value": "creature touched"
        },
        "range": {
          "value": null,
          "units": "touch",
          "maxIncrements": 1,
          "minValue": null,
          "minUnits": ""
        },
        "uses": {
          "autoDeductCharges": true,
          "autoDeductChargesCost": "1",
          "per": "",
          "value": 0,
          "maxFormula": ""
        },
        "measureTemplate": {
          "type": "",
          "size": "",
          "overrideColor": false,
          "customColor": "",
          "overrideTexture": false,
          "customTexture": ""
        },
        "attackName": "",
        "actionType": "",
        "attackBonus": "",
        "critConfirmBonus": "",
        "damage": {
          "parts": [],
          "critParts": [],
          "nonCritParts": []
        },
        "attackParts": [],
        "formulaicAttacks": {
          "count": {
            "formula": ""
          },
          "bonus": {
            "formula": ""
          },
          "label": null
        },
        "formula": "",
        "ability": {
          "attack": null,
          "damage": null,
          "damageMult": 1,
          "critRange": 20,
          "critMult": 2
        },
        "save": {
          "dc": 0,
          "type": "",
          "description": ""
        },
        "effectNotes": [],
        "attackNotes": [],
        "soundEffect": "",
        "powerAttack": {
          "multiplier": "",
          "damageBonus": 2,
          "critMultiplier": 1
        },
        "naturalAttack": {
          "secondary": {
            "attackBonus": "-5",
            "damageMult": 0.5
          }
        },
        "nonlethal": false,
        "usesAmmo": false,
        "spellEffect": "",
        "spellArea": "",
        "conditionals": [],
        "enh": {
          "override": false,
          "value": 0
        }
      }
    ],
    "uses": {
      "per": ""
    },
    "attackNotes": [],
    "effectNotes": [],
    "changes": [],
    "contextNotes": [],
    "links": {
      "children": [],
      "charges": []
    },
    "tag": "classFeat_masquerade",
    "useCustomTag": true,
    "armorProf": {
      "value": []
    },
    "weaponProf": {
      "value": []
    },
    "languages": {
      "value": []
    },
    "scriptCalls": [],
    "featType": "classFeat",
    "associations": {
      "classes": [["Occultist"]]
    },
    "abilityType": "sp"
  },
  "effects": [],
  "folder": null,
  "sort": 0,
  "permission": {
    "default": 0
  },
  "flags": {}
}
