{
  "_id": "Er8h3fZ2edJEviTv",
  "name": "Mercy",
  "type": "feat",
  "img": "systems/pf1/icons/feats/toughness.jpg",
  "data": {
    "description": {
      "value": "<p>At 3rd level, and every three levels thereafter, a paladin can select one mercy. Each mercy adds an effect to the paladin’s lay on hands ability. Whenever the paladin uses lay on hands to heal damage to one target, the target also receives the additional effects from all of the mercies possessed by the paladin. A mercy can remove a condition caused by a curse, disease, or poison without curing the affliction. Such conditions return after 1 hour unless the mercy actually removes the affliction that causes the condition.</p>\n<p>At 3rd level, the paladin can select from the following initial mercies.</p>\n<ul>\n<li><em>Deceived:</em> The target can immediately attempt a new saving throw to disbelieve any ongoing illusions that it failed to disbelieve within the last minute.</li>\n<li><em>Fatigued: </em>The target is no longer&nbsp;<a href=\"https://www.d20pfsrd.com/gamemastering/conditions#TOC-Fatigued\">fatigued</a>.</li>\n<li><em>Riled:</em> The&nbsp;<a href=\"https://www.d20pfsrd.com/classes/core-classes/paladin\">paladin’s</a>&nbsp;<a href=\"https://www.d20pfsrd.com/classes/core-classes/paladin#TOC-Lay-On-Hands-Su-\">lay on hands</a>&nbsp;also acts as&nbsp;<a href=\"https://www.d20pfsrd.com/magic/all-spells/c/calm-emotions\">calm emotions</a>, but only for the purpose of suppressing morale bonuses (such as from the&nbsp;<a href=\"https://www.d20pfsrd.com/magic/all-spells/r/rage\">rage</a>&nbsp;spell) and emotion effects that aren’t fear effects. Use the&nbsp;<a href=\"https://www.d20pfsrd.com/classes/core-classes/paladin\">paladin’s</a>&nbsp;level as the&nbsp;<a href=\"https://www.d20pfsrd.com/magic#TOC-Caster-Level\">caster level</a>.&nbsp;</li>\n<li><em>Shaken:</em> The target is no longer&nbsp;<a href=\"https://www.d20pfsrd.com/gamemastering/conditions#TOC-Shaken\">shaken</a>.</li>\n<li><em>Sickened:</em> The target is no longer&nbsp;<a href=\"https://www.d20pfsrd.com/gamemastering/conditions#TOC-Sickened\">sickened</a>.</li>\n</ul>\n<p>At 6th level, a paladin adds the following mercies to the list of those that can be selected.</p>\n<ul>\n<li><em>Dazed:</em> The target is no longer&nbsp;<a href=\"https://www.d20pfsrd.com/gamemastering/conditions#TOC-Dazed\">dazed</a>.</li>\n<li><em>Diseased:</em> The paladin’s lay on hands ability also acts as&nbsp;<a href=\"https://www.d20pfsrd.com/magic/all-spells/r/remove-disease\">remove disease</a>, using the paladin’s level as the caster level.</li>\n<li><em>Enfeebled:</em> The&nbsp;<a href=\"https://www.d20pfsrd.com/classes/core-classes/paladin\">paladin</a>&nbsp;dispels any magical effects that are reducing one of the target’s ability scores (<a href=\"https://www.d20pfsrd.com/classes/core-classes/paladin\">paladin’s</a> choice).&nbsp;</li>\n<li><em>Haunted:</em> The&nbsp;<a href=\"https://www.d20pfsrd.com/classes/core-classes/paladin\">paladin’s</a>&nbsp;<a href=\"https://www.d20pfsrd.com/classes/core-classes/paladin#TOC-Lay-On-Hands-Su-\">lay on hands</a>&nbsp;also acts as&nbsp;<a href=\"https://www.d20pfsrd.com/magic/all-spells/p/protection-from-evil\">protection from evil</a>, but only for the purpose of allowing a new saving throw against&nbsp;<a href=\"https://www.d20pfsrd.com/magic#TOC-Enchantment\">enchantment</a>&nbsp;(<a href=\"https://www.d20pfsrd.com/magic#TOC-Enchantment-Charm\">charm</a>) and&nbsp;<a href=\"https://www.d20pfsrd.com/magic#TOC-Enchantment\">enchantment</a>&nbsp;(<a href=\"https://www.d20pfsrd.com/magic#TOC-Enchantment-Compulsion\">compulsion</a>) effects, making the target immune to any attempts to possess or exercise mental control over the target, or preventing a life force from controlling the target (all as described in the second effect of&nbsp;<a href=\"https://www.d20pfsrd.com/magic/all-spells/p/protection-from-evil\">protection from evil</a>). Use the&nbsp;<a href=\"https://www.d20pfsrd.com/classes/core-classes/paladin\">paladin’s</a>&nbsp;level as the&nbsp;<a href=\"https://www.d20pfsrd.com/magic#TOC-Caster-Level\">caster level</a>.&nbsp;</li>\n<li><em>Staggered: </em>The target is no longer&nbsp;<a href=\"https://www.d20pfsrd.com/gamemastering/conditions#TOC-Staggered\">staggered</a>, unless the target is at exactly 0 hit points.</li>\n<li><em>Targeted: </em>The&nbsp;<a href=\"https://www.d20pfsrd.com/classes/core-classes/paladin\">paladin’s</a>&nbsp;<a href=\"https://www.d20pfsrd.com/classes/core-classes/paladin#TOC-Lay-On-Hands-Su-\">lay on hands</a>&nbsp;also acts as&nbsp;<a href=\"https://www.d20pfsrd.com/magic/all-spells/s/sanctuary\">sanctuary</a>, using the&nbsp;<a href=\"https://www.d20pfsrd.com/classes/core-classes/paladin\">paladin’s</a>&nbsp;level as the&nbsp;<a href=\"https://www.d20pfsrd.com/magic#TOC-Caster-Level\">caster level</a>. The saving throw DC to negate this effect is equal to 10 + 1/2 the&nbsp;<a href=\"https://www.d20pfsrd.com/classes/core-classes/paladin\">paladin’s</a>&nbsp;level + the&nbsp;<a href=\"https://www.d20pfsrd.com/classes/core-classes/paladin\">paladin’s</a>&nbsp;<a href=\"https://www.d20pfsrd.com/basics-ability-scores/ability-scores#TOC-Charisma-Cha-\">Charisma</a> modifier.&nbsp;</li>\n</ul>\n<p>At 9th level, a paladin adds the following mercies to the list of those that can be selected.</p>\n<ul>\n<li><em>Confused: </em>The target is no longer&nbsp;<a href=\"https://www.d20pfsrd.com/gamemastering/conditions#TOC-Confused\">confused</a>.</li>\n<li><em>Cursed:</em> The paladin’s lay on hands ability also acts as&nbsp;<a href=\"https://www.d20pfsrd.com/magic/all-spells/r/remove-curse\">remove curse</a>, using the paladin’s level as the caster level.</li>\n<li><em>Exhausted: </em>The target is no longer&nbsp;<a href=\"https://www.d20pfsrd.com/gamemastering/conditions#TOC-Exhausted\">exhausted</a>. The paladin must have the fatigue mercy before selecting this mercy.</li>\n<li><em>Frightened: </em>The target is no longer&nbsp;<a href=\"https://www.d20pfsrd.com/gamemastering/conditions#TOC-Frightened\">frightened</a>. The paladin must have the&nbsp;<a href=\"https://www.d20pfsrd.com/gamemastering/conditions#TOC-Shaken\">shaken</a>&nbsp;mercy before selecting this mercy.</li>\n<li><em>Injured:</em> The target gains&nbsp;<a href=\"https://www.d20pfsrd.com/bestiary/rules-for-monsters/universal-monster-rules#TOC-Fast-Healing-Ex-\">fast healing</a>&nbsp;3 for a number of rounds equal to 1/2 the&nbsp;<a href=\"https://www.d20pfsrd.com/classes/core-classes/paladin\">paladin’s</a> level.&nbsp;</li>\n<li><em>Nauseated:</em> The target is no longer&nbsp;<a href=\"https://www.d20pfsrd.com/gamemastering/conditions#TOC-Nauseated\">nauseated</a>. The paladin must have the&nbsp;<a href=\"https://www.d20pfsrd.com/gamemastering/conditions#TOC-Sickened\">sickened</a>&nbsp;mercy before selecting this mercy.</li>\n<li><em>Poisoned: </em>The paladin’s lay on hands ability also acts as&nbsp;<a href=\"https://www.d20pfsrd.com/magic/all-spells/n/neutralize-poison\">neutralize poison</a>, using the paladin’s level as the caster level.</li>\n<li><em>Restorative:</em> The target heals 1d4 points of&nbsp;<a href=\"https://www.d20pfsrd.com/basics-ability-scores/ability-scores#TOC-Ability-Score-Damage\">ability damage</a>&nbsp;from a single ability score of the&nbsp;<a href=\"https://www.d20pfsrd.com/classes/core-classes/paladin\">paladin’s</a>&nbsp;choosing. The&nbsp;<a href=\"https://www.d20pfsrd.com/classes/core-classes/paladin\">paladin</a> must have the enfeebled mercy before selecting this mercy.&nbsp;</li>\n</ul>\n<p>At 12th level, a paladin adds the following mercies to the list of those that can be selected.</p>\n<ul>\n<li><em>Amputated: </em>The&nbsp;<a href=\"https://www.d20pfsrd.com/classes/core-classes/paladin\">paladin’s</a>&nbsp;<a href=\"https://www.d20pfsrd.com/classes/core-classes/paladin#TOC-Lay-On-Hands-Su-\">lay on hands</a>&nbsp;also acts as&nbsp;<a href=\"https://www.d20pfsrd.com/magic/all-spells/r/regenerate\">regenerate</a>, but only for the purposes of regrowing severed body members,&nbsp;<a href=\"https://www.d20pfsrd.com/gamemastering/conditions#TOC-Broken\">broken</a>&nbsp;bones, and ruined organs. The&nbsp;<a href=\"https://www.d20pfsrd.com/classes/core-classes/paladin\">paladin</a> must have the injured mercy before she can select this mercy.&nbsp;</li>\n<li><em>Blinded:</em> The target is no longer&nbsp;<a href=\"https://www.d20pfsrd.com/gamemastering/conditions#TOC-Blinded\">blinded</a>.</li>\n<li><em>Deafened: </em>The target is no longer&nbsp;<a href=\"https://www.d20pfsrd.com/gamemastering/conditions#TOC-Deafened\">deafened</a>.</li>\n<li><em>Ensorcelled:</em> The&nbsp;<a href=\"https://www.d20pfsrd.com/classes/core-classes/paladin\">paladin’s</a>&nbsp;<a href=\"https://www.d20pfsrd.com/classes/core-classes/paladin#TOC-Lay-On-Hands-Su-\">lay on hands</a>&nbsp;also acts as&nbsp;<a href=\"https://www.d20pfsrd.com/magic/all-spells/d/dispel-magic\">dispel magic</a>, using the&nbsp;<a href=\"https://www.d20pfsrd.com/classes/core-classes/paladin\">paladin’s</a>&nbsp;level as her&nbsp;<a href=\"https://www.d20pfsrd.com/magic#TOC-Caster-Level\">caster level</a>&nbsp;(maximum 20).&nbsp;Source&nbsp;<a href=\"http://amzn.to/2lv4Aso\" target=\"_blank\" rel=\"noopener\">PPC:HH</a></li>\n<li><em>Paralyzed: </em>The target is no longer&nbsp;<a href=\"https://www.d20pfsrd.com/gamemastering/conditions#TOC-Paralyzed\">paralyzed</a>.</li>\n<li><em>Petrified:</em> The&nbsp;<a href=\"https://www.d20pfsrd.com/classes/core-classes/paladin\">paladin’s</a>&nbsp;<a href=\"https://www.d20pfsrd.com/classes/core-classes/paladin#TOC-Lay-On-Hands-Su-\">lay on hands</a>&nbsp;ability also acts as&nbsp;<a href=\"https://www.d20pfsrd.com/magic/all-spells/s/stone-to-flesh\">stone to flesh</a>, but only for the purpose of removing the&nbsp;<a href=\"https://www.d20pfsrd.com/gamemastering/conditions#TOC-Petrified\">petrified</a> condition from a creature.&nbsp;</li>\n<li><em>Stunned:</em> The target is no longer&nbsp;<a href=\"https://www.d20pfsrd.com/gamemastering/conditions#TOC-Stunned\">stunned</a>.</li>\n</ul>\n<p>These abilities are cumulative. For example, a 12th-level paladin’s lay on hands ability heals 6d6 points of damage and might also cure&nbsp;<a href=\"https://www.d20pfsrd.com/gamemastering/conditions#TOC-Fatigued\">Fatigued</a>&nbsp;and&nbsp;<a href=\"https://www.d20pfsrd.com/gamemastering/conditions#TOC-Exhausted\">Exhausted</a>&nbsp;conditions as well as removing diseases and neutralizing poisons. Once a condition or spell effect is chosen, it can’t be changed.</p>"
    },
    "tags": [],
    "actions": [
      {
        "_id": "lgerocqoylmcni3p",
        "name": "Use",
        "img": "systems/pf1/icons/feats/toughness.jpg",
        "description": "",
        "activation": {
          "cost": 1,
          "type": "passive"
        },
        "unchainedAction": {
          "activation": {
            "cost": 1,
            "type": "passive"
          }
        },
        "duration": {
          "value": null,
          "units": ""
        },
        "target": {
          "value": ""
        },
        "range": {
          "value": null,
          "units": "",
          "maxIncrements": 1,
          "minValue": null,
          "minUnits": ""
        },
        "uses": {
          "autoDeductCharges": true,
          "autoDeductChargesCost": "1",
          "per": "",
          "value": 0,
          "maxFormula": ""
        },
        "measureTemplate": {
          "type": "",
          "size": "0",
          "overrideColor": false,
          "customColor": "",
          "overrideTexture": false,
          "customTexture": ""
        },
        "attackName": "",
        "actionType": "",
        "attackBonus": "",
        "critConfirmBonus": "",
        "damage": {
          "parts": [],
          "critParts": [],
          "nonCritParts": []
        },
        "attackParts": [],
        "formulaicAttacks": {
          "count": {
            "formula": ""
          },
          "bonus": {
            "formula": ""
          },
          "label": null
        },
        "formula": "",
        "ability": {
          "attack": null,
          "damage": null,
          "damageMult": 1,
          "critRange": 20,
          "critMult": 2
        },
        "save": {
          "dc": 0,
          "type": "",
          "description": ""
        },
        "effectNotes": [],
        "attackNotes": [],
        "soundEffect": "",
        "powerAttack": {
          "multiplier": "",
          "damageBonus": 2,
          "critMultiplier": 1
        },
        "naturalAttack": {
          "secondary": {
            "attackBonus": "-5",
            "damageMult": 0.5
          }
        },
        "nonlethal": false,
        "usesAmmo": false,
        "spellEffect": "",
        "spellArea": "",
        "conditionals": [],
        "enh": {
          "override": false,
          "value": 0
        }
      }
    ],
    "uses": {
      "per": ""
    },
    "attackNotes": [],
    "effectNotes": [],
    "changes": [],
    "contextNotes": [],
    "links": {
      "children": [],
      "charges": []
    },
    "tag": "classFeat_mercy",
    "useCustomTag": true,
    "armorProf": {
      "value": []
    },
    "weaponProf": {
      "value": []
    },
    "languages": {
      "value": []
    },
    "scriptCalls": [],
    "featType": "classFeat",
    "associations": {
      "classes": [["Paladin"]]
    },
    "abilityType": "su"
  },
  "effects": [],
  "folder": null,
  "sort": 0,
  "permission": {
    "default": 0
  },
  "flags": {}
}
