{
  "_id": "Deoj4aUYuCQzFwJo",
  "name": "Metakinetic Master",
  "type": "feat",
  "img": "systems/pf1/icons/spells/link-royal-3.jpg",
  "data": {
    "description": {
      "value": "<p>At 19th level, a kineticist chooses one type of metakinesis, such as empower or quicken. She reduces the burn cost of that metakinesis by 1 point (to a minimum of 0 points).</p>"
    },
    "tags": [],
    "actions": [],
    "attackNotes": [],
    "effectNotes": [],
    "changes": [],
    "contextNotes": [],
    "links": {
      "children": [],
      "charges": []
    },
    "tag": "classFeat_metakineticMaster",
    "useCustomTag": true,
    "armorProf": {
      "value": []
    },
    "weaponProf": {
      "value": []
    },
    "languages": {
      "value": []
    },
    "scriptCalls": [],
    "featType": "classFeat",
    "associations": {
      "classes": [["Kineticist"]]
    },
    "abilityType": "su"
  },
  "effects": [],
  "folder": null,
  "sort": 0,
  "permission": {
    "default": 0
  },
  "flags": {}
}
