{
  "_id": "EE45HrjellECS5f9",
  "name": "Mind Patron",
  "type": "feat",
  "img": "systems/pf1/icons/feats/improved-familiar.jpg",
  "data": {
    "description": {
      "value": "<ul>\n<li>2nd — @Compendium[pf1.spells.ojtxej8ir6nycrtr]{Mindlink}</li>\n<li>4th — @Compendium[pf1.spells.sh36xp1aey9ipk65]{Mental Block}</li>\n<li>6th — @Compendium[pf1.spells.90xaelj2ncuzq62n]{Mindscape Door}</li>\n<li>8th — @Compendium[pf1.spells.nn4gjuby3uovsv78]{Create Mindscape}</li>\n<li>10th — @Compendium[pf1.spells.v8jb71nag8rwiwps]{Psychic Asylum}</li>\n<li>12th — @Compendium[pf1.spells.c14tjrds5emxk417]{Create Mindscape, Greater}</li>\n<li>14th — @Compendium[pf1.spells.21yha04trfhj0ehd]{Psychic Surgery}</li>\n<li>16th — @Compendium[pf1.spells.2vb5orfcy57lrfmc]{Moment of Prescience}</li>\n<li>18th — @Compendium[pf1.spells.esugpfcs3zwbujt1]{Microcosm}</li>\n</ul>"
    },
    "tags": [],
    "actions": [],
    "attackNotes": [],
    "effectNotes": [],
    "changes": [],
    "contextNotes": [],
    "links": {
      "children": [],
      "charges": []
    },
    "tag": "classFeat_mindPatron",
    "useCustomTag": true,
    "armorProf": {
      "value": []
    },
    "weaponProf": {
      "value": []
    },
    "languages": {
      "value": []
    },
    "scriptCalls": [],
    "featType": "classFeat",
    "associations": {
      "classes": [["Witch"]]
    }
  },
  "effects": [],
  "folder": null,
  "sort": 0,
  "permission": {
    "default": 0
  },
  "flags": {}
}
