{
  "_id": "b1txSbfgjrQKmkSM",
  "name": "Moon Patron",
  "type": "feat",
  "img": "systems/pf1/icons/feats/improved-familiar.jpg",
  "data": {
    "description": {
      "value": "<ul>\n<li>2nd — @Compendium[pf1.spells.tsndfcfijmgxs37p]{Darkness}</li>\n<li>4th — @Compendium[pf1.spells.mz9yr5yhr0f3oqtp]{Darkvision}</li>\n<li>6th — @Compendium[pf1.spells.b9ggsagifzk4fwut]{Owl's Wisdom}</li>\n<li>8th — @Compendium[pf1.spells.2mh7g81k30bv7b5m]{Moonstruck}</li>\n<li>10th — @Compendium[pf1.spells.knjoprwzcm3jygwk]{Aspect of the Wolf}</li>\n<li>12th — @Compendium[pf1.spells.7yf67b7y4byj96w7]{Control Water}</li>\n<li>14th — @Compendium[pf1.spells.8rf2ucrtzmxooyw6]{Lunar Veil}</li>\n<li>16th — @Compendium[pf1.spells.e8zen5nzixnt7bde]{Horrid Wilting}</li>\n<li>18th — @Compendium[pf1.spells.xhzme0v6tjq95fg6]{Meteor Swarm}</li>\n</ul>"
    },
    "tags": [],
    "actions": [],
    "attackNotes": [],
    "effectNotes": [],
    "changes": [],
    "contextNotes": [],
    "links": {
      "children": [],
      "charges": []
    },
    "tag": "classFeat_moonPatron",
    "useCustomTag": true,
    "armorProf": {
      "value": []
    },
    "weaponProf": {
      "value": []
    },
    "languages": {
      "value": []
    },
    "scriptCalls": [],
    "featType": "classFeat",
    "associations": {
      "classes": [["Witch"]]
    }
  },
  "effects": [],
  "folder": null,
  "sort": 0,
  "permission": {
    "default": 0
  },
  "flags": {}
}
