{
  "_id": "J4BXQyrUH1GCVN0v",
  "name": "Morphic Weaponry",
  "type": "feat",
  "img": "systems/pf1/icons/feats/deceitful.jpg",
  "data": {
    "description": {
      "value": "<p>The vigilante can shape his body into weaponry. This acts as the&nbsp;<a href=\"https://www.aonprd.com/ArchetypeDisplay.aspx?FixedName=Shifter%20Oozemorph%20Shifter\">oozemorph shifter’s morphic weaponry</a>&nbsp;ability, treating the vigilante’s level as his shifter level.</p>\n<p>The vigilante must have the shapechanger subtype to select this talent.</p>"
    },
    "tags": [],
    "actions": [],
    "attackNotes": [],
    "effectNotes": [],
    "changes": [],
    "contextNotes": [],
    "links": {
      "children": [],
      "charges": []
    },
    "tag": "classFeat_morphicWeaponry",
    "useCustomTag": true,
    "armorProf": {
      "value": []
    },
    "weaponProf": {
      "value": []
    },
    "languages": {
      "value": []
    },
    "scriptCalls": [],
    "featType": "classFeat",
    "associations": {
      "classes": [["Vigilante"]]
    },
    "abilityType": "ex"
  },
  "effects": [],
  "folder": null,
  "sort": 0,
  "permission": {
    "default": 0
  },
  "flags": {}
}
