{
  "_id": "aWMTMChacyAlcgYP",
  "name": "Mummification",
  "type": "feat",
  "img": "systems/pf1/icons/items/potions/unique-3.jpg",
  "data": {
    "description": {
      "value": "<p>The alchemist has mastered preserving flesh and applied this knowledge to his own body, turning himself into an undeadlike creature. After learning this discovery, the alchemist must perform a 30-day regimen of a special diet, rigorous exercise, and drinking a mildly poisonous alchemical tea. At the end of this regimen, he falls unconscious for 24 hours, then awakens as a “living mummy.” The alchemist’s type does not change, but he becomes immune to cold, nonlethal damage, paralysis, and sleep.</p>\n<p>An alchemist must be at least 10th level and must have the preserve organs discovery before selecting this discovery.</p>"
    },
    "tags": [],
    "actions": [],
    "attackNotes": [],
    "effectNotes": [],
    "changes": [],
    "contextNotes": [],
    "links": {
      "children": [],
      "charges": []
    },
    "tag": "classFeat_mummification",
    "useCustomTag": true,
    "armorProf": {
      "value": []
    },
    "weaponProf": {
      "value": []
    },
    "languages": {
      "value": []
    },
    "scriptCalls": [],
    "featType": "classFeat",
    "associations": {
      "classes": [["Alchemist"]]
    },
    "abilityType": "ex"
  },
  "effects": [],
  "folder": null,
  "sort": 0,
  "permission": {
    "default": 0
  },
  "flags": {}
}
