{
  "_id": "1eVkW2tKcq78D5GG",
  "name": "Naga Thoughts",
  "type": "feat",
  "img": "systems/pf1/icons/skills/red_05.jpg",
  "data": {
    "description": {
      "value": "<p>At 20th level, when entering a bloodrage, you become immune to charm effects and all forms of mind reading, you gain a +2 bonus on saving throws against other mind-affecting effects, you gain the effects of the spell @Compendium[pf1.spells.nokru6mxk9p3r513]{See Invisibility}, and you can use @Compendium[pf1.spells.xllxylvvqr82o2d5]{Detect Thoughts}&nbsp;at will.</p>"
    },
    "tags": [],
    "actions": [],
    "attackNotes": [],
    "effectNotes": [],
    "changes": [],
    "contextNotes": [],
    "links": {
      "children": [],
      "charges": []
    },
    "tag": "classFeat_nagaThoughts",
    "useCustomTag": true,
    "armorProf": {
      "value": []
    },
    "weaponProf": {
      "value": []
    },
    "languages": {
      "value": []
    },
    "scriptCalls": [],
    "featType": "classFeat",
    "associations": {
      "classes": [["Bloodrager"]]
    },
    "abilityType": "sp"
  },
  "effects": [],
  "folder": null,
  "sort": 0,
  "permission": {
    "default": 0
  },
  "flags": {}
}
