{
  "_id": "xcbwys8JTF22w8oW",
  "name": "Nanite Bloodline",
  "type": "feat",
  "img": "systems/pf1/icons/skills/violet_02.jpg",
  "data": {
    "description": {
      "value": "<p><em>Your conception was marked by alien influences.</em></p>\n<p><strong>Class Skill(s):</strong>&nbsp;<a href=\"https://www.d20pfsrd.com/skills/knowledge\">Knowledge</a>&nbsp;(engineering).</p>\n<p><strong>Bonus Spells:</strong></p>\n<ul>\n<li>@Compendium[pf1.spells.oj36nfak6jc2s5ky]{Disguise Self}&nbsp;(3rd),</li>\n<li>@Compendium[pf1.spells.22xn589bmr7ginow]{Defensive Shock}&nbsp;(5th),</li>\n<li>@Compendium[pf1.spells.mqdoexj35atgqafn]{Gaseous Form}&nbsp;(7th),</li>\n<li>@Compendium[pf1.spells.frp3ioj2ny5br5ti]{Miasmatic Form} (9th),</li>\n<li>@Compendium[pf1.spells.wuispaydz8jvw3io]{Echolocation}&nbsp;(11th),</li>\n<li>@Compendium[pf1.spells.h4nlrm44ubsyzuhz]{Fluid Form}&nbsp;(13th),</li>\n<li>@Compendium[pf1.spells.u0qadkpm7dglk6kz]{Magnetic Field}(15th),</li>\n<li>@Compendium[pf1.spells.mkrjbrp57yfdqrx0]{Iron Body}&nbsp;(17th),</li>\n<li>@Compendium[pf1.spells.n3lp01euzcdmtbw5]{Shapechange}&nbsp;(19th).</li>\n</ul>\n<p><strong>Bonus Feats:</strong></p>\n<ul>\n<li>@Compendium[pf1.feats.pmAO1Sni8xx71pLF]{Blind-Fight},</li>\n<li>@Compendium[pf1.feats.NFxHebU1XhEs5WJh]{Combat Expertise},</li>\n<li>@Compendium[pf1.feats.JreaiTHdyWFNj3Tb]{Dodge},</li>\n<li>&nbsp;<a href=\"https://www.d20pfsrd.com/feats/general-feats/eldritch-heritage\">Eldritch Heritage</a>,&nbsp;</li>\n<li><a href=\"https://www.d20pfsrd.com/feats/general-feats/expanded-arcana\">Expanded Arcana</a>,</li>\n<li>@Compendium[pf1.feats.711B9WNFgpdDKKf2]{Improved Disarm},</li>\n<li>@Compendium[pf1.feats.0bZf3SDkvVOe2ujH]{Lightning Reflexes},</li>\n<li>@Compendium[pf1.feats.7zJTztNW7hdaqjKc]{Skill Focus}&nbsp;(<a href=\"https://www.d20pfsrd.com/skills/knowledge\">Knowledge</a>&nbsp;[engineering]).</li>\n</ul>\n<p><strong>Bloodline Arcana:</strong> Whenever you cast a spell from the&nbsp;<a href=\"https://www.d20pfsrd.com/magic#TOC-Transmutation\">transmutation</a>&nbsp;school and target only yourself, increase the spell’s duration by 50%. This does not stack with&nbsp;<a href=\"https://www.d20pfsrd.com/feats/metamagic-feats\">metamagic feats</a> or abilities such as @Compendium[pf1.feats.btXWioB3SKJv8YEG]{Extend Spell}.</p>"
    },
    "tags": [],
    "actions": [],
    "attackNotes": [],
    "effectNotes": [],
    "changes": [],
    "contextNotes": [],
    "links": {
      "children": [],
      "charges": []
    },
    "tag": "classFeat_naniteBloodline",
    "useCustomTag": true,
    "armorProf": {
      "value": []
    },
    "weaponProf": {
      "value": []
    },
    "languages": {
      "value": []
    },
    "scriptCalls": [],
    "featType": "classFeat",
    "associations": {
      "classes": [["Sorcerer"]]
    }
  },
  "effects": [],
  "folder": null,
  "sort": 0,
  "permission": {
    "default": 0
  },
  "flags": {}
}
