{
  "_id": "BPtLB9XvCtD4i5aq",
  "name": "Notorious Fool",
  "type": "feat",
  "img": "systems/pf1/icons/skills/light_07.jpg",
  "data": {
    "description": {
      "value": "<p>While in his social identity, the vigilante can feign absentmindedness, clumsiness, drunkenness, or eccentricity very convincingly. When he fails an opposed Sleight of Hand or Stealth check while in his social identity, he can immediately attempt a Bluff check opposed by the onlookers’ Sense Motive checks to appear as though he had only blundered or stumbled in a spectacular fashion. If he succeeds at this Bluff check, the onlookers do not realize the vigilante was attempting the action that prompted him to attempt a Sleight of Hand or Stealth check, although being in the wrong place or behaving in an inappropriate manner may still have negative consequences.</p>\n<p>This talent is ineffective against any onlooker who has already witnessed the vigilante faking a blunder within the last 24 hours.</p>"
    },
    "tags": [],
    "actions": [],
    "attackNotes": [],
    "effectNotes": [],
    "changes": [],
    "contextNotes": [],
    "links": {
      "children": [],
      "charges": []
    },
    "tag": "classFeat_notoriousFool",
    "useCustomTag": true,
    "armorProf": {
      "value": []
    },
    "weaponProf": {
      "value": []
    },
    "languages": {
      "value": []
    },
    "scriptCalls": [],
    "featType": "classFeat",
    "associations": {
      "classes": [["Vigilante"]]
    },
    "abilityType": "ex"
  },
  "effects": [],
  "folder": null,
  "sort": 0,
  "permission": {
    "default": 0
  },
  "flags": {}
}
