{
  "_id": "J78j38q4DT3qc64L",
  "name": "Obscurity",
  "type": "feat",
  "img": "systems/pf1/icons/skills/light_07.jpg",
  "data": {
    "description": {
      "value": "<p>The vigilante is relatively unknown socially. In fact, he makes a point of keeping the life of his social identity as ordinary as possible. This social talent functions exactly as the renown social talent, but instead of improving the starting attitude of all NPCs within the community, it empowers the vigilante so that he no longer needs to succeed at Disguise checks to appear as his social identity while assuming that identity within his area of obscurity. He still has to attempt Disguise checks when NPCs within this settlement are confronted with indisputable proof that the vigilante could be more than he appears to be, such as when he uses a vigilante talent while in his social identity. This social talent counts as renown for the purpose of meeting the prerequisites of social talents that list renown as a prerequisite and can be improved by such talents.</p>\n<p>A vigilante with this talent cannot select renown, nor can he select any social talent that requires him to be famous (such as celebrity discount or celebrity perks).</p>"
    },
    "tags": [],
    "actions": [],
    "attackNotes": [],
    "effectNotes": [],
    "changes": [],
    "contextNotes": [],
    "links": {
      "children": [],
      "charges": []
    },
    "tag": "classFeat_obscurity",
    "useCustomTag": true,
    "armorProf": {
      "value": []
    },
    "weaponProf": {
      "value": []
    },
    "languages": {
      "value": []
    },
    "scriptCalls": [],
    "featType": "classFeat",
    "associations": {
      "classes": [["Vigilante"]]
    },
    "abilityType": "ex"
  },
  "effects": [],
  "folder": null,
  "sort": 0,
  "permission": {
    "default": 0
  },
  "flags": {}
}
