{
  "_id": "2d3o2zJ9J5MHde2A",
  "name": "Occult Final Revelation",
  "type": "feat",
  "img": "systems/pf1/icons/spells/light-royal-1.jpg",
  "data": {
    "description": {
      "value": "<p>Upon reaching 20th level, you become one with the spirits. You become immune to death effects, exhaustion, fatigue, nausea, negative levels, and the sickened condition. You can cast @Compendium[pf1.spells.lnahlmp5mih2ongh]{Astral Projection} and @Compendium[pf1.spells.jbqo4o2b2tmdz7wv]{True Seeing} once per day as spell-like abilities without requiring material components. Should you die, you rise again 2d4 days later as a ghost.</p>"
    },
    "tags": [],
    "actions": [],
    "attackNotes": [],
    "effectNotes": [],
    "changes": [],
    "contextNotes": [],
    "links": {
      "children": [],
      "charges": []
    },
    "tag": "classFeat_occultFinalRevelation",
    "useCustomTag": true,
    "armorProf": {
      "value": []
    },
    "weaponProf": {
      "value": []
    },
    "languages": {
      "value": []
    },
    "scriptCalls": [],
    "featType": "classFeat",
    "associations": {
      "classes": [["Oracle"]]
    }
  },
  "effects": [],
  "folder": null,
  "sort": 0,
  "permission": {
    "default": 0
  },
  "flags": {}
}
