{
  "_id": "TzN3TCCp5ySlZkbv",
  "name": "Oni Bloodline",
  "type": "feat",
  "img": "systems/pf1/icons/skills/red_29.jpg",
  "data": {
    "description": {
      "value": "<p><em>As slaves of capricious oni lords, your ancestors were forced to yield to their masters’ hedonistic desires, inevitably tainting their descendants with oni blood. Now, you wield the powers of the oni thanks to your vile heritage.</em></p>\n<p><strong>Class Skill:</strong>&nbsp;<a href=\"https://www.d20pfsrd.com/skills/disguise\">Disguise</a>.</p>\n<p><strong>Bonus Spells:</strong></p>\n<ul>\n<li>@Compendium[pf1.spells.mczdgwo3xl8c6e26]{Ray Of Enfeeblement}&nbsp;(3rd),</li>\n<li>@Compendium[pf1.spells.oylikodnyku2zewu]{Invisibility}&nbsp;(5th),</li>\n<li>@Compendium[pf1.spells.7d6sv5ecvi7kho3m]{Fly}&nbsp;(7th),</li>\n<li>@Compendium[pf1.spells.smbkd2yobhshbpqf]{Charm Monster} (9th),</li>\n<li>@Compendium[pf1.spells.pkm8um5t1cxsn6jh]{Cone of Cold}&nbsp;(11th),</li>\n<li>@Compendium[pf1.spells.e5kw4dwf9qwty6tl]{Dispel Magic, Greater}&nbsp;(13th),</li>\n<li>@Compendium[pf1.spells.9f3hf9h3j8q8062b]{Waves of Exhaustion}&nbsp;(15th),</li>\n<li>@Compendium[pf1.spells.xmkvpl56appk20cl]{Trap the Soul}&nbsp;(17th),</li>\n<li>@Compendium[pf1.spells.66s5qm8kwycgobce]{Dominate Monster}&nbsp;(19th).</li>\n</ul>\n<p><strong>Bonus Feats:</strong></p>\n<ul>\n<li>@Compendium[pf1.feats.NFxHebU1XhEs5WJh]{Combat Expertise},</li>\n<li>@Compendium[pf1.feats.h9nHYLxXvIXBTmup]{Combat Reflexes},&nbsp;</li>\n<li><a href=\"https://www.d20pfsrd.com/feats/combat-feats/enforcer-combat\">Enforcer</a>,</li>\n<li>&nbsp;<a href=\"https://www.d20pfsrd.com/feats/general-feats/fast-healer\">Fast Healer</a>,</li>\n<li>@Compendium[pf1.feats.Uuiu3p982omhMEPj]{Improved Initiative},&nbsp;</li>\n<li>@Compendium[pf1.feats.iAbIGhm7T2OK9Brt]{Iron Will},</li>\n<li>@Compendium[pf1.feats.FUW5mIXHNBBIQ1Sq]{Power Attack},</li>\n<li>@Compendium[pf1.feats.7zJTztNW7hdaqjKc]{Skill Focus}&nbsp;(<a href=\"https://www.d20pfsrd.com/skills/intimidate\">Intimidate</a>),</li>\n<li>@Compendium[pf1.feats.BJBC4lbo7xGWPsKJ]{Exotic Weapon Proficiency} (<a href=\"https://www.d20pfsrd.com/equipment/weapons/weapon-descriptions/katana\">katana</a>)</li>\n</ul>\n<p><strong>Bloodline Arcana:</strong> Whenever you cast a spell of the&nbsp;<a href=\"https://www.d20pfsrd.com/magic#TOC-Enchantment-Charm\">charm</a>&nbsp;or&nbsp;<a href=\"https://www.d20pfsrd.com/magic#TOC-Enchantment-Compulsion\">compulsion</a>&nbsp;subschool, you gain a bonus on&nbsp;<a href=\"https://www.d20pfsrd.com/skills/bluff\">Bluff</a>,&nbsp;<a href=\"https://www.d20pfsrd.com/skills/diplomacy\">Diplomacy</a>, and&nbsp;<a href=\"https://www.d20pfsrd.com/skills/intimidate\">Intimidate</a>&nbsp;skill checks equal to the level of the spell for 1d4 rounds.</p>"
    },
    "tags": [],
    "actions": [],
    "attackNotes": [],
    "effectNotes": [],
    "changes": [],
    "contextNotes": [],
    "links": {
      "children": [],
      "charges": []
    },
    "tag": "classFeat_oniBloodline",
    "useCustomTag": true,
    "armorProf": {
      "value": []
    },
    "weaponProf": {
      "value": []
    },
    "languages": {
      "value": []
    },
    "scriptCalls": [],
    "featType": "classFeat",
    "associations": {
      "classes": [["Sorcerer"]]
    }
  },
  "effects": [],
  "folder": null,
  "sort": 0,
  "permission": {
    "default": 0
  },
  "flags": {}
}
