{
  "_id": "NzKHtzRolI7iysUs",
  "name": "Outer Rifts Mystery",
  "type": "feat",
  "img": "systems/pf1/icons/spells/light-magenta-2.jpg",
  "data": {
    "description": {
      "value": "<p><strong>Class Skills:</strong> An oracle with the Outer Rifts mystery adds Fly, Intimidate, Knowledge (arcana), and Survival to her list of class skills.<br><br><strong>Bonus Spells:</strong>&nbsp;</p>\n<ul>\n<li>@Compendium[pf1.spells.pau0ejk30fs1eebl]{Endure Elements} (2nd),&nbsp;</li>\n<li>@Compendium[pf1.spells.tkjnm3lw7ni82tag]{Resist Energy} (4th),&nbsp;</li>\n<li>@Compendium[pf1.spells.uus00fo4fn7yro0w]{Vermin Shape I} (6th),&nbsp;</li>\n<li>@Compendium[pf1.spells.n0bsyxchnigkkuqo]{Confusion} (8th),</li>\n<li>@Compendium[pf1.spells.y4b1zmhmsa0gvf06]{Planar Binding, Lesser} (10th),</li>\n<li>@Compendium[pf1.spells.qf4bqjgeff1q4hjt]{Planar Binding} (12th),</li>\n<li>@Compendium[pf1.spells.s6q72tw2zra9sycu]{Insanity} (14th),</li>\n<li>@Compendium[pf1.spells.bbmd0fj17jsf5300]{Planar Binding, Greater} (16th),</li>\n<li>@Compendium[pf1.spells.esia6azb5g68tfs7]{Imprisonment} (18th).</li>\n</ul>"
    },
    "tags": [],
    "actions": [],
    "attackNotes": [],
    "effectNotes": [],
    "changes": [],
    "contextNotes": [],
    "links": {
      "children": [],
      "charges": []
    },
    "tag": "classFeat_outerRiftsMystery",
    "useCustomTag": true,
    "armorProf": {
      "value": []
    },
    "weaponProf": {
      "value": []
    },
    "languages": {
      "value": []
    },
    "scriptCalls": [],
    "featType": "classFeat",
    "associations": {
      "classes": [["Oracle"]]
    }
  },
  "effects": [],
  "folder": null,
  "sort": 0,
  "permission": {
    "default": 0
  },
  "flags": {}
}
