{
  "_id": "ByZBsqXi9uhbPSJn",
  "name": "Potent Magic",
  "type": "feat",
  "img": "systems/pf1/icons/spells/runes-blue-2.jpg",
  "data": {
    "description": {
      "value": "<p>Whenever the arcanist expends 1 point from her arcane reservoir to increase the caster level of a spell, the caster level increases by 2 instead of 1. Whenever she expends 1 point from her arcane reservoir to increase the spell’s DC, it increases by 2 instead of 1.</p>"
    },
    "tags": [],
    "actions": [],
    "attackNotes": [],
    "effectNotes": [],
    "changes": [],
    "contextNotes": [],
    "links": {
      "children": [],
      "charges": []
    },
    "tag": "classFeat_potentMagic",
    "useCustomTag": true,
    "armorProf": {
      "value": []
    },
    "weaponProf": {
      "value": []
    },
    "languages": {
      "value": []
    },
    "scriptCalls": [],
    "featType": "classFeat",
    "associations": {
      "classes": [["Arcanist"]]
    },
    "abilityType": "su"
  },
  "effects": [],
  "folder": null,
  "sort": 0,
  "permission": {
    "default": 0
  },
  "flags": {}
}
