{
  "_id": "OvZRDJEdT6x95AS3",
  "name": "Rabbit Punch (UC)",
  "type": "feat",
  "img": "systems/pf1/icons/skills/yellow_08.jpg",
  "data": {
    "description": {
      "value": "<p>The monk gives a sharp blow to the back of a foe’s head. The critical threat range and critical multiplier of this strike increase by 1, and the monk gains a +2 bonus on attack rolls to confirm a critical hit with this strike. This increase is not doubled by @Compendium[pf1.feats.TbOPtIL8Fv8obXtP]{Improved Critical}&nbsp;or similar effects. Creatures without a discernible head are unaffected by this style strike (subject to GM discretion).</p>\n<p>The monk must attack with a fist to use this style strike.</p>"
    },
    "tags": [],
    "actions": [],
    "attackNotes": [],
    "effectNotes": [],
    "changes": [],
    "contextNotes": [],
    "links": {
      "children": [],
      "charges": []
    },
    "tag": "classFeat_rabbitPunchUc",
    "useCustomTag": true,
    "armorProf": {
      "value": []
    },
    "weaponProf": {
      "value": []
    },
    "languages": {
      "value": []
    },
    "scriptCalls": [],
    "featType": "classFeat",
    "associations": {
      "classes": [["Monk (Unchained)"]]
    },
    "abilityType": "ex"
  },
  "effects": [],
  "folder": null,
  "sort": 0,
  "permission": {
    "default": 0
  },
  "flags": {}
}
