{
  "_id": "LwwjHf6ORZKi0tTa",
  "name": "Radiation Subdomain",
  "type": "feat",
  "img": "systems/pf1/icons/skills/green_11.jpg",
  "data": {
    "description": {
      "value": "<p><strong>Replacement Domain Spells: </strong></p>\n<ul>\n<li>2nd—@Compendium[pf1.spells.sq5lzym6a8mmfl7l]{Defoliate}</li>\n<li>4th—@Compendium[pf1.spells.gq7np9mwtfd500zg]{Blight}</li>\n<li>8th—@Compendium[pf1.spells.e8zen5nzixnt7bde]{Horrid Wilting}</li>\n</ul>"
    },
    "tags": [],
    "actions": [],
    "attackNotes": [],
    "effectNotes": [],
    "changes": [],
    "contextNotes": [],
    "links": {
      "children": [],
      "charges": []
    },
    "tag": "classFeat_radiationSubdomain",
    "useCustomTag": true,
    "armorProf": {
      "value": []
    },
    "weaponProf": {
      "value": []
    },
    "languages": {
      "value": []
    },
    "scriptCalls": [],
    "featType": "classFeat",
    "associations": {
      "classes": [["Cleric"]]
    }
  },
  "effects": [],
  "folder": null,
  "sort": 0,
  "permission": {
    "default": 0
  },
  "flags": {}
}
