{
  "_id": "1ie3iNIxuGE54rYl",
  "name": "Rakshasa Bloodline",
  "type": "feat",
  "img": "systems/pf1/icons/skills/beast_01.jpg",
  "data": {
    "description": {
      "value": "<p><em>At some point in your family’s history, one of your ancestors was tainted by the influence of a rakshasa. Though most of your family seem entirely normal, you have always felt your own skin is a prison from which magic allows you to escape. Your birthright is a secret you may be forced to keep from societies that would never deal with you if your heritage were known.</em></p>\n<p><strong>Class Skill:</strong>&nbsp;<a href=\"https://www.d20pfsrd.com/skills/disguise\">Disguise</a>.</p>\n<p><strong>Bonus Spells:</strong></p>\n<ul>\n<li>@Compendium[pf1.spells.tjog6bufg5b08lvq]{Charm Person}&nbsp;(3rd),</li>\n<li>@Compendium[pf1.spells.oylikodnyku2zewu]{Invisibility}&nbsp;(5th),</li>\n<li>@Compendium[pf1.spells.zqj5qzyl46af27v0]{Suggestion}&nbsp;(7th),</li>\n<li>@Compendium[pf1.spells.viq93vkjaungdbul]{Detect Scrying}&nbsp;(9th),</li>\n<li>@Compendium[pf1.spells.68quvqg93a3da02z]{Prying Eyes}&nbsp;(11th),</li>\n<li>@Compendium[pf1.spells.52v3fogun1n9jzum]{Suggestion, Mass}&nbsp;(13th),</li>\n<li>@Compendium[pf1.spells.t44p3oeq43jwcgwg]{Polymorph, Greater}&nbsp;(15th),</li>\n<li>@Compendium[pf1.spells.blvetbc929cfx4m8]{Mind Blank}&nbsp;(17th),</li>\n<li>@Compendium[pf1.spells.66s5qm8kwycgobce]{Dominate Monster}&nbsp;(19th).</li>\n</ul>\n<p><strong>Bonus Feats:</strong></p>\n<ul>\n<li>@Compendium[pf1.feats.aUYSiYrtVHkgfHD6]{Arcane Armor Mastery},</li>\n<li>@Compendium[pf1.feats.3v85ul6tGGBZbtBg]{Arcane Armor Training},</li>\n<li>@Compendium[pf1.feats.SUACufUXl12sUvnQ]{Deceitful},&nbsp;</li>\n<li><a href=\"https://www.d20pfsrd.com/feats/general-feats/detect-expertise\">Detect Expertise</a>,</li>\n<li>@Compendium[pf1.feats.77gXSucrxfrE9yWk]{Empower Spell},</li>\n<li>@Compendium[pf1.feats.FszchlqR39lnNduC]{Armor Proficiency, Light},</li>\n<li>@Compendium[pf1.feats.IPfsLy9sWXF6IBP1]{Martial Weapon Proficiency},</li>\n<li>@Compendium[pf1.feats.f5FPqAYWlKj3zCIY]{Stealthy}.</li>\n</ul>\n<p><strong>Bloodline Arcana:</strong> Add half your sorcerer level to the&nbsp;<a href=\"https://www.d20pfsrd.com/skills/spellcraft\">Spellcraft</a>&nbsp;DC for others to identify spells you cast. If their checks fail by 5 or more, they mistakenly believe you are casting an entirely different spell (selected by you when you begin casting).</p>"
    },
    "tags": [],
    "actions": [],
    "attackNotes": [],
    "effectNotes": [],
    "changes": [],
    "contextNotes": [],
    "links": {
      "children": [],
      "charges": []
    },
    "tag": "classFeat_rakshasaBloodline",
    "useCustomTag": true,
    "armorProf": {
      "value": []
    },
    "weaponProf": {
      "value": []
    },
    "languages": {
      "value": []
    },
    "scriptCalls": [],
    "featType": "classFeat",
    "associations": {
      "classes": [["Sorcerer"]]
    }
  },
  "effects": [],
  "folder": null,
  "sort": 0,
  "permission": {
    "default": 0
  },
  "flags": {}
}
