{
  "_id": "xc1rCVaQNyX5baqa",
  "name": "Ranger Combat Style",
  "type": "feat",
  "img": "systems/pf1/icons/items/weapons/rhoka.PNG",
  "data": {
    "description": {
      "value": "<p>The slayer selects a ranger combat style (such as archery or two-weapon combat) and gains a combat feat from the first feat list of that style. He can choose feats from his selected combat style, even if he does not have the normal prerequisites.</p>\n<p>At 6th level, he may select this talent again and add the 6th-level ranger combat feats from his chosen style to the list.</p>\n<p>At 10th level, he may select this talent again and add the 10th-level ranger combat feats from his chosen style to the list.</p>"
    },
    "tags": [],
    "actions": [],
    "attackNotes": [],
    "effectNotes": [],
    "changes": [],
    "contextNotes": [],
    "links": {
      "children": [],
      "charges": []
    },
    "tag": "classFeat_rangerCombatStyle",
    "useCustomTag": true,
    "armorProf": {
      "value": []
    },
    "weaponProf": {
      "value": []
    },
    "languages": {
      "value": []
    },
    "scriptCalls": [],
    "featType": "classFeat",
    "associations": {
      "classes": [["Slayer"]]
    },
    "abilityType": "ex"
  },
  "effects": [],
  "folder": null,
  "sort": 0,
  "permission": {
    "default": 0
  },
  "flags": {}
}
