{
  "_id": "EU4QFnhLJFceLNjZ",
  "name": "Redirect Spell",
  "type": "feat",
  "img": "systems/pf1/icons/spells/runes-blue-3.jpg",
  "data": {
    "description": {
      "value": "<p>The arcanist can gain control of a spell cast by another spellcaster. As a standard action by expending 1 point from her arcane reservoir, the arcanist can make a caster level check opposed by the creature controlling the spell. If the arcanist is successful, she can direct the spell as a free action for 1 round, making any decisions allowed by the spell. This only functions on spells that can be directed or changed once they have been cast, such as @Compendium[pf1.spells.lzos34s87qsc620l]{Flaming Sphere}&nbsp;or @Compendium[pf1.spells.avofn5q2v0f0qxjy]{Spiritual Weapon}. The spell returns to its owner’s control at the start of the arcanist’s next turn, unless the arcanist expends another point from her arcane reservoir at the start of her turn to extend the duration of control by another round. She can continue to control the spell for as long as the spell lasts, provided she keeps spending points from her arcane reservoir.</p>"
    },
    "tags": [],
    "actions": [
      {
        "_id": "3qpsgguyvwmoulg6",
        "name": "Use",
        "img": "systems/pf1/icons/spells/runes-blue-3.jpg",
        "description": "",
        "activation": {
          "cost": 1,
          "type": "standard"
        },
        "unchainedAction": {
          "activation": {
            "cost": 2,
            "type": "action"
          }
        },
        "duration": {
          "value": null,
          "units": ""
        },
        "target": {
          "value": ""
        },
        "range": {
          "value": null,
          "units": "",
          "maxIncrements": 1,
          "minValue": null,
          "minUnits": ""
        },
        "uses": {
          "autoDeductCharges": true,
          "autoDeductChargesCost": "1",
          "per": "",
          "value": 0,
          "maxFormula": ""
        },
        "measureTemplate": {
          "type": "",
          "size": "",
          "overrideColor": false,
          "customColor": "",
          "overrideTexture": false,
          "customTexture": ""
        },
        "attackName": "",
        "actionType": "",
        "attackBonus": "",
        "critConfirmBonus": "",
        "damage": {
          "parts": [],
          "critParts": [],
          "nonCritParts": []
        },
        "attackParts": [],
        "formulaicAttacks": {
          "count": {
            "formula": ""
          },
          "bonus": {
            "formula": ""
          },
          "label": null
        },
        "formula": "",
        "ability": {
          "attack": null,
          "damage": null,
          "damageMult": 1,
          "critRange": 20,
          "critMult": 2
        },
        "save": {
          "dc": 0,
          "type": "",
          "description": ""
        },
        "effectNotes": [],
        "attackNotes": [],
        "soundEffect": "",
        "powerAttack": {
          "multiplier": "",
          "damageBonus": 2,
          "critMultiplier": 1
        },
        "naturalAttack": {
          "secondary": {
            "attackBonus": "-5",
            "damageMult": 0.5
          }
        },
        "nonlethal": false,
        "usesAmmo": false,
        "spellEffect": "",
        "spellArea": "",
        "conditionals": [],
        "enh": {
          "override": false,
          "value": 0
        }
      }
    ],
    "uses": {
      "per": ""
    },
    "attackNotes": [],
    "effectNotes": [],
    "changes": [],
    "contextNotes": [],
    "links": {
      "children": [],
      "charges": []
    },
    "tag": "classFeat_redirectSpell",
    "useCustomTag": true,
    "armorProf": {
      "value": []
    },
    "weaponProf": {
      "value": []
    },
    "languages": {
      "value": []
    },
    "scriptCalls": [],
    "featType": "classFeat",
    "associations": {
      "classes": [["Arcanist"]]
    },
    "abilityType": "su"
  },
  "effects": [],
  "folder": null,
  "sort": 0,
  "permission": {
    "default": 0
  },
  "flags": {}
}
