{
  "_id": "hl2Tfxip98tJzodz",
  "name": "Salamander Bloodrager Bloodline",
  "type": "feat",
  "img": "systems/pf1/icons/skills/red_13.jpg",
  "data": {
    "description": {
      "value": "<p><em>Salamanders are fierce warriors and master smiths, and you wield their might and mastery of metal by birthright.</em><br><br>Bonus Feats:</p>\n<ul>\n<li>@Compendium[pf1.feats.Zeq6RWYv5otvg8q7]{Cleave}</li>\n<li>@Compendium[pf1.feats.ZmQkRk93nbHxsQSt]{Improved Grapple}</li>\n<li>@Compendium[pf1.feats.cKxfEL5XOWuzLhfO]{Improved Iron Will}</li>\n<li>@Compendium[pf1.feats.iAbIGhm7T2OK9Brt]{Iron Will}</li>\n<li>@Compendium[pf1.feats.FUW5mIXHNBBIQ1Sq]{Power Attack}</li>\n<li>@Compendium[pf1.feats.7zJTztNW7hdaqjKc]{Skill Focus} (Perception),</li>\n<li>@Compendium[pf1.feats.8snLqsJN4LLL00Nq]{Toughness}</li>\n</ul>\n<p>Bonus Spells:</p>\n<ul>\n<li>@Compendium[pf1.spells.d0rd4z2kcln69xif]{Lead Blades} (7th),&nbsp;</li>\n<li>@Compendium[pf1.spells.x23pz2agjub1eh89]{Make Whole} (10th),&nbsp;</li>\n<li>@Compendium[pf1.spells.vjnynvz1omleni8a]{Versatile Weapon} (13th),&nbsp;</li>\n<li>@Compendium[pf1.spells.nfm6i9z9r3n2fku7]{Fire Shield} (warm only) (16th).</li>\n</ul>"
    },
    "tags": [],
    "actions": [],
    "attackNotes": [],
    "effectNotes": [],
    "changes": [],
    "contextNotes": [],
    "links": {
      "children": [],
      "charges": []
    },
    "tag": "classFeat_salamanderBloodragerBloodline",
    "useCustomTag": true,
    "armorProf": {
      "value": []
    },
    "weaponProf": {
      "value": []
    },
    "languages": {
      "value": []
    },
    "scriptCalls": [],
    "featType": "classFeat",
    "associations": {
      "classes": [["Bloodrager"]]
    }
  },
  "effects": [],
  "folder": null,
  "sort": 0,
  "permission": {
    "default": 0
  },
  "flags": {}
}
