{
  "_id": "V01ci3HBfeb29OBN",
  "name": "Scorpion Aspect",
  "type": "feat",
  "img": "systems/pf1/icons/skills/blue_29.jpg",
  "data": {
    "description": {
      "value": "<p><em>The aspect of the scorpion invokes a hidden menace with a poisonous sting.</em><br><br><strong>Minor Form:</strong> You gain a +2 competence bonus on Stealth checks and grapple combat maneuver checks.</p>\n<p>This bonus increases to +4 at 8th level and +6 at 15th level.<br><br><strong>Major Form:</strong> Your shape changes to that of a&nbsp;<a href=\"https://www.aonprd.com/MonsterDisplay.aspx?ItemName=Giant%20Scorpion\">giant scorpion</a>. While in this form, you gain darkvision with a range of 60 feet,&nbsp;<a href=\"https://www.aonprd.com/UMR.aspx?ItemName=Tremorsense\">tremorsense</a>&nbsp;with a range of 10 feet, two primary claw attacks (1d6) with the&nbsp;<a href=\"https://www.aonprd.com/UMR.aspx?ItemName=Grab\">grab</a>&nbsp;ability, and a secondary sting attack (1d6).</p>\n<p>At 8th level, the range of your tremorsense increases to 20 feet, and you gain a +4 racial bonus on Climb and Perception checks.</p>\n<p>At 15th level, when you make an attack of opportunity with your sting attack or maintain a grapple and deal damage with your sting attack, that attack also applies the following poison.<br><br><em>Poison (Ex):</em> Sting—injury;&nbsp;save&nbsp;Fort DC = 10 + half your shifter level + your Constitution modifier;&nbsp;frequency&nbsp;1/ round for 6 rounds;&nbsp;effect&nbsp;1d3 Strength damage;&nbsp;cure&nbsp;2 consecutive saves.<br><br><strong>Alternate Natural Attacks:</strong> Pincers (B), sting (P)</p>"
    },
    "tags": [],
    "actions": [],
    "attackNotes": [],
    "effectNotes": [],
    "changes": [],
    "contextNotes": [],
    "links": {
      "children": [],
      "charges": []
    },
    "tag": "classFeat_scorpionAspect",
    "useCustomTag": true,
    "armorProf": {
      "value": []
    },
    "weaponProf": {
      "value": []
    },
    "languages": {
      "value": []
    },
    "scriptCalls": [],
    "featType": "classFeat",
    "associations": {
      "classes": [["Shifter"]]
    }
  },
  "effects": [],
  "folder": null,
  "sort": 0,
  "permission": {
    "default": 0
  },
  "flags": {}
}
