{
  "_id": "Owu0KhwUC4v9JUwB",
  "name": "Scryer Subschool",
  "type": "feat",
  "img": "systems/pf1/icons/spells/protect-blue-3.jpg",
  "data": {
    "description": {
      "value": "<p><strong>Associated School:</strong>&nbsp;<a href=\"https://www.d20pfsrd.com/magic#TOC-Divination\">Divination</a>.</p>\n<p><strong>Replacement Power:</strong> This subschool replaces the diviner’s fortune power of the&nbsp;<a href=\"https://www.d20pfsrd.com/magic#TOC-Divination\">divination</a>&nbsp;school.</p>"
    },
    "tags": [],
    "actions": [],
    "attackNotes": [],
    "effectNotes": [],
    "changes": [],
    "contextNotes": [],
    "links": {
      "children": [],
      "charges": []
    },
    "tag": "classFeat_scryerSubschool",
    "useCustomTag": true,
    "armorProf": {
      "value": []
    },
    "weaponProf": {
      "value": []
    },
    "languages": {
      "value": []
    },
    "scriptCalls": [],
    "featType": "classFeat",
    "associations": {
      "classes": [["Wizard"]]
    }
  },
  "effects": [],
  "folder": null,
  "sort": 0,
  "permission": {
    "default": 0
  },
  "flags": {}
}
