{
  "_id": "TMpfSlpC7To6uXGE",
  "name": "Seamless Guise",
  "type": "feat",
  "img": "systems/pf1/icons/skills/shadow_11.jpg",
  "data": {
    "description": {
      "value": "<p>A vigilante knows how to behave in a way that appears perfectly proper and normal for his current identity. Should anyone suspect him of being anything other than what he appears to be while either in his social or vigilante identity, he can attempt a Disguise check with a +20 circumstance bonus to appear as his current identity, and not as his other identity.</p>"
    },
    "tags": [],
    "actions": [],
    "attackNotes": [],
    "effectNotes": [],
    "changes": [],
    "contextNotes": [],
    "links": {
      "children": [],
      "charges": []
    },
    "tag": "classFeat_seamlessGuise",
    "useCustomTag": true,
    "armorProf": {
      "value": []
    },
    "weaponProf": {
      "value": []
    },
    "languages": {
      "value": []
    },
    "scriptCalls": [],
    "featType": "classFeat",
    "associations": {
      "classes": [["Vigilante"]]
    },
    "abilityType": "ex"
  },
  "effects": [],
  "folder": null,
  "sort": 0,
  "permission": {
    "default": 0
  },
  "flags": {}
}
