{
  "_id": "y71i2BSyAYXOrZOz",
  "name": "Self-Perfection Discipline",
  "type": "feat",
  "img": "systems/pf1/icons/spells/slice-spirit-3.jpg",
  "data": {
    "description": {
      "value": "<p>You take a holistic view of psychic power, believing that you must hone both your mental and physical attributes to remain in balance. The focus you find while exercising, fasting, and otherwise tending to your body broadens your psychic powers.<br><br><strong>Phrenic Pool Ability:</strong> Wisdom<br><br><strong>Bonus Spells:</strong>&nbsp;</p>\n<ul>\n<li>@Compendium[pf1.spells.pysrx5kxfjvsjjsi]{Expeditious Retreat} (1st),&nbsp;</li>\n<li>@Compendium[pf1.spells.usdv1eqvibmxun6x]{Bear's Endurance} (4th),&nbsp;</li>\n<li>@Compendium[pf1.spells.s9amdo5398alb5p0]{Haste} (6th),&nbsp;</li>\n<li>@Compendium[pf1.spells.lvzq2mwkqmozolpl]{Freedom of Movement} (8th),&nbsp;</li>\n<li>@Compendium[pf1.spells.wuispaydz8jvw3io]{Echolocation} (10th),&nbsp;</li>\n<li>@Compendium[pf1.spells.9pbl3ktd5oqejl19]{Transformation} (12th),&nbsp;</li>\n<li>@Compendium[pf1.spells.btccs4sjo2nog1a0]{Ethereal Jaunt} (14th),&nbsp;</li>\n<li>@Compendium[pf1.spells.mkrjbrp57yfdqrx0]{Iron Body} (16th),&nbsp;</li>\n<li>@Compendium[pf1.spells.au6p72aztjhtokwr]{Akashic Form} (18th).</li>\n</ul>"
    },
    "tags": [],
    "actions": [],
    "attackNotes": [],
    "effectNotes": [],
    "changes": [],
    "contextNotes": [],
    "links": {
      "children": [],
      "charges": []
    },
    "tag": "classFeat_selfperfectionDiscipline",
    "useCustomTag": true,
    "armorProf": {
      "value": []
    },
    "weaponProf": {
      "value": []
    },
    "languages": {
      "value": []
    },
    "scriptCalls": [],
    "featType": "classFeat",
    "associations": {
      "classes": [["Psychic"]]
    }
  },
  "effects": [],
  "folder": null,
  "sort": 0,
  "permission": {
    "default": 0
  },
  "flags": {}
}
