{
  "_id": "MG4wDFbCBIx69iNW",
  "name": "Shadow Bloodline",
  "type": "feat",
  "img": "systems/pf1/icons/skills/shadow_17.jpg",
  "data": {
    "description": {
      "value": "<p><em>Spirits from the shadow plane dally at times in the world of light, and such as these lay with your ancestors once upon a time, imparting the mystery of shadow-stuff into your lineage. You are often sullen and withdrawn, preferring to skulk at the fringes of social circles and keep to yourself, cultivating an air of mystery and majesty that is all your own.</em></p>\n<p><strong>Class Skill:</strong>&nbsp;<a href=\"https://www.d20pfsrd.com/skills/stealth\">Stealth</a>.</p>\n<p><strong>Bonus Spells:</strong></p>\n<ul>\n<li>@Compendium[pf1.spells.mczdgwo3xl8c6e26]{Ray Of Enfeeblement}&nbsp;(3rd),</li>\n<li>@Compendium[pf1.spells.mz9yr5yhr0f3oqtp]{Darkvision}&nbsp;(5th),</li>\n<li>@Compendium[pf1.spells.jdsvncnna6oy189a]{Deeper Darkness}&nbsp;(7th),</li>\n<li>@Compendium[pf1.spells.ed7fvzc2p4m6n7a2]{Shadow Conjuration}&nbsp;(9th),</li>\n<li>@Compendium[pf1.spells.2q48ogrz3840xwi7]{Shadow Evocation}&nbsp;(11th),</li>\n<li>@Compendium[pf1.spells.btoow6tyv39443gh]{Shadow Walk}&nbsp;(13th),</li>\n<li>@Compendium[pf1.spells.gado7zyg5knc83ir]{Power Word Blind}&nbsp;(15th),</li>\n<li>@Compendium[pf1.spells.967ur7a9xepd704y]{Shadow Evocation, Greater}&nbsp;(17th),</li>\n<li>@Compendium[pf1.spells.xxaycxbdsmalf5ov]{Shades}&nbsp;(19th).</li>\n</ul>\n<p><strong>Bonus Feats:</strong></p>\n<ul>\n<li>@Compendium[pf1.feats.jCxcObXJfdDrx4WS]{Acrobatic},</li>\n<li>@Compendium[pf1.feats.pmAO1Sni8xx71pLF]{Blind-Fight},</li>\n<li>@Compendium[pf1.feats.JreaiTHdyWFNj3Tb]{Dodge},</li>\n<li>@Compendium[pf1.feats.WKIVfdosc5SqYzmP]{Quick Draw},</li>\n<li>@Compendium[pf1.feats.2YuxcUNFMPNBpekG]{Silent Spell},</li>\n<li>@Compendium[pf1.feats.7zJTztNW7hdaqjKc]{Skill Focus}&nbsp;(<a href=\"https://www.d20pfsrd.com/skills/stealth\">Stealth</a>),</li>\n<li>@Compendium[pf1.feats.f5FPqAYWlKj3zCIY]{Stealthy},</li>\n<li>@Compendium[pf1.feats.vWiTqHC4Y3Xn1Pme]{Weapon Finesse}.</li>\n</ul>\n<p><a name=\"TOC-Bloodline-Arcana\"></a><strong>Bloodline Arcana:</strong> Whenever you cast a spell with the [darkness] descriptor or the shadow subschool, you gain a&nbsp;<a href=\"https://www.d20pfsrd.com/basics-ability-scores/glossary#TOC-Circumstance-Bonus\">circumstance bonus</a>&nbsp;on&nbsp;<a href=\"https://www.d20pfsrd.com/skills/stealth\">Stealth</a>&nbsp;checks equal to the spell’s level for 1d4 rounds.</p>"
    },
    "tags": [],
    "actions": [],
    "attackNotes": [],
    "effectNotes": [],
    "changes": [],
    "contextNotes": [],
    "links": {
      "children": [],
      "charges": []
    },
    "tag": "classFeat_shadowBloodline",
    "useCustomTag": true,
    "armorProf": {
      "value": []
    },
    "weaponProf": {
      "value": []
    },
    "languages": {
      "value": []
    },
    "scriptCalls": [],
    "featType": "classFeat",
    "associations": {
      "classes": [["Sorcerer"]]
    }
  },
  "effects": [],
  "folder": null,
  "sort": 0,
  "permission": {
    "default": 0
  },
  "flags": {}
}
