{
  "_id": "p9NfZDfgIe8APGCf",
  "name": "Shadow Subschool",
  "type": "feat",
  "img": "systems/pf1/icons/spells/rip-sky-1.jpg",
  "data": {
    "description": {
      "value": "<p><strong>Associated School:</strong>&nbsp;<a href=\"https://www.d20pfsrd.com/classes/core-classes/wizard/arcane-schools/paizo-arcane-schools/classic-arcane-schools/illusion\">Illusion</a>.</p>\n<p><strong>Replacement Powers:</strong> This subschool replaces the blinding ray and invisibility field powers of the <a href=\"https://www.d20pfsrd.com/magic#TOC-Illusion\">illusion</a>&nbsp;school.</p>"
    },
    "tags": [],
    "actions": [],
    "attackNotes": [],
    "effectNotes": [],
    "changes": [],
    "contextNotes": [],
    "links": {
      "children": [],
      "charges": []
    },
    "tag": "classFeat_shadowSubschool",
    "useCustomTag": true,
    "armorProf": {
      "value": []
    },
    "weaponProf": {
      "value": []
    },
    "languages": {
      "value": []
    },
    "scriptCalls": [],
    "featType": "classFeat",
    "associations": {
      "classes": [["Wizard"]]
    }
  },
  "effects": [],
  "folder": null,
  "sort": 0,
  "permission": {
    "default": 0
  },
  "flags": {}
}
