{
  "_id": "dHonVAgWi0FW5emG",
  "name": "Shrinewalk",
  "type": "feat",
  "img": "systems/pf1/icons/items/weapons/butterfly-knife.PNG",
  "data": {
    "description": {
      "value": "<p>Council agents can walk the mystic paths between Westcrown’s shrines. A rogue with shrinewalk can create her own shrine simply by designating an area in any urban region by placing a unique marking or rune on a wall or the ground. This marking is not magical, and if it is defaced or erased, it can no longer be used by the rogue (the marking can be hidden from view without removing its usability, including painting over the marking in question). Once placed, the rogue can use&nbsp;word of recall&nbsp;once per day to return to the shrine. A rogue can maintain one shrine at a time; if a new marking is created in a new location, the previous shrine becomes inactive.</p>"
    },
    "tags": [],
    "actions": [],
    "attackNotes": [],
    "effectNotes": [],
    "changes": [],
    "contextNotes": [],
    "links": {
      "children": [],
      "charges": []
    },
    "tag": "classFeat_shrinewalk",
    "useCustomTag": true,
    "armorProf": {
      "value": []
    },
    "weaponProf": {
      "value": []
    },
    "languages": {
      "value": []
    },
    "scriptCalls": [],
    "featType": "classFeat",
    "associations": {
      "classes": [["Rogue"]]
    },
    "abilityType": "sp"
  },
  "effects": [],
  "folder": null,
  "sort": 0,
  "permission": {
    "default": 0
  },
  "flags": {}
}
