{
  "_id": "qbZKbG0wDKtPF5Yu",
  "name": "Spin Kick (UC)",
  "type": "feat",
  "img": "systems/pf1/icons/skills/yellow_08.jpg",
  "data": {
    "description": {
      "value": "<p>The monk spins about, delivering a kick his foe did not expect. The monk makes his attack against the foe’s flat-footed AC. Creatures with the uncanny dodge class feature or a similar effect cannot be caught flat-footed by this style strike.</p>\n<p>The monk must attack with a kick to use this style strike.</p>"
    },
    "tags": [],
    "actions": [],
    "attackNotes": [],
    "effectNotes": [],
    "changes": [],
    "contextNotes": [],
    "links": {
      "children": [],
      "charges": []
    },
    "tag": "classFeat_spinKickUc",
    "useCustomTag": true,
    "armorProf": {
      "value": []
    },
    "weaponProf": {
      "value": []
    },
    "languages": {
      "value": []
    },
    "scriptCalls": [],
    "featType": "classFeat",
    "associations": {
      "classes": [["Monk (Unchained)"]]
    },
    "abilityType": "ex"
  },
  "effects": [],
  "folder": null,
  "sort": 0,
  "permission": {
    "default": 0
  },
  "flags": {}
}
