{
  "_id": "xMec5nKPJxs7aL2T",
  "name": "Strangler",
  "type": "feat",
  "img": "systems/pf1/icons/items/weapons/kunai.png",
  "data": {
    "description": {
      "value": "<p>A ninja with this trick knows how to use a scarf, usually with a coin or large knot, as a lethal garrote. The ninja takes no penalties when using a scarf as an improvised garrote. In addition, as a free action when attempting a grapple combat maneuver check, the ninja can spend 1 ki point to gain the constrict special attack on that maneuver with damage equal to half the ninja’s sneak attack dice (minimum 1d6).</p>"
    },
    "tags": [],
    "actions": [],
    "attackNotes": [],
    "effectNotes": [],
    "changes": [],
    "contextNotes": [],
    "links": {
      "children": [],
      "charges": []
    },
    "tag": "classFeat_strangler",
    "useCustomTag": true,
    "armorProf": {
      "value": []
    },
    "weaponProf": {
      "value": []
    },
    "languages": {
      "value": []
    },
    "scriptCalls": [],
    "featType": "classFeat",
    "associations": {
      "classes": [["Ninja"]]
    },
    "abilityType": "ex"
  },
  "effects": [],
  "folder": null,
  "sort": 0,
  "permission": {
    "default": 0
  },
  "flags": {}
}
