{
  "_id": "DSttK6wis2wZpe4T",
  "name": "Studied Ally",
  "type": "feat",
  "img": "systems/pf1/icons/items/weapons/rhoka.PNG",
  "data": {
    "description": {
      "value": "<p>The slayer can study an ally or friendly creature he can see as a move action. The slayer gains a +1 bonus on checks and attack rolls to use the aid another action to help with that ally’s skill checks, attacks, or AC. This bonus increases at the same rate as a slayer’s studied target bonus.</p>\n<p>At 7th level, a slayer can study an ally as a move or swift action. A slayer’s studied ally counts against the number of studied targets he can have active at once.</p>"
    },
    "tags": [],
    "actions": [],
    "attackNotes": [],
    "effectNotes": [],
    "changes": [],
    "contextNotes": [],
    "links": {
      "children": [],
      "charges": []
    },
    "tag": "classFeat_studiedAlly",
    "useCustomTag": true,
    "armorProf": {
      "value": []
    },
    "weaponProf": {
      "value": []
    },
    "languages": {
      "value": []
    },
    "scriptCalls": [],
    "featType": "classFeat",
    "associations": {
      "classes": [["Slayer"]]
    },
    "abilityType": "ex"
  },
  "effects": [],
  "folder": null,
  "sort": 0,
  "permission": {
    "default": 0
  },
  "flags": {}
}
