{
  "_id": "OjUWyvWC2WDjORSw",
  "name": "Succor Mystery",
  "type": "feat",
  "img": "systems/pf1/icons/spells/light-magenta-2.jpg",
  "data": {
    "description": {
      "value": "<p><strong>Class Skills:</strong> An oracle with the succor mystery adds Handle Animal, Knowledge (nature), and Survival to her list of class skills.<br><br><strong>Bonus Spells:</strong>&nbsp;</p>\n<ul>\n<li>@Compendium[pf1.spells.mczdgwo3xl8c6e26]{Ray Of Enfeeblement} (2nd),&nbsp;</li>\n<li>@Compendium[pf1.spells.qc7vnye0x975gxdf]{Shield Of Fortification} (4th),&nbsp;</li>\n<li>@Compendium[pf1.spells.lisojmynoblunlex]{Coordinated Effort} (6th),&nbsp;</li>\n<li>@Compendium[pf1.spells.rxenoze8iyh9iyng]{Shield Of Fortification, Greater} (8th),&nbsp;</li>\n<li>@Compendium[pf1.spells.knyako6zopc1chrv]{Stoneskin} (10th),&nbsp;</li>\n<li>@Compendium[pf1.spells.z0duc2v2n3ioynta]{Heroism, Greater} (12th),&nbsp;</li>\n<li>@Compendium[pf1.spells.uuzeynxotp9dzu15]{Expend} (14th),&nbsp;</li>\n<li>@Compendium[pf1.spells.cc0or00vpiky87n7]{Spellcrash, Greater} (16th),&nbsp;</li>\n<li>@Compendium[pf1.spells.77bihy40diufd6p1]{Wall of Suppression} (18th).</li>\n</ul>"
    },
    "tags": [],
    "actions": [],
    "attackNotes": [],
    "effectNotes": [],
    "changes": [],
    "contextNotes": [],
    "links": {
      "children": [],
      "charges": []
    },
    "tag": "classFeat_succorMystery",
    "useCustomTag": true,
    "armorProf": {
      "value": []
    },
    "weaponProf": {
      "value": []
    },
    "languages": {
      "value": []
    },
    "scriptCalls": [],
    "featType": "classFeat",
    "associations": {
      "classes": [["Oracle"]]
    }
  },
  "effects": [],
  "folder": null,
  "sort": 0,
  "permission": {
    "default": 0
  },
  "flags": {}
}
