{
  "_id": "yTfzAVpEYSJaPQVZ",
  "name": "Summoner's Charm",
  "type": "feat",
  "img": "systems/pf1/icons/spells/haste-sky-1.jpg",
  "data": {
    "description": {
      "value": "<p>Whenever you cast a conjuration (<a href=\"https://www.d20pfsrd.com/magic#TOC-Conjuration\" rel=\"nofollow\">summoning</a>) spell, increase the duration by a number of rounds equal to 1/2 your wizard level (minimum 1). This increase is not doubled by @Compendium[pf1.feats.btXWioB3SKJv8YEG]{Extend Spell}. At 20th level, you can change the duration of all&nbsp;<a href=\"https://www.d20pfsrd.com/magic/all-spells/s/summon-monster\" rel=\"nofollow\">summon monster</a>&nbsp;spells to permanent. You can have no more than one&nbsp;summon monster&nbsp;spell made permanent in this way at one time. If you designate another&nbsp;<a href=\"https://www.d20pfsrd.com/magic/all-spells/s/summon-monster\" rel=\"nofollow\">summon monster</a>&nbsp;spell as permanent, the previous spell immediately ends.</p>"
    },
    "tags": [],
    "actions": [
      {
        "_id": "6mkcnenxw6wkg6nx",
        "name": "Use",
        "img": "systems/pf1/icons/spells/haste-sky-1.jpg",
        "description": "",
        "activation": {
          "cost": 1,
          "type": "passive"
        },
        "unchainedAction": {
          "activation": {
            "cost": 1,
            "type": "passive"
          }
        },
        "duration": {
          "value": null,
          "units": ""
        },
        "target": {
          "value": ""
        },
        "range": {
          "value": null,
          "units": "",
          "maxIncrements": 1,
          "minValue": null,
          "minUnits": ""
        },
        "uses": {
          "autoDeductCharges": true,
          "autoDeductChargesCost": "1",
          "per": "",
          "value": 0,
          "maxFormula": ""
        },
        "measureTemplate": {
          "type": "",
          "size": "0",
          "overrideColor": false,
          "customColor": "",
          "overrideTexture": false,
          "customTexture": ""
        },
        "attackName": "",
        "actionType": "",
        "attackBonus": "",
        "critConfirmBonus": "",
        "damage": {
          "parts": [],
          "critParts": [],
          "nonCritParts": []
        },
        "attackParts": [],
        "formulaicAttacks": {
          "count": {
            "formula": ""
          },
          "bonus": {
            "formula": ""
          },
          "label": null
        },
        "formula": "",
        "ability": {
          "attack": null,
          "damage": null,
          "damageMult": 1,
          "critRange": 20,
          "critMult": 2
        },
        "save": {
          "dc": 0,
          "type": "",
          "description": ""
        },
        "effectNotes": [],
        "attackNotes": [],
        "soundEffect": "",
        "powerAttack": {
          "multiplier": "",
          "damageBonus": 2,
          "critMultiplier": 1
        },
        "naturalAttack": {
          "secondary": {
            "attackBonus": "-5",
            "damageMult": 0.5
          }
        },
        "nonlethal": false,
        "usesAmmo": false,
        "spellEffect": "",
        "spellArea": "",
        "conditionals": [],
        "enh": {
          "override": false,
          "value": 0
        }
      }
    ],
    "uses": {
      "per": ""
    },
    "attackNotes": [],
    "effectNotes": [],
    "changes": [],
    "contextNotes": [],
    "links": {
      "children": [],
      "charges": []
    },
    "tag": "classFeat_summonersCharm",
    "useCustomTag": true,
    "armorProf": {
      "value": []
    },
    "weaponProf": {
      "value": []
    },
    "languages": {
      "value": []
    },
    "scriptCalls": [],
    "featType": "classFeat",
    "associations": {
      "classes": [["Wizard"]]
    },
    "abilityType": "su"
  },
  "effects": [],
  "folder": null,
  "sort": 0,
  "permission": {
    "default": 0
  },
  "flags": {}
}
