{
  "_id": "VPbJP5AlyNKL7DxW",
  "name": "Supernatural Trap",
  "type": "feat",
  "img": "systems/pf1/icons/spells/rock-orange-1.jpg",
  "data": {
    "description": {
      "value": "<p>At 8th level, select a supernatural ranger trap (Pathfinder RPG Ultimate Magic&nbsp;64). You can use this trap a number of times per day equal to your Wisdom bonus. The DCs for Perception checks, Disable Device checks, and saving throws against the trap are equal to 10 + 1/2 your character level + your Wisdom bonus. The trap lasts for 1 hour or until triggered.</p>\n<p>This power replaces the Dancing Weapons power of the Artifice Domain.</p>"
    },
    "tags": [],
    "actions": [
      {
        "_id": "rw9ll990khhda7t6",
        "name": "Use",
        "img": "systems/pf1/icons/spells/rock-orange-1.jpg",
        "description": "",
        "activation": {
          "cost": 1,
          "type": "free"
        },
        "unchainedAction": {
          "activation": {
            "cost": 1,
            "type": "free"
          }
        },
        "duration": {
          "value": null,
          "units": ""
        },
        "target": {
          "value": ""
        },
        "range": {
          "value": null,
          "units": "",
          "maxIncrements": 1,
          "minValue": null,
          "minUnits": ""
        },
        "uses": {
          "autoDeductCharges": true,
          "autoDeductChargesCost": "1",
          "per": "day",
          "value": 0,
          "maxFormula": "@abilities.wis.mod"
        },
        "measureTemplate": {
          "type": "",
          "size": "0",
          "overrideColor": false,
          "customColor": "",
          "overrideTexture": false,
          "customTexture": ""
        },
        "attackName": "",
        "actionType": "",
        "attackBonus": "",
        "critConfirmBonus": "",
        "damage": {
          "parts": [],
          "critParts": [],
          "nonCritParts": []
        },
        "attackParts": [],
        "formulaicAttacks": {
          "count": {
            "formula": ""
          },
          "bonus": {
            "formula": ""
          },
          "label": null
        },
        "formula": "",
        "ability": {
          "attack": null,
          "damage": null,
          "damageMult": 1,
          "critRange": 20,
          "critMult": 2
        },
        "save": {
          "dc": 0,
          "type": "",
          "description": ""
        },
        "effectNotes": [],
        "attackNotes": [],
        "soundEffect": "",
        "powerAttack": {
          "multiplier": "",
          "damageBonus": 2,
          "critMultiplier": 1
        },
        "naturalAttack": {
          "secondary": {
            "attackBonus": "-5",
            "damageMult": 0.5
          }
        },
        "nonlethal": false,
        "usesAmmo": false,
        "spellEffect": "",
        "spellArea": "",
        "conditionals": [],
        "enh": {
          "override": false,
          "value": 0
        }
      }
    ],
    "uses": {
      "per": "day",
      "maxFormula": "@abilities.wis.mod"
    },
    "attackNotes": [],
    "effectNotes": [],
    "changes": [],
    "contextNotes": [],
    "links": {
      "children": [],
      "charges": []
    },
    "tag": "classFeat_supernaturalTrap",
    "useCustomTag": true,
    "armorProf": {
      "value": []
    },
    "weaponProf": {
      "value": []
    },
    "languages": {
      "value": []
    },
    "scriptCalls": [],
    "featType": "classFeat",
    "associations": {
      "classes": [["Cleric"]]
    },
    "abilityType": "su"
  },
  "effects": [],
  "folder": null,
  "sort": 0,
  "permission": {
    "default": 0
  },
  "flags": {}
}
