{
  "_id": "pZaZcT8gMPQGX9Ur",
  "name": "Supreme Charge",
  "type": "feat",
  "img": "systems/pf1/icons/feats/spirited-charge.jpg",
  "data": {
    "description": {
      "value": "<p>At 20th level, whenever the cavalier makes a&nbsp;<a href=\"https://www.d20pfsrd.com/gamemastering/combat#TOC-Charge\">charge</a>&nbsp;attack while mounted, he deals double the normal amount of&nbsp;<a href=\"https://www.d20pfsrd.com/gamemastering/combat#TOC-Damage\">damage</a>&nbsp;(or triple if using a lance). In addition, if the cavalier confirms a critical hit on a&nbsp;<a href=\"https://www.d20pfsrd.com/gamemastering/combat#TOC-Charge\">charge</a>&nbsp;attack while mounted, the target is&nbsp;<a href=\"https://www.d20pfsrd.com/gamemastering/conditions#TOC-Stunned\">stunned</a>&nbsp;for 1d4 rounds. A&nbsp;<a href=\"https://www.d20pfsrd.com/gamemastering/combat#TOC-Will\">Will</a>&nbsp;save reduces this to&nbsp;<a href=\"https://www.d20pfsrd.com/gamemastering/conditions#TOC-Staggered\">staggered</a>&nbsp;for 1d4 rounds. The DC is equal to 10 + the cavalier’s base&nbsp;<a href=\"https://www.d20pfsrd.com/gamemastering/combat#TOC-Attack-Bonus\">attack bonus</a>.</p>"
    },
    "tags": [],
    "actions": [],
    "attackNotes": [],
    "effectNotes": [],
    "changes": [],
    "contextNotes": [],
    "links": {
      "children": [],
      "charges": []
    },
    "tag": "classFeat_supremeCharge",
    "useCustomTag": true,
    "armorProf": {
      "value": []
    },
    "weaponProf": {
      "value": []
    },
    "languages": {
      "value": []
    },
    "scriptCalls": [],
    "featType": "classFeat",
    "associations": {
      "classes": [["Cavalier"]]
    },
    "abilityType": "ex"
  },
  "effects": [],
  "folder": null,
  "sort": 0,
  "permission": {
    "default": 0
  },
  "flags": {}
}
