{
  "_id": "xK9vbndKeY5I1qIS",
  "name": "Swarming Attack",
  "type": "feat",
  "img": "systems/pf1/icons/items/weapons/kunai.png",
  "data": {
    "description": {
      "value": "<p>Ratfolk ninjas use their large numbers to overwhelm their enemies with countless attacks. While using the swarming racial trait to share a space with an ally, a ninja with this talent gains a bonus on damage roles equal to the number of sneak attack dice her ally has. For example, a ninja would gain +3 damage if her ally has sneak attack 3d6.</p>"
    },
    "tags": [],
    "actions": [],
    "attackNotes": [],
    "effectNotes": [],
    "changes": [],
    "contextNotes": [],
    "links": {
      "children": [],
      "charges": []
    },
    "tag": "classFeat_swarmingAttack",
    "useCustomTag": true,
    "armorProf": {
      "value": []
    },
    "weaponProf": {
      "value": []
    },
    "languages": {
      "value": []
    },
    "scriptCalls": [],
    "featType": "classFeat",
    "associations": {
      "classes": [["Ninja"]]
    }
  },
  "effects": [],
  "folder": null,
  "sort": 0,
  "permission": {
    "default": 0
  },
  "flags": {}
}
