{
  "_id": "c5anvABG4nXco4pn",
  "name": "Swift Consume",
  "type": "feat",
  "img": "systems/pf1/icons/spells/runes-blue-2.jpg",
  "data": {
    "description": {
      "value": "<p>The arcanist can use the consume spells class feature or the consume magic items exploit as swift actions instead of as move actions.</p>"
    },
    "tags": [],
    "actions": [],
    "attackNotes": [],
    "effectNotes": [],
    "changes": [],
    "contextNotes": [],
    "links": {
      "children": [],
      "charges": []
    },
    "tag": "classFeat_swiftConsume",
    "useCustomTag": true,
    "armorProf": {
      "value": []
    },
    "weaponProf": {
      "value": []
    },
    "languages": {
      "value": []
    },
    "scriptCalls": [],
    "featType": "classFeat",
    "associations": {
      "classes": [["Arcanist"]]
    },
    "abilityType": "ex"
  },
  "effects": [],
  "folder": null,
  "sort": 0,
  "permission": {
    "default": 0
  },
  "flags": {}
}
