{
  "_id": "YKyAQ2o5Yzox79B8",
  "name": "Tactician",
  "type": "feat",
  "img": "systems/pf1/icons/feats/strike-back.jpg",
  "data": {
    "description": {
      "value": "<p>At 1st level, a cavalier receives a&nbsp;<a href=\"https://aonprd.com/Feats.aspx?Category=Teamwork\">teamwork feat</a>&nbsp;as a bonus feat. He must meet the prerequisites for this feat. As a standard action, the cavalier can grant this feat to all allies within 30 feet who can see and hear him. Allies retain the use of this bonus feat for 3 rounds plus 1 round for every two levels the cavalier possesses. Allies do not need to meet the prerequisites of these bonus feats. The cavalier can use this ability once per day at 1st level, plus one additional time per day at 5th level and for every 5 levels thereafter.</p>"
    },
    "tags": [],
    "actions": [
      {
        "_id": "di9rwlddtwhr7g9c",
        "name": "Use",
        "img": "systems/pf1/icons/feats/strike-back.jpg",
        "description": "",
        "activation": {
          "cost": 1,
          "type": "standard"
        },
        "unchainedAction": {
          "activation": {
            "cost": 2,
            "type": "action"
          }
        },
        "duration": {
          "value": "3 + floor(@classes.cavalier.level / 2)",
          "units": "round"
        },
        "target": {
          "value": "one ally"
        },
        "range": {
          "value": "30",
          "units": "ft",
          "maxIncrements": 1,
          "minValue": null,
          "minUnits": ""
        },
        "uses": {
          "autoDeductCharges": true,
          "autoDeductChargesCost": "1",
          "per": "day",
          "value": 0,
          "maxFormula": "1 + floor(@classes.cavalier.level / 5)"
        },
        "measureTemplate": {
          "type": "",
          "size": "0",
          "overrideColor": false,
          "customColor": "",
          "overrideTexture": false,
          "customTexture": ""
        },
        "attackName": "",
        "actionType": "",
        "attackBonus": "",
        "critConfirmBonus": "",
        "damage": {
          "parts": [],
          "critParts": [],
          "nonCritParts": []
        },
        "attackParts": [],
        "formulaicAttacks": {
          "count": {
            "formula": ""
          },
          "bonus": {
            "formula": ""
          },
          "label": null
        },
        "formula": "",
        "ability": {
          "attack": null,
          "damage": null,
          "damageMult": 1,
          "critRange": 20,
          "critMult": 2
        },
        "save": {
          "dc": 0,
          "type": "",
          "description": ""
        },
        "effectNotes": [],
        "attackNotes": [],
        "soundEffect": "",
        "powerAttack": {
          "multiplier": "",
          "damageBonus": 2,
          "critMultiplier": 1
        },
        "naturalAttack": {
          "secondary": {
            "attackBonus": "-5",
            "damageMult": 0.5
          }
        },
        "nonlethal": false,
        "usesAmmo": false,
        "spellEffect": "",
        "spellArea": "",
        "conditionals": [],
        "enh": {
          "override": false,
          "value": 0
        }
      }
    ],
    "uses": {
      "per": "day",
      "maxFormula": "1 + floor(@classes.cavalier.level / 5)"
    },
    "attackNotes": [],
    "effectNotes": [],
    "changes": [
      {
        "_id": "9v2eqx97",
        "formula": "1",
        "operator": "add",
        "subTarget": "init",
        "modifier": "trait",
        "priority": 0,
        "value": 1,
        "target": "misc"
      }
    ],
    "contextNotes": [],
    "links": {
      "children": [],
      "charges": []
    },
    "tag": "classFeat_tactician",
    "useCustomTag": true,
    "armorProf": {
      "value": []
    },
    "weaponProf": {
      "value": []
    },
    "languages": {
      "value": []
    },
    "scriptCalls": [],
    "featType": "classFeat",
    "associations": {
      "classes": [["Cavalier"]]
    },
    "abilityType": "ex"
  },
  "effects": [],
  "folder": null,
  "sort": 0,
  "permission": {
    "default": 0
  },
  "flags": {}
}
