{
  "_id": "fmRXYuupqjHgFBCB",
  "name": "Tentacle Mass (UC) (1 pt)",
  "type": "feat",
  "img": "systems/pf1/icons/skills/blue_26.jpg",
  "data": {
    "description": {
      "value": "<p><strong>Requirements: </strong>Aberrant subtype.</p>\n<p>The eidolon grows a thick mass of tentacles that can be used as a primary natural weapon. The tentacles deal 1d8 points of damage if the eidolon is Medium. Eidolons with the grab evolution that is linked to a tentacle mass can use that ability to grapple foes of up to the eidolon’s size, and they can also use this evolution in place of the serpentine base form to qualify for the constrict evolution.&nbsp;</p>"
    },
    "tags": [],
    "actions": [],
    "attackNotes": [],
    "effectNotes": [],
    "changes": [],
    "contextNotes": [],
    "links": {
      "children": [],
      "charges": []
    },
    "tag": "classFeat_tentacleMassUc1Pt",
    "useCustomTag": true,
    "armorProf": {
      "value": []
    },
    "weaponProf": {
      "value": []
    },
    "languages": {
      "value": []
    },
    "scriptCalls": [],
    "featType": "classFeat",
    "associations": {
      "classes": [["Eidolon (Unchained)"]]
    },
    "abilityType": "ex"
  },
  "effects": [],
  "folder": null,
  "sort": 0,
  "permission": {
    "default": 0
  },
  "flags": {}
}
