{
  "_id": "LIb8sgvAtUL7r11Q",
  "name": "Thirst Subdomain",
  "type": "feat",
  "img": "systems/pf1/icons/skills/yellow_39.jpg",
  "data": {
    "description": {
      "value": "<p><strong>Replacement Domain Spells:</strong></p>\n<ul>\n<li>3rd—@Compendium[pf1.spells.ds011sdiv3d8c86w]{Cup Of Dust}</li>\n<li>9th—@Compendium[pf1.spells.e8zen5nzixnt7bde]{Horrid Wilting}</li>\n</ul>"
    },
    "tags": [],
    "actions": [],
    "attackNotes": [],
    "effectNotes": [],
    "changes": [],
    "contextNotes": [],
    "links": {
      "children": [],
      "charges": []
    },
    "tag": "classFeat_thirstSubdomain",
    "useCustomTag": true,
    "armorProf": {
      "value": []
    },
    "weaponProf": {
      "value": []
    },
    "languages": {
      "value": []
    },
    "scriptCalls": [],
    "featType": "classFeat",
    "associations": {
      "classes": [["Cleric"]]
    }
  },
  "effects": [],
  "folder": null,
  "sort": 0,
  "permission": {
    "default": 0
  },
  "flags": {}
}
