{
  "_id": "7a930CN37xb968mP",
  "name": "Travel Domain",
  "type": "feat",
  "img": "systems/pf1/icons/spells/wind-grasp-air-1.jpg",
  "data": {
    "description": {
      "value": "<p><strong>Granted Powers:</strong> You are an explorer and find enlightenment in the simple joy of travel, be it by foot or conveyance or magic. Increase your base speed by 10 feet.</p>\n<p><strong>Domain Spells: </strong></p>\n<ul>\n<li>1st—@Compendium[pf1.spells.hosf489xyoexmp57]{Longstrider}</li>\n<li>2nd—@Compendium[pf1.spells.tcnirpnzjdaym1fd]{Locate Object}</li>\n<li>3rd—@Compendium[pf1.spells.7d6sv5ecvi7kho3m]{Fly}</li>\n<li>4th—@Compendium[pf1.spells.ojwg1ki98tq8xyh9]{Dimension Door}</li>\n<li>5th—@Compendium[pf1.spells.ptqu8gtrujxsvwy1]{Teleport}</li>\n<li>6th—@Compendium[pf1.spells.x619lrcykmmwts0f]{Find the Path}</li>\n<li>7th—@Compendium[pf1.spells.5cdmojmydhwowzy1]{Teleport, Greater}</li>\n<li>8th—@Compendium[pf1.spells.nq4txj4d0dtzscu2]{Phase Door}</li>\n<li>9th—@Compendium[pf1.spells.lnahlmp5mih2ongh]{Astral Projection}</li>\n</ul>"
    },
    "tags": [],
    "actions": [],
    "attackNotes": [],
    "effectNotes": [],
    "changes": [
      {
        "_id": "l86cr80r",
        "formula": "10",
        "operator": "add",
        "subTarget": "landSpeed",
        "modifier": "base",
        "priority": 0,
        "value": 0,
        "target": "speed"
      }
    ],
    "contextNotes": [],
    "links": {
      "children": [],
      "charges": []
    },
    "tag": "classFeat_travelDomain",
    "useCustomTag": true,
    "armorProf": {
      "value": []
    },
    "weaponProf": {
      "value": []
    },
    "languages": {
      "value": []
    },
    "scriptCalls": [],
    "featType": "classFeat",
    "associations": {
      "classes": [["Cleric"]]
    }
  },
  "effects": [],
  "folder": null,
  "sort": 0,
  "permission": {
    "default": 0
  },
  "flags": {}
}
