{
  "_id": "K3kw9dmcAjDK9JXs",
  "name": "Triumphant Return",
  "type": "feat",
  "img": "systems/pf1/icons/skills/light_07.jpg",
  "data": {
    "description": {
      "value": "<p>The vigilante’s tales are never truly forgotten. This makes it easier to establish his renown in a place he has established it before. In any settlement where the vigilante previously gained renown, it takes only 3 days, rather than 1 week, to gain renown again.</p>\n<p>A vigilante must be at least 3rd level and have the renown social talent to select this talent.</p>"
    },
    "tags": [],
    "actions": [],
    "attackNotes": [],
    "effectNotes": [],
    "changes": [],
    "contextNotes": [],
    "links": {
      "children": [],
      "charges": []
    },
    "tag": "classFeat_triumphantReturn",
    "useCustomTag": true,
    "armorProf": {
      "value": []
    },
    "weaponProf": {
      "value": []
    },
    "languages": {
      "value": []
    },
    "scriptCalls": [],
    "featType": "classFeat",
    "associations": {
      "classes": [["Vigilante"]]
    },
    "abilityType": "ex"
  },
  "effects": [],
  "folder": null,
  "sort": 0,
  "permission": {
    "default": 0
  },
  "flags": {}
}
