{
  "_id": "4TJMm8I6U2vPPeIR",
  "name": "Umbral Gear",
  "type": "feat",
  "img": "systems/pf1/icons/items/weapons/dagger.PNG",
  "data": {
    "description": {
      "value": "<p>As a standard action while in an area of dim light or darkness, a rogue with this talent can coalesce wisps of shadow into a quasi-real, functional item. The rogue must choose whether to make a crowbar, 50 feet of silk rope, a glass cutter, a light melee weapon with which she is proficient, a reversible cloak, thieves’ tools, or a wire saw; the GM may allow other similar items. The rogue can use such items for a number of minutes per day equal to 10 plus her rogue level. This duration does not need to be consecutive, but it must be used in 1-minute increments.<br><br>An item created with this ability remains until the rogue is no longer touching it, or until the rogue runs out of duration for this talent, at which time it dissolves. A rogue can select this talent more than once, gaining an additional 10 minutes of duration each time this talent is selected. If a rogue has selected this talent at least twice, she adds 50 feet of silk rope with a grappling hook, a masterwork light melee weapon with which she is proficient, and masterwork thieves’ tools to the list of things she can create.</p>"
    },
    "tags": [],
    "actions": [
      {
        "_id": "7ujhtsl25050ypa2",
        "name": "Use",
        "img": "systems/pf1/icons/items/weapons/dagger.PNG",
        "description": "",
        "activation": {
          "cost": 1,
          "type": "standard"
        },
        "unchainedAction": {
          "activation": {
            "cost": 2,
            "type": "action"
          }
        },
        "duration": {
          "value": "1",
          "units": "minute"
        },
        "target": {
          "value": "self"
        },
        "range": {
          "value": null,
          "units": "personal",
          "maxIncrements": 1,
          "minValue": null,
          "minUnits": ""
        },
        "uses": {
          "autoDeductCharges": true,
          "autoDeductChargesCost": "1",
          "per": "day",
          "value": 0,
          "maxFormula": "10 + @classes.rogue.level"
        },
        "measureTemplate": {
          "type": "",
          "size": "0",
          "overrideColor": false,
          "customColor": "",
          "overrideTexture": false,
          "customTexture": ""
        },
        "attackName": "",
        "actionType": "",
        "attackBonus": "",
        "critConfirmBonus": "",
        "damage": {
          "parts": [],
          "critParts": [],
          "nonCritParts": []
        },
        "attackParts": [],
        "formulaicAttacks": {
          "count": {
            "formula": ""
          },
          "bonus": {
            "formula": ""
          },
          "label": null
        },
        "formula": "",
        "ability": {
          "attack": null,
          "damage": null,
          "damageMult": 1,
          "critRange": 20,
          "critMult": 2
        },
        "save": {
          "dc": 0,
          "type": "",
          "description": ""
        },
        "effectNotes": [],
        "attackNotes": [],
        "soundEffect": "",
        "powerAttack": {
          "multiplier": "",
          "damageBonus": 2,
          "critMultiplier": 1
        },
        "naturalAttack": {
          "secondary": {
            "attackBonus": "-5",
            "damageMult": 0.5
          }
        },
        "nonlethal": false,
        "usesAmmo": false,
        "spellEffect": "",
        "spellArea": "",
        "conditionals": [],
        "enh": {
          "override": false,
          "value": 0
        }
      }
    ],
    "uses": {
      "per": "day",
      "maxFormula": "10 + @classes.rogue.level"
    },
    "attackNotes": [],
    "effectNotes": [],
    "changes": [],
    "contextNotes": [],
    "links": {
      "children": [],
      "charges": []
    },
    "tag": "classFeat_umbralGear",
    "useCustomTag": true,
    "armorProf": {
      "value": []
    },
    "weaponProf": {
      "value": []
    },
    "languages": {
      "value": []
    },
    "scriptCalls": [],
    "featType": "classFeat",
    "associations": {
      "classes": [["Rogue"]]
    },
    "abilityType": "su"
  },
  "effects": [],
  "folder": null,
  "sort": 0,
  "permission": {
    "default": 0
  },
  "flags": {}
}
