{
  "_id": "tSmRmVuqYPDTyVZY",
  "name": "Universalist School",
  "type": "feat",
  "img": "systems/pf1/icons/items/inventory/pearl.jpg",
  "data": {
    "description": {
      "value": "<p>Wizards who do not specialize (known as as universalists) have the most diversity of all arcane spellcasters.</p>"
    },
    "tags": [],
    "actions": [],
    "attackNotes": [],
    "effectNotes": [],
    "changes": [],
    "contextNotes": [],
    "links": {
      "children": [],
      "charges": []
    },
    "tag": "classFeat_universalistSchool",
    "useCustomTag": true,
    "armorProf": {
      "value": []
    },
    "weaponProf": {
      "value": []
    },
    "languages": {
      "value": []
    },
    "scriptCalls": [],
    "featType": "classFeat",
    "associations": {
      "classes": [["Wizard"]]
    }
  },
  "effects": [],
  "folder": null,
  "sort": 0,
  "permission": {
    "default": 0
  },
  "flags": {}
}
