{
  "_id": "8wPhoiyqd0HQvMl5",
  "name": "Utility Shot",
  "type": "feat",
  "img": "https://ribeirofoundryvtt.s3.us-west-2.amazonaws.com/shared/icons/INV_Engineering_SnipingScope.png",
  "data": {
    "description": {
      "value": "<p style=\"box-sizing: border-box; user-select: text; color: #191813; font-size: 13px;\">At 3rd level, if the gunslinger has at least 1 grit point, she can perform all of the following utility shots. Each utility shot can be applied to any single attack with a firearm, but the gunslinger must declare the utility shot she is using before firing the shot.</p>\n<ul style=\"box-sizing: border-box; user-select: text; color: #191813; font-size: 13px;\">\n<li style=\"box-sizing: border-box; user-select: text; align-items: center;\"><em style=\"box-sizing: border-box; user-select: text;\">Blast Lock:</em>&nbsp;The gunslinger makes an&nbsp;<a style=\"box-sizing: border-box; user-select: text; cursor: url('ui/cursors/pointer.webp'), pointer;\" href=\"https://www.d20pfsrd.com/gamemastering/combat#TOC-Attack-Roll\">attack roll</a>&nbsp;against a lock within the first range increment of her firearm. A Diminutive lock usually has AC 7, and larger locks have a lower AC. The lock gains a bonus to its AC against this attack based on its quality. A simple lock has a +10 bonus to AC, an average lock has a +15 bonus to AC, a good lock has a +20 bonus to AC, and a superior lock has a +30 bonus to AC.&nbsp;<a style=\"box-sizing: border-box; user-select: text; cursor: url('ui/cursors/pointer.webp'), pointer;\" href=\"https://www.d20pfsrd.com/magic/all-spells/a/arcane-lock\">Arcane lock</a>&nbsp;grants a +10 bonus to the AC of a lock against this attack. On a hit, the lock is destroyed, and the object can be opened as if it were unlocked. On a miss, the lock is destroyed, but the object is jammed and still considered locked. It can still be unlocked by successfully performing this deed, by using the&nbsp;<a style=\"box-sizing: border-box; user-select: text; cursor: url('ui/cursors/pointer.webp'), pointer;\" href=\"https://www.d20pfsrd.com/skills/disable-device\">Disable Device</a>&nbsp;skill, or with the break DC, though the DC for either break or&nbsp;<a style=\"box-sizing: border-box; user-select: text; cursor: url('ui/cursors/pointer.webp'), pointer;\" href=\"https://www.d20pfsrd.com/skills/disable-device\">Disable Device</a>&nbsp;or the AC increases by 10. A key, combination, or similar mechanical method of unlocking the lock no longer works, though&nbsp;<a style=\"box-sizing: border-box; user-select: text; cursor: url('ui/cursors/pointer.webp'), pointer;\" href=\"https://www.d20pfsrd.com/magic/all-spells/k/knock\">knock</a>&nbsp;can still be employed to bypass the lock, and the creator of an&nbsp;<a style=\"box-sizing: border-box; user-select: text; cursor: url('ui/cursors/pointer.webp'), pointer;\" href=\"https://www.d20pfsrd.com/magic/all-spells/a/arcane-lock\">arcane lock</a>&nbsp;can still bypass the wards of that spell.</li>\n<li style=\"box-sizing: border-box; user-select: text; align-items: center;\"><em style=\"box-sizing: border-box; user-select: text;\">Scoot Unattended Object:&nbsp;</em>The gunslinger makes an&nbsp;<a style=\"box-sizing: border-box; user-select: text; cursor: url('ui/cursors/pointer.webp'), pointer;\" href=\"https://www.d20pfsrd.com/gamemastering/combat#TOC-Attack-Roll\">attack roll</a>&nbsp;against a Tiny or smaller unattended object within the first range increment of her firearm. A Tiny unattended object has an AC of 5, a Diminutive unattended object has an AC of 7, and a Fine unattended object has an AC of 11. On a hit, the gunslinger does not damage the object with the shot, but can move it up to 15 feet farther away from the shot&rsquo;s origin. On a miss, she damages the object normally.</li>\n<li style=\"box-sizing: border-box; user-select: text; align-items: center;\"><em style=\"box-sizing: border-box; user-select: text;\">Stop Bleeding:&nbsp;</em>The gunslinger makes a firearm attack and then presses the hot barrel against herself or an adjacent creature to staunch a bleeding wound. Instead of dealing damage, the shot ends a single&nbsp;<a style=\"box-sizing: border-box; user-select: text; cursor: url('ui/cursors/pointer.webp'), pointer;\" href=\"https://www.d20pfsrd.com/gamemastering/conditions#TOC-Bleed\">bleed</a>&nbsp;condition affecting the creature. The gunslinger does not have to make an&nbsp;<a style=\"box-sizing: border-box; user-select: text; cursor: url('ui/cursors/pointer.webp'), pointer;\" href=\"https://www.d20pfsrd.com/gamemastering/combat#TOC-Attack-Roll\">attack roll</a> when performing the deed in this way; she can instead shoot the firearm into the air, but that shot still uses up ammunition normally.</li>\n</ul>"
    },
    "tags": [],
    "actions": [
      {
        "_id": "ehuhoh8keb8cg2aa",
        "name": "Use",
        "img": "https://ribeirofoundryvtt.s3.us-west-2.amazonaws.com/shared/icons/INV_Engineering_SnipingScope.png",
        "description": "",
        "activation": {
          "cost": 1,
          "type": "attack"
        },
        "unchainedAction": {
          "activation": {
            "cost": 1,
            "type": "passive"
          }
        },
        "duration": {
          "value": null,
          "units": "inst"
        },
        "target": {
          "value": ""
        },
        "range": {
          "value": null,
          "units": "seeText",
          "maxIncrements": 1,
          "minValue": null,
          "minUnits": "seeText"
        },
        "uses": {
          "autoDeductCharges": false,
          "autoDeductChargesCost": "1",
          "per": "charges",
          "value": null,
          "maxFormula": "@resources.gritGun.value"
        },
        "measureTemplate": {
          "type": "",
          "size": "",
          "overrideColor": false,
          "customColor": "",
          "overrideTexture": false,
          "customTexture": ""
        },
        "attackName": "",
        "actionType": "",
        "attackBonus": "",
        "critConfirmBonus": "",
        "damage": {
          "parts": [],
          "critParts": [],
          "nonCritParts": []
        },
        "attackParts": [],
        "formulaicAttacks": {
          "count": {
            "formula": ""
          },
          "bonus": {
            "formula": ""
          },
          "label": ""
        },
        "formula": "",
        "ability": {
          "attack": "",
          "damage": "",
          "damageMult": 1,
          "critRange": 20,
          "critMult": 2
        },
        "save": {
          "dc": "0",
          "type": "",
          "description": ""
        },
        "effectNotes": [],
        "attackNotes": [],
        "soundEffect": "",
        "powerAttack": {
          "multiplier": "",
          "damageBonus": 2,
          "critMultiplier": 1
        },
        "naturalAttack": {
          "secondary": {
            "attackBonus": "-5",
            "damageMult": 0.5
          }
        },
        "nonlethal": false,
        "usesAmmo": false,
        "spellEffect": "",
        "spellArea": "",
        "conditionals": [],
        "enh": {
          "override": false,
          "value": 0
        }
      }
    ],
    "uses": {
      "per": "charges",
      "value": null,
      "maxFormula": "@resources.gritGun.value"
    },
    "attackNotes": [],
    "effectNotes": [],
    "changes": [],
    "contextNotes": [],
    "links": {
      "children": [],
      "charges": []
    },
    "tag": "classFeat_utilityShot",
    "useCustomTag": true,
    "armorProf": {
      "value": []
    },
    "weaponProf": {
      "value": []
    },
    "languages": {
      "value": []
    },
    "scriptCalls": [],
    "featType": "classFeat",
    "associations": {
      "classes": []
    },
    "abilityType": "ex"
  },
  "effects": [],
  "folder": null,
  "sort": 0,
  "permission": {
    "default": 0
  },
  "flags": {}
}
