{
  "_id": "cYKFrYJHdTHcZ0jQ",
  "name": "Vengeance Patron",
  "type": "feat",
  "img": "systems/pf1/icons/feats/improved-familiar.jpg",
  "data": {
    "description": {
      "value": "<ul>\n<li>2nd — @Compendium[pf1.spells.lndeaqm2j2nvgm6p]{Burning Hands}</li>\n<li>4th — @Compendium[pf1.spells.1wnzvfrpl2gp829u]{Burning Gaze}</li>\n<li>6th — @Compendium[pf1.spells.jy64xofud29j5ju6]{Pain Strike}</li>\n<li>8th — @Compendium[pf1.spells.bacuzpculp9tld48]{Shout}</li>\n<li>10th — @Compendium[pf1.spells.k6nfhf1wvik082wu]{Symbol of Pain}</li>\n<li>12th — @Compendium[pf1.spells.1dkzhi78je32sbrr]{Pain Strike, Mass}</li>\n<li>14th — @Compendium[pf1.spells.6jz03m4lryndt0kd]{Phantasmal Revenge}</li>\n<li>16th — @Compendium[pf1.spells.iq0as5470o8q9y39]{Incendiary Cloud}</li>\n<li>18th — @Compendium[pf1.spells.lun2gymejsmkjg4g]{Winds of Vengeance}</li>\n</ul>"
    },
    "tags": [],
    "actions": [],
    "attackNotes": [],
    "effectNotes": [],
    "changes": [],
    "contextNotes": [],
    "links": {
      "children": [],
      "charges": []
    },
    "tag": "classFeat_vengeancePatron",
    "useCustomTag": true,
    "armorProf": {
      "value": []
    },
    "weaponProf": {
      "value": []
    },
    "languages": {
      "value": []
    },
    "scriptCalls": [],
    "featType": "classFeat",
    "associations": {
      "classes": [["Witch"]]
    }
  },
  "effects": [],
  "folder": null,
  "sort": 0,
  "permission": {
    "default": 0
  },
  "flags": {}
}
