{
  "_id": "Es9ZSosCXfOKwfWa",
  "name": "Venom Speaker",
  "type": "feat",
  "img": "systems/pf1/icons/spells/runes-blue-1.jpg",
  "data": {
    "description": {
      "value": "<p><strong>Element&nbsp;</strong>universal;&nbsp;<strong>Type&nbsp;</strong>utility (Su);&nbsp;<strong>Level&nbsp;</strong>1;&nbsp;<strong>Burn&nbsp;</strong>0</p>\n<p>You gain the&nbsp;<a href=\"https://aonprd.com/ClassDisplay.aspx?ItemName=Investigator\">investigator’s poison lore</a>&nbsp;class feature, using your kineticist level as your investigator level, and can use your gather power ability even while holding a dose of poison in one of your hands or appendages as long as you could otherwise use that ability.</p>\n<p>If you are at least 6th level, you can learn the&nbsp;<a href=\"https://aonprd.com/ClassDisplay.aspx?ItemName=Alchemist\">alchemist’s swift poisoning</a>&nbsp;class feature or one of the following alchemist discoveries in place of a utility wild talent, using your kineticist level as your alchemist level: concentrate poison, poison conversion, or sticky poison.</p>"
    },
    "tags": [],
    "actions": [],
    "attackNotes": [],
    "effectNotes": [],
    "changes": [],
    "contextNotes": [],
    "links": {
      "children": [],
      "charges": []
    },
    "tag": "classFeat_venomSpeaker",
    "useCustomTag": true,
    "armorProf": {
      "value": []
    },
    "weaponProf": {
      "value": []
    },
    "languages": {
      "value": []
    },
    "scriptCalls": [],
    "featType": "classFeat",
    "associations": {
      "classes": [["Kineticist"]]
    },
    "abilityType": "su"
  },
  "effects": [],
  "folder": null,
  "sort": 0,
  "permission": {
    "default": 0
  },
  "flags": {}
}
