{
  "_id": "rZnNTuA8oOSTfKQI",
  "name": "Verdant Call",
  "type": "feat",
  "img": "systems/pf1/icons/skills/red_05.jpg",
  "data": {
    "description": {
      "value": "<p>At 12th level, when entering a bloodrage, as a swift action you can animate nearby plants to aid you in combat, functioning as @Compendium[pf1.spells.nxbk7s19aqjsrpba]{Wilderness Soldiers}, using your Charisma modifier instead of your Wisdom modifier. This effect lasts for as long as you continue bloodraging, regardless of the spell’s normal duration.</p>"
    },
    "tags": [],
    "actions": [],
    "attackNotes": [],
    "effectNotes": [],
    "changes": [],
    "contextNotes": [],
    "links": {
      "children": [],
      "charges": []
    },
    "tag": "classFeat_verdantCall",
    "useCustomTag": true,
    "armorProf": {
      "value": []
    },
    "weaponProf": {
      "value": []
    },
    "languages": {
      "value": []
    },
    "scriptCalls": [],
    "featType": "classFeat",
    "associations": {
      "classes": [["Bloodrager"]]
    },
    "abilityType": "sp"
  },
  "effects": [],
  "folder": null,
  "sort": 0,
  "permission": {
    "default": 0
  },
  "flags": {}
}
