{
  "_id": "lbd5V0DTLBgCOeU2",
  "name": "Verdant Familiar",
  "type": "feat",
  "img": "systems/pf1/icons/skills/violet_02.jpg",
  "data": {
    "description": {
      "value": "<p>The witch’s familiar’s creature type changes to plant, gaining all respective&nbsp;<a href=\"https://www.aonprd.com/UMR.aspx?ItemName=Plant%20Traits\">plant traits</a>.</p>"
    },
    "tags": [],
    "actions": [],
    "attackNotes": [],
    "effectNotes": [],
    "changes": [],
    "contextNotes": [],
    "links": {
      "children": [],
      "charges": []
    },
    "tag": "classFeat_verdantFamiliar",
    "useCustomTag": true,
    "armorProf": {
      "value": []
    },
    "weaponProf": {
      "value": []
    },
    "languages": {
      "value": []
    },
    "scriptCalls": [],
    "featType": "classFeat",
    "associations": {
      "classes": [["Witch"]]
    },
    "abilityType": "ex"
  },
  "effects": [],
  "folder": null,
  "sort": 0,
  "permission": {
    "default": 0
  },
  "flags": {}
}
