{
  "_id": "q5JNaqiDYGOPexh3",
  "name": "Water Sense",
  "type": "feat",
  "img": "systems/pf1/icons/feats/deafening-critical.jpg",
  "data": {
    "description": {
      "value": "<p>The barbarian’s senses are no longer fooled by the rippling surface and confounding reflections seen in water that is being used as cover by her foes. While the barbarian is raging and on land, opponents in the water gain only partial cover from her attacks, instead of improved cover. In addition, while on land and targeting an opponent in water, she takes only a –1 penalty on attacks with ranged weapons (including thrown weapons) for every 5 feet of water they pass through (instead of the usual –2 penalty for every 5 feet of water).</p>"
    },
    "tags": [],
    "actions": [],
    "attackNotes": [],
    "effectNotes": [],
    "changes": [],
    "contextNotes": [],
    "links": {
      "children": [],
      "charges": []
    },
    "tag": "classFeat_waterSense",
    "useCustomTag": true,
    "armorProf": {
      "value": []
    },
    "weaponProf": {
      "value": []
    },
    "languages": {
      "value": []
    },
    "scriptCalls": [],
    "featType": "classFeat",
    "associations": {
      "classes": [["Barbarian"], ["Skald"]]
    },
    "abilityType": "ex"
  },
  "effects": [],
  "folder": null,
  "sort": 0,
  "permission": {
    "default": 0
  },
  "flags": {}
}
