{
  "_id": "7rURVc5madNKCuBW",
  "name": "Waves Final Revelation",
  "type": "feat",
  "img": "systems/pf1/icons/spells/light-royal-1.jpg",
  "data": {
    "description": {
      "value": "<p>Upon reaching 20th level, you become a master of cold and water. You can apply any one of the following feats to any cold or water spell without increasing the level or casting time: @Compendium[pf1.feats.9mcYid7xJY9NiySx]{Enlarge Spell}, @Compendium[pf1.feats.btXWioB3SKJv8YEG]{Extend Spell}, @Compendium[pf1.feats.2YuxcUNFMPNBpekG]{Silent Spell}, or @Compendium[pf1.feats.jVFjMIyQD6TOAsmj]{Still Spell}.</p>"
    },
    "tags": [],
    "actions": [],
    "attackNotes": [],
    "effectNotes": [],
    "changes": [],
    "contextNotes": [],
    "links": {
      "children": [],
      "charges": []
    },
    "tag": "classFeat_wavesFinalRevelation",
    "useCustomTag": true,
    "armorProf": {
      "value": []
    },
    "weaponProf": {
      "value": []
    },
    "languages": {
      "value": []
    },
    "scriptCalls": [],
    "featType": "classFeat",
    "associations": {
      "classes": [["Oracle"]]
    }
  },
  "effects": [],
  "folder": null,
  "sort": 0,
  "permission": {
    "default": 0
  },
  "flags": {}
}
