{
  "_id": "ZTA39rR8AnZcydiu",
  "name": "Deafened",
  "permission": {
    "default": 0
  },
  "folder": "",
  "flags": {},
  "content": "<p>A deafened character cannot hear. He takes a &ndash;4 penalty on&nbsp;<a href=\"https://www.d20pfsrd.com/gamemastering/combat#TOC-Initiative\">initiative</a>&nbsp;checks, automatically fails&nbsp;<a href=\"https://www.d20pfsrd.com/skills/perception\">Perception</a>&nbsp;checks based on sound, takes a &ndash;4 penalty on opposed&nbsp;<a href=\"https://www.d20pfsrd.com/skills/perception\">Perception</a>&nbsp;checks, and has a 20% chance of spell failure when casting spells with verbal&nbsp;<a href=\"https://www.d20pfsrd.com/magic#TOC-Components\">components</a>. Characters who remain deafened for a long time grow accustomed to these drawbacks and can overcome some of them.</p>"
}
