{
  "_id": "nku8mgRBNt0iXqzB",
  "name": "Fatigued",
  "permission": {
    "default": 0
  },
  "folder": "",
  "flags": {},
  "content": "<p>A fatigued character can neither&nbsp;<a href=\"https://www.d20pfsrd.com/gamemastering/combat#TOC-Run\">run</a>&nbsp;nor&nbsp;<a href=\"https://www.d20pfsrd.com/gamemastering/combat#TOC-Charge\">charge</a>&nbsp;and takes a &ndash;2 penalty to&nbsp;<a href=\"https://www.d20pfsrd.com/basics-ability-scores/ability-scores#TOC-Strength-Str-\">Strength</a>&nbsp;and&nbsp;<a href=\"https://www.d20pfsrd.com/basics-ability-scores/ability-scores#TOC-Dexterity-Dex-\">Dexterity</a>. Doing anything that would normally cause fatigue causes the fatigued character to become exhausted. After 8 hours of complete rest, fatigued characters are no longer fatigued.</p>"
}
