{
  "_id": "qLQsdbMorUOjOJWJ",
  "name": "Petrified",
  "permission": {
    "default": 0
  },
  "folder": "",
  "flags": {},
  "content": "<p>A petrified character has been turned to stone and is considered @Compendium[pf1.conditions.bj36eCfZGJG5AGTQ]{Unconscious}. If a petrified character cracks or breaks, but the broken pieces are joined with the body as he returns to flesh, he is unharmed. If the character&rsquo;s petrified body is incomplete when it returns to flesh, the body is likewise incomplete and there is some amount of permanent hit point loss and/or debilitation.</p>"
}
