{
  "_id": "Av5KcblR1Wd68uWY",
  "name": "Prone",
  "permission": {
    "default": 0
  },
  "folder": "",
  "flags": {},
  "content": "<p>The character is lying on the ground. A prone attacker has a –4 penalty on melee attack rolls and cannot use a ranged weapon (except for a crossbow). A prone defender gains a +4 bonus to&nbsp;<a href=\"https://www.d20pfsrd.com/gamemastering/combat#TOC-Armor-Class\">Armor Class</a>&nbsp;against ranged attacks, but takes a –4 penalty to&nbsp;<a href=\"https://www.d20pfsrd.com/gamemastering/combat#TOC-Armor-Class\">AC</a>&nbsp;against melee attacks.</p>\n<p>Standing up is a move-equivalent action that provokes an attack of opportunity.</p>"
}
