{
  "_id": "m1kfr87xoad6xsxd",
  "name": "Aura Alteration",
  "type": "spell",
  "img": "systems/pf1/icons/misc/magic-swirl.png",
  "data": {
    "tags": [],
    "actions": [
      {
        "_id": "aj23fot8es9911m3",
        "name": "Use",
        "img": "systems/pf1/icons/misc/magic-swirl.png",
        "description": "",
        "activation": {
          "cost": 1,
          "type": "standard"
        },
        "unchainedAction": {
          "activation": {
            "cost": 2,
            "type": "action"
          }
        },
        "duration": {
          "value": "1 day/level (D)",
          "units": ""
        },
        "target": {
          "value": "one object or willing creature"
        },
        "range": {
          "value": null,
          "units": "touch",
          "maxIncrements": 1,
          "minValue": null,
          "minUnits": ""
        },
        "uses": {
          "autoDeductCharges": true,
          "autoDeductChargesCost": "1",
          "per": "",
          "value": 0,
          "maxFormula": ""
        },
        "measureTemplate": {
          "type": "",
          "size": "0",
          "overrideColor": false,
          "customColor": "",
          "overrideTexture": false,
          "customTexture": ""
        },
        "attackName": "",
        "actionType": "spellsave",
        "attackBonus": "",
        "critConfirmBonus": "",
        "damage": {
          "parts": [],
          "critParts": [],
          "nonCritParts": []
        },
        "attackParts": [],
        "formulaicAttacks": {
          "count": {
            "formula": ""
          },
          "bonus": {
            "formula": ""
          },
          "label": null
        },
        "formula": "",
        "ability": {
          "attack": "",
          "damage": "",
          "damageMult": 1,
          "critRange": 20,
          "critMult": 2
        },
        "save": {
          "dc": "0",
          "type": "will",
          "description": "Will negates (harmless, object)"
        },
        "effectNotes": [],
        "attackNotes": [],
        "soundEffect": "",
        "powerAttack": {
          "multiplier": "",
          "damageBonus": 2,
          "critMultiplier": 1
        },
        "naturalAttack": {
          "secondary": {
            "attackBonus": "-5",
            "damageMult": 0.5
          }
        },
        "nonlethal": false,
        "usesAmmo": false,
        "spellEffect": "",
        "spellArea": "",
        "conditionals": [],
        "enh": {
          "override": false,
          "value": 0
        }
      }
    ],
    "uses": {
      "per": ""
    },
    "attackNotes": [],
    "effectNotes": [],
    "links": {
      "children": []
    },
    "flags": {
      "boolean": [],
      "dictionary": []
    },
    "scriptCalls": [],
    "learnedAt": {
      "class": [
        ["psychic", 4],
        ["medium", 3],
        ["mesmerist", 3],
        ["occultist", 3],
        ["spiritualist", 4]
      ],
      "domain": [],
      "subDomain": [],
      "elementalSchool": [],
      "bloodline": []
    },
    "level": 4,
    "school": "ill",
    "components": {
      "verbal": true,
      "somatic": true
    },
    "shortDescription": "<p>You mask and manipulate the target creature's or object's aura, confounding those who would attempt to discern helpful information from it using the read aura occult skill unlock (see page 197) or the <i><i>analyze</i> aura</i> spell. You can change each of the following four auras with one casting of <i>aura alteration</i>.  <b>Alignment Aura</b>: You can change the target's apparent alignment to thwart spells that detect alignment, such as <i>detect evil</i>. You can alter the alignment by up to one step on each alignment axis, but can't make the creature appear to have a diametrically opposed alignment. For instance, you couldn't make a lawful evil character appear to be chaotic or good. You can also adjust the power of the alignment aura up or down in level by a number of steps equal to 1/2 your level or fewer.  <b>Emotion Aura</b>: Your manipulations mask the true emotions  of the target, instead depicting any combination of colors on the emotional spectrum that you wish. Creatures attempting Bluff, Diplomacy, Intimidate, or Sense Motive checks against the target receive no bonuses on their checks based on information gleaned from the target's aura.  <b>Health Aura</b>: You adulterate the target's aura to mask the condition of its physical body, revealing instead a wounded status, poison or disease status, and conditions of your choice. You likewise mask the target's available ki points or similar resources, manipulating its aura to suggest any number within the range normally available to the target.  <b>Magic Aura</b>: You alter a creature or item's magic aura so that it registers to <i>detect magic</i> (and spells with similar capabilities, like <i><i>analyze</i> aura</i>) as though it were nonmagical, a magic item of a kind you specify, or the subject of a spell you specify. A single casting of <i>aura alteration</i> is sufficient to mask all of the magic auras on the target. If an object bearing <i>aura alteration</i> has <i>identify</i> cast on it or is similarly examined, the examiner recognizes the aura is false and detects the object's actual qualities if he succeeds at a Will save. If a targeted item's own aura is overwhelming, <i>aura alteration</i> can't alter it.</p>"
  },
  "effects": [],
  "folder": null,
  "sort": 0,
  "permission": {
    "default": 0
  },
  "flags": {}
}
