{
  "_id": "u5rbvasnr78ifrp7",
  "name": "Banish Seeming",
  "type": "spell",
  "img": "systems/pf1/icons/misc/magic-swirl.png",
  "data": {
    "tags": [],
    "actions": [
      {
        "_id": "j6so8y848n9ie03j",
        "name": "Use",
        "img": "systems/pf1/icons/misc/magic-swirl.png",
        "description": "",
        "activation": {
          "cost": 1,
          "type": "standard"
        },
        "unchainedAction": {
          "activation": {
            "cost": 2,
            "type": "action"
          }
        },
        "duration": {
          "value": "instantaneous and 1 round/level; see text",
          "units": ""
        },
        "target": {
          "value": "one creature or object"
        },
        "range": {
          "value": null,
          "units": "touch",
          "maxIncrements": 1,
          "minValue": null,
          "minUnits": ""
        },
        "uses": {
          "autoDeductCharges": true,
          "autoDeductChargesCost": "1",
          "per": "",
          "value": 0,
          "maxFormula": ""
        },
        "measureTemplate": {
          "type": "",
          "size": "0",
          "overrideColor": false,
          "customColor": "",
          "overrideTexture": false,
          "customTexture": ""
        },
        "attackName": "",
        "actionType": "",
        "attackBonus": "",
        "critConfirmBonus": "",
        "damage": {
          "parts": [],
          "critParts": [],
          "nonCritParts": []
        },
        "attackParts": [],
        "formulaicAttacks": {
          "count": {
            "formula": ""
          },
          "bonus": {
            "formula": ""
          },
          "label": null
        },
        "formula": "",
        "ability": {
          "attack": "",
          "damage": "",
          "damageMult": 1,
          "critRange": 20,
          "critMult": 2
        },
        "save": {
          "dc": "0",
          "type": "",
          "description": ""
        },
        "effectNotes": [],
        "attackNotes": [],
        "soundEffect": "",
        "powerAttack": {
          "multiplier": "",
          "damageBonus": 2,
          "critMultiplier": 1
        },
        "naturalAttack": {
          "secondary": {
            "attackBonus": "-5",
            "damageMult": 0.5
          }
        },
        "nonlethal": false,
        "usesAmmo": false,
        "spellEffect": "",
        "spellArea": "",
        "conditionals": [],
        "enh": {
          "override": false,
          "value": 0
        }
      }
    ],
    "uses": {
      "per": ""
    },
    "attackNotes": [],
    "effectNotes": [],
    "links": {
      "children": []
    },
    "flags": {
      "boolean": [],
      "dictionary": []
    },
    "scriptCalls": [],
    "learnedAt": {
      "class": [
        ["witch", 5],
        ["inquisitor", 3],
        ["psychic", 5]
      ],
      "domain": [],
      "subDomain": [["Revelation", 3]],
      "elementalSchool": [],
      "bloodline": []
    },
    "level": 5,
    "school": "abj",
    "components": {
      "verbal": true,
      "somatic": true,
      "material": true
    },
    "materials": {
      "value": "a cold iron nail"
    },
    "sr": false,
    "shortDescription": "<p>With a melee touch attack you can dispel an illusion or return a creature to its natural form. This functions as <i>dispel magic</i> directed at the effect in question, except you receive a +2 enhancement bonus on your dispel check and you can only dispel illusions or changes in form created by supernatural effects or spells. If multiple effects are changing the creature's appearance, you can dispel one such effect for every four caster levels you possess, starting with the highest caster level spells and proceeding to spells with lower caster levels.</p><p>The caster level for supernatural abilities such as change shape is equal to the target creature's Hit Dice. A creature returned to its natural form by <i>banish seeming</i> is prevented from changing its form again for a number of rounds equal to your caster level.</p><p><i>Banish seeming</i> has no effect on nonmagical means of changing appearance, such as that provided by a disguise or extraordinary ability.</p>"
  },
  "effects": [],
  "folder": null,
  "sort": 0,
  "permission": {
    "default": 0
  },
  "flags": {}
}
