{
  "_id": "tuie9FyaP6e35qMf",
  "name": "Carve Passage",
  "type": "spell",
  "img": "icons/magic/earth/barrier-stone-brown-green.webp",
  "data": {
    "tags": [],
    "actions": [
      {
        "_id": "5tgcydqf80wj09jj",
        "name": "Use",
        "img": "icons/magic/earth/barrier-stone-brown-green.webp",
        "description": "",
        "activation": {
          "cost": 1,
          "type": "standard"
        },
        "unchainedAction": {
          "activation": {
            "cost": 1,
            "type": ""
          }
        },
        "duration": {
          "value": "instantaneous",
          "units": ""
        },
        "target": {
          "value": ""
        },
        "range": {
          "value": null,
          "units": "close",
          "maxIncrements": 1,
          "minValue": null,
          "minUnits": ""
        },
        "uses": {
          "autoDeductCharges": true,
          "autoDeductChargesCost": "1 + @sl",
          "per": null,
          "value": 0,
          "maxFormula": ""
        },
        "measureTemplate": {
          "type": "",
          "size": "",
          "overrideColor": false,
          "customColor": "",
          "overrideTexture": false,
          "customTexture": ""
        },
        "attackName": "",
        "actionType": "spellsave",
        "attackBonus": "",
        "critConfirmBonus": "",
        "damage": {
          "parts": [],
          "critParts": [],
          "nonCritParts": []
        },
        "attackParts": [],
        "formulaicAttacks": {
          "count": {
            "formula": ""
          },
          "bonus": {
            "formula": ""
          },
          "label": null
        },
        "formula": "",
        "ability": {
          "attack": null,
          "damage": "",
          "damageMult": 1,
          "critRange": 20,
          "critMult": 2
        },
        "save": {
          "dc": "0",
          "type": "",
          "description": "see text"
        },
        "effectNotes": [],
        "attackNotes": [],
        "soundEffect": "",
        "powerAttack": {
          "multiplier": "",
          "damageBonus": 2,
          "critMultiplier": 1
        },
        "naturalAttack": {
          "secondary": {
            "attackBonus": "-5",
            "damageMult": 0.5
          }
        },
        "nonlethal": false,
        "usesAmmo": false,
        "spellEffect": "",
        "spellArea": "dirt or loose rock in one 5-ft. cube/level",
        "conditionals": [],
        "enh": {
          "override": false,
          "value": 0
        }
      }
    ],
    "attackNotes": [],
    "effectNotes": [],
    "links": {
      "children": []
    },
    "scriptCalls": [],
    "learnedAt": {
      "class": [
        ["arcanist", 5],
        ["druid", 5],
        ["hunter", 5],
        ["sorcerer/wizard", 5]
      ],
      "domain": [],
      "subDomain": [],
      "elementalSchool": [],
      "bloodline": []
    },
    "level": 5,
    "school": "trs",
    "types": "earth",
    "components": {
      "verbal": true,
      "somatic": true,
      "focus": true
    },
    "materials": {
      "focus": "a tiny diamond pick worth 500 gp"
    },
    "spellbook": "",
    "sr": false,
    "shortDescription": "<p><span id=\"ctl00_MainContent_DataListTypes_ctl00_LabelName\">You can excavate and move an amount of snow, earth, dust, sand, and loose or packed rocks or ice chunks (each no more than 5 feet in diameter) whose volume fills one 5-foot cube per level. If you are buried, you can open a space around yourself and use any remaining cubes for tunneling. This spell is otherwise similar to @Compendium[pf1.spells.3v1k7qnzd13s5dj3]{Expeditious Excavation}. <em>Carve passage</em> has no effect on earth creatures or solid rock or ice.</span></p>"
  },
  "effects": [],
  "folder": null,
  "sort": 0,
  "permission": {
    "default": 0
  },
  "flags": {}
}
