{
  "_id": "3bdl22oblfph0n33",
  "name": "Conditional Favor",
  "type": "spell",
  "img": "systems/pf1/icons/misc/magic-swirl.png",
  "data": {
    "tags": [],
    "actions": [
      {
        "_id": "qkmhhyqvsun36q6v",
        "name": "Use",
        "img": "systems/pf1/icons/misc/magic-swirl.png",
        "description": "",
        "activation": {
          "cost": 1,
          "type": "swift"
        },
        "unchainedAction": {
          "activation": {
            "cost": 1,
            "type": "action"
          }
        },
        "duration": {
          "value": "1 day/level (D)",
          "units": ""
        },
        "target": {
          "value": "1 creature"
        },
        "range": {
          "value": null,
          "units": "",
          "maxIncrements": 1,
          "minValue": null,
          "minUnits": ""
        },
        "uses": {
          "autoDeductCharges": true,
          "autoDeductChargesCost": "1",
          "per": "",
          "value": 0,
          "maxFormula": ""
        },
        "measureTemplate": {
          "type": "",
          "size": "0",
          "overrideColor": false,
          "customColor": "",
          "overrideTexture": false,
          "customTexture": ""
        },
        "attackName": "",
        "actionType": "spellsave",
        "attackBonus": "",
        "critConfirmBonus": "",
        "damage": {
          "parts": [],
          "critParts": [],
          "nonCritParts": []
        },
        "attackParts": [],
        "formulaicAttacks": {
          "count": {
            "formula": ""
          },
          "bonus": {
            "formula": ""
          },
          "label": null
        },
        "formula": "",
        "ability": {
          "attack": "",
          "damage": "",
          "damageMult": 1,
          "critRange": 20,
          "critMult": 2
        },
        "save": {
          "dc": "0",
          "type": "",
          "description": "none (see below)"
        },
        "effectNotes": [],
        "attackNotes": [],
        "soundEffect": "",
        "powerAttack": {
          "multiplier": "",
          "damageBonus": 2,
          "critMultiplier": 1
        },
        "naturalAttack": {
          "secondary": {
            "attackBonus": "-5",
            "damageMult": 0.5
          }
        },
        "nonlethal": false,
        "usesAmmo": false,
        "spellEffect": "",
        "spellArea": "",
        "conditionals": [],
        "enh": {
          "override": false,
          "value": 0
        }
      }
    ],
    "uses": {
      "per": ""
    },
    "attackNotes": [],
    "effectNotes": [],
    "links": {
      "children": []
    },
    "flags": {
      "boolean": [],
      "dictionary": []
    },
    "scriptCalls": [],
    "learnedAt": {
      "class": [
        ["cleric/oracle", 2],
        ["bard", 2],
        ["paladin", 1],
        ["witch", 2],
        ["inquisitor", 2],
        ["antipaladin", 1],
        ["mesmerist", 2],
        ["occultist", 2]
      ],
      "domain": [],
      "subDomain": [],
      "elementalSchool": [],
      "bloodline": []
    },
    "level": 2,
    "school": "abj",
    "components": {
      "verbal": true
    },
    "shortDescription": "<p>You must cast this spell immediately before casting another spell on the same creature, eliciting a promise or warning against a behavior and binding the target to the paired spell. If you don't cast a paired spell, <i>conditional favor</i> has no effect. The paired spell must be from the abjuration, conjuration (healing), enchantment, or transmutation school or subschool, and must be cast on a willing creature. If the spell's recipient violates the oath or prohibition while <i>conditional favor</i> remains in effect, the paired spell is undone as if never cast. If the spell was a healing spell, the hit point damage or condition you removed returns immediately, even if the subject has enjoyed subsequent rest or healing. Poisons, diseases, curses, restored ability damage, and negative levels removed by the paired spell return as well.  <i>Conditional favor</i> recognizes the spirit of your condition and doesn't trigger a violation due to unintended consequences or circumstances that the subject could not predict with her current knowledge of the situation. For instance, if the prohibition prevented the subject from laying a finger on royalty, touching a disguised prince would not count as a violation if the subject did not recognize the prince, nor would touching a member of royalty while dominated. The subject of the spell intuitively knows beforehand whether an action will cause it to lose the paired spell's benefit.</p>"
  },
  "effects": [],
  "folder": null,
  "sort": 0,
  "permission": {
    "default": 0
  },
  "flags": {}
}
