{
  "_id": "gmgwyjfpeuuc4t4o",
  "name": "Dispel Magic",
  "type": "spell",
  "img": "systems/pf1/icons/misc/magic-swirl.png",
  "data": {
    "tags": [],
    "actions": [
      {
        "_id": "lqs5d6wvxet6j1fw",
        "name": "Use",
        "img": "systems/pf1/icons/misc/magic-swirl.png",
        "description": "",
        "activation": {
          "cost": 1,
          "type": "standard"
        },
        "unchainedAction": {
          "activation": {
            "cost": 2,
            "type": "action"
          }
        },
        "duration": {
          "value": "instantaneous",
          "units": ""
        },
        "target": {
          "value": "one spellcaster, creature, or object"
        },
        "range": {
          "value": null,
          "units": "medium",
          "maxIncrements": 1,
          "minValue": null,
          "minUnits": ""
        },
        "uses": {
          "autoDeductCharges": true,
          "autoDeductChargesCost": "1",
          "per": "",
          "value": 0,
          "maxFormula": ""
        },
        "measureTemplate": {
          "type": "",
          "size": "0",
          "overrideColor": false,
          "customColor": "",
          "overrideTexture": false,
          "customTexture": ""
        },
        "attackName": "",
        "actionType": "",
        "attackBonus": "",
        "critConfirmBonus": "",
        "damage": {
          "parts": [],
          "critParts": [],
          "nonCritParts": []
        },
        "attackParts": [],
        "formulaicAttacks": {
          "count": {
            "formula": ""
          },
          "bonus": {
            "formula": ""
          },
          "label": null
        },
        "formula": "",
        "ability": {
          "attack": "",
          "damage": "",
          "damageMult": 1,
          "critRange": 20,
          "critMult": 2
        },
        "save": {
          "dc": "0",
          "type": "",
          "description": ""
        },
        "effectNotes": [],
        "attackNotes": [],
        "soundEffect": "",
        "powerAttack": {
          "multiplier": "",
          "damageBonus": 2,
          "critMultiplier": 1
        },
        "naturalAttack": {
          "secondary": {
            "attackBonus": "-5",
            "damageMult": 0.5
          }
        },
        "nonlethal": false,
        "usesAmmo": false,
        "spellEffect": "",
        "spellArea": "one spellcaster, creature, or object",
        "conditionals": [],
        "enh": {
          "override": false,
          "value": 0
        }
      }
    ],
    "uses": {
      "per": ""
    },
    "attackNotes": [],
    "effectNotes": [],
    "links": {
      "children": []
    },
    "flags": {
      "boolean": [],
      "dictionary": []
    },
    "scriptCalls": [],
    "learnedAt": {
      "class": [
        ["sorcerer/wizard", 3],
        ["cleric/oracle", 3],
        ["druid", 4],
        ["bard", 3],
        ["paladin", 3],
        ["summoner", 3],
        ["witch", 3],
        ["inquisitor", 3],
        ["antipaladin", 3],
        ["magus", 3],
        ["shaman", 3],
        ["psychic", 3],
        ["medium", 3],
        ["mesmerist", 3],
        ["occultist", 3],
        ["spiritualist", 3],
        ["hunter", 4],
        ["unchained Summoner", 3]
      ],
      "domain": [["Magic", 3]],
      "subDomain": [["Entropy", 3]],
      "elementalSchool": [],
      "bloodline": [["Arcane", 3]]
    },
    "level": 3,
    "school": "abj",
    "components": {
      "verbal": true,
      "somatic": true
    },
    "sr": false,
    "shortDescription": "<p>You can use <i>dispel magic</i> to end one ongoing spell that has been cast on a creature or object, to temporarily suppress the magical abilities of a magic item, or to counter another spellcaster's spell. A dispelled spell ends as if its duration had expired. Some spells, as detailed in their descriptions, can't be defeated by <i>dispel magic</i>. <i><i>Dispel</i> magic</i> can dispel (but not counter) spell-like effects just as it does spells. The of a spell with an instantaneous duration can't be dispelled, because the magical effect is already over before the <i>dispel magic</i> can take effect.</p><p>You choose to use <i>dispel magic</i> in one of two ways: a targeted dispel or a counterspell.</p><p><i>Targeted</i> <i>Dispel</i>: One object, creature, or spell is the target of the <i>dispel magic</i> spell. You make one dispel check (1d20 + your caster level) and compare that to the spell with highest caster level (DC = 11 + the spell's caster level). If successful, that spell ends.</p><p>If not, compare the same result to the spell with the next highest caster level. Repeat this process until you have dispelled one spell affecting the target, or you have failed to dispel every spell.</p><p>For example, a 7th-level caster casts <i>dispel magic</i>, targeting a creature affected by <i>stoneskin</i> (caster level 12th) and <i>fly</i> (caster level 6th). The caster level check results in a 19. This check is not high enough to end the <i>stoneskin</i> (which would have required a 23 or higher), but it is high enough to end the <i>fly</i> (which only required a 17). Had the dispel check resulted in a 23 or higher, the <i>stoneskin</i> would have been dispelled, leaving the <i>fly</i> intact. Had the dispel check been a 16 or less, no spells would have been affected.</p><p>You can also use a targeted dispel to specifically end one spell affecting the target or one spell affecting an area (such as a <i>wall of</i> fire). You must name the specific spell effect to be targeted in this way. If your caster level check is equal to or higher than the DC of that spell, it ends. No other spells or effects on the target are dispelled if your check is not high enough to end the targeted effect.</p><p>If you target an object or creature that is the effect of an ongoing spell (such as a monster <i>summon</i>ed by <i>summon</i> monster), you make a dispel check to end the spell that conjured the object or creature.</p><p>If the object that you target is a magic item, you make a dispel check against the item's caster level (DC = 11 + the item's caster level). If you succeed, all the item's magical properties are suppressed for 1d4 rounds, after which the item recovers its magical properties. A suppressed item becomes nonmagical for the duration of the effect. An interdimensional opening (such as a <i>bag of</i> holding) is temporarily closed. A magic item's physical properties are unchanged: A suppressed magic sword is still a sword (a masterwork sword, in fact). Artifacts and deities are unaffected by mortal magic such as this.</p><p>You automatically succeed on your dispel check against any spell that you cast yourself.</p><p><i>Counterspell</i>: When <i>dispel magic</i> is used in this way, the spell targets a spellcaster and is cast as a counterspell. Unlike a true counterspell, however, <i>dispel magic</i> may not work; you must make a dispel check to counter the other spellcaster's spell.</p>"
  },
  "effects": [],
  "folder": null,
  "sort": 0,
  "permission": {
    "default": 0
  },
  "flags": {}
}
