{
  "_id": "62oq0e87kd4i36a7",
  "name": "Enemy Hammer",
  "type": "spell",
  "img": "systems/pf1/icons/misc/magic-swirl.png",
  "data": {
    "tags": [],
    "actions": [
      {
        "_id": "b6fvf86xxzgvp83i",
        "name": "Use",
        "img": "systems/pf1/icons/misc/magic-swirl.png",
        "description": "",
        "activation": {
          "cost": 1,
          "type": "standard"
        },
        "unchainedAction": {
          "activation": {
            "cost": 2,
            "type": "action"
          }
        },
        "duration": {
          "value": "1 round/level (D)",
          "units": ""
        },
        "target": {
          "value": "one creature"
        },
        "range": {
          "value": null,
          "units": "long",
          "maxIncrements": 1,
          "minValue": null,
          "minUnits": ""
        },
        "uses": {
          "autoDeductCharges": true,
          "autoDeductChargesCost": "1",
          "per": "",
          "value": 0,
          "maxFormula": ""
        },
        "measureTemplate": {
          "type": "",
          "size": "0",
          "overrideColor": false,
          "customColor": "",
          "overrideTexture": false,
          "customTexture": ""
        },
        "attackName": "",
        "actionType": "spellsave",
        "attackBonus": "",
        "critConfirmBonus": "",
        "damage": {
          "parts": [],
          "critParts": [],
          "nonCritParts": []
        },
        "attackParts": [],
        "formulaicAttacks": {
          "count": {
            "formula": ""
          },
          "bonus": {
            "formula": ""
          },
          "label": null
        },
        "formula": "",
        "ability": {
          "attack": "",
          "damage": "",
          "damageMult": 1,
          "critRange": 20,
          "critMult": 2
        },
        "save": {
          "dc": "0",
          "type": "fort",
          "description": "Fortitude partial"
        },
        "effectNotes": [],
        "attackNotes": [],
        "soundEffect": "",
        "powerAttack": {
          "multiplier": "",
          "damageBonus": 2,
          "critMultiplier": 1
        },
        "naturalAttack": {
          "secondary": {
            "attackBonus": "-5",
            "damageMult": 0.5
          }
        },
        "nonlethal": false,
        "usesAmmo": false,
        "spellEffect": "",
        "spellArea": "",
        "conditionals": [],
        "enh": {
          "override": false,
          "value": 0
        }
      }
    ],
    "uses": {
      "per": ""
    },
    "attackNotes": [],
    "effectNotes": [],
    "links": {
      "children": []
    },
    "flags": {
      "boolean": [],
      "dictionary": []
    },
    "scriptCalls": [],
    "learnedAt": {
      "class": [
        ["sorcerer/wizard", 6],
        ["psychic", 6],
        ["occultist", 6],
        ["spiritualist", 6]
      ],
      "domain": [],
      "subDomain": [],
      "elementalSchool": [],
      "bloodline": []
    },
    "level": 6,
    "school": "trs",
    "components": {
      "verbal": true,
      "somatic": true,
      "material": true
    },
    "materials": {
      "value": "puppet strings"
    },
    "shortDescription": "<p>You grab a creature with telekinesis and use it to batter nearby opponents or objects. You must target a specific creature when casting this spell and once you select that creature you cannot switch to another. Each round, as a standard action, you can attempt to hurl the target at any creature or object within 30 feet of it. You must make an attack roll whenever you use the target as a weapon. The attack bonus for this attack is equal to your caster level plus either your Intelligence or Charisma modifier (whichever is higher). If you successfully hit the new target with the creature both it and the creature take damage based on the creature's size.</p>    <table border ='1'><tr><th>Creature Size</th><th>Damage Dealt</th></tr><tr><td>Fine</td><td>1d4</td></tr><tr><td>Diminutive</td><td>1d6</td></tr><tr><td>Tiny</td><td>1d8</td></tr><tr><td>Small</td><td>1d10</td></tr><tr><td>Medium</td><td>2d6</td></tr><tr><td>Large</td><td>2d8</td></tr><tr><td>Huge</td><td>2d10</td></tr><tr><td>Gargantuan</td><td>3d6</td></tr><tr><td>Colossal</td><td>3d8</td></tr></table>     The target creature can make a Fortitude saving throw each time you attempt to use it as a weapon. If it makes its saving throw it can act normally, but if it fails its save it loses all actions for the round and ends its turn prone in a square adjacent to the target of your attack. However, if the creature chooses to resist your efforts to move it, taking no other actions for the round, it gets a +4 circumstance bonus on its saving throw. The spell ends immediately if the target creature dies or is destroyed.</p>"
  },
  "effects": [],
  "folder": null,
  "sort": 0,
  "permission": {
    "default": 0
  },
  "flags": {}
}
