{
  "_id": "nfm6i9z9r3n2fku7",
  "name": "Fire Shield",
  "type": "spell",
  "img": "systems/pf1/icons/misc/magic-swirl.png",
  "data": {
    "tags": [],
    "actions": [
      {
        "_id": "kl80oys15cmc29lx",
        "name": "Use",
        "img": "systems/pf1/icons/misc/magic-swirl.png",
        "description": "",
        "activation": {
          "cost": 1,
          "type": "standard"
        },
        "unchainedAction": {
          "activation": {
            "cost": 2,
            "type": "action"
          }
        },
        "duration": {
          "value": "1 round/level (D)",
          "units": ""
        },
        "target": {
          "value": "you"
        },
        "range": {
          "value": null,
          "units": "personal",
          "maxIncrements": 1,
          "minValue": null,
          "minUnits": ""
        },
        "uses": {
          "autoDeductCharges": true,
          "autoDeductChargesCost": "1",
          "per": "",
          "value": 0,
          "maxFormula": ""
        },
        "measureTemplate": {
          "type": "",
          "size": "0",
          "overrideColor": false,
          "customColor": "",
          "overrideTexture": false,
          "customTexture": ""
        },
        "attackName": "",
        "actionType": "",
        "attackBonus": "",
        "critConfirmBonus": "",
        "damage": {
          "parts": [],
          "critParts": [],
          "nonCritParts": []
        },
        "attackParts": [],
        "formulaicAttacks": {
          "count": {
            "formula": ""
          },
          "bonus": {
            "formula": ""
          },
          "label": null
        },
        "formula": "",
        "ability": {
          "attack": "",
          "damage": "",
          "damageMult": 1,
          "critRange": 20,
          "critMult": 2
        },
        "save": {
          "dc": "0",
          "type": "",
          "description": ""
        },
        "effectNotes": [],
        "attackNotes": [],
        "soundEffect": "",
        "powerAttack": {
          "multiplier": "",
          "damageBonus": 2,
          "critMultiplier": 1
        },
        "naturalAttack": {
          "secondary": {
            "attackBonus": "-5",
            "damageMult": 0.5
          }
        },
        "nonlethal": false,
        "usesAmmo": false,
        "spellEffect": "",
        "spellArea": "",
        "conditionals": [],
        "enh": {
          "override": false,
          "value": 0
        }
      }
    ],
    "uses": {
      "per": ""
    },
    "attackNotes": [],
    "effectNotes": [],
    "links": {
      "children": []
    },
    "flags": {
      "boolean": [],
      "dictionary": []
    },
    "scriptCalls": [],
    "learnedAt": {
      "class": [
        ["sorcerer/wizard", 4],
        ["alchemist", 4],
        ["summoner", 3],
        ["magus", 4],
        ["bloodrager", 4],
        ["occultist", 4],
        ["unchained Summoner", 4]
      ],
      "domain": [
        ["Fire", 5],
        ["Sun", 4]
      ],
      "subDomain": [],
      "elementalSchool": [],
      "bloodline": []
    },
    "level": 4,
    "school": "evo",
    "types": "fire or cold",
    "components": {
      "verbal": true,
      "somatic": true,
      "material": true
    },
    "materials": {
      "value": "phosphorus for the warm shield; a firefly or glowworm for the chill shield"
    },
    "sr": false,
    "shortDescription": "<p>This spell wreathes you in flame and causes damage to each creature that attacks you in melee. The flames also protect you from either cold-based or fire-based attacks, depending on if you choose cool or <i>warm</i> flames for your <i>fire shield</i>.</p><p>Any creature striking you with its body or a handheld weapon deals normal damage, but at the same time the attacker takes 1d6 points of damage + 1 point per caster level (maximum +15).</p><p>This damage is either cold damage (if you choose a <i><i>chill</i> shield)</i> or fire damage (if you choose a <i><i>warm</i> shield</i>). If the attacker has spell resistance, it applies to this effect. Creatures wielding melee weapons with reach are not subject to this damage if they attack you.</p><p>When casting this spell, you appear to immolate yourself, but the flames are thin and wispy, increasing the light level within 10 feet by one step, up to normal light. The color of the flames is blue or green if the <i>chill</i> shield is cast, violet or red if the <i><i>warm</i> shield</i> is employed. The special powers of each version are as follows.</p><p><i>Chill Shield</i>: The flames are cool to the touch. You take only half damage from fire-based attacks. If such an attack allows a Reflex save for half damage, you take no damage on a successful saving throw.</p><p><i>Warm Shield</i>: The flames are <i>warm</i> to the touch. You take only half damage from cold-based attacks. If such an attack allows a Reflex save for half damage, you take no damage on a successful saving throw.</p>"
  },
  "effects": [],
  "folder": null,
  "sort": 0,
  "permission": {
    "default": 0
  },
  "flags": {}
}
