{
  "_id": "0nm8l17dcr7oi7c3",
  "name": "Form of the Exotic Dragon III",
  "type": "spell",
  "img": "systems/pf1/icons/misc/magic-swirl.png",
  "data": {
    "tags": [],
    "actions": [
      {
        "_id": "pa9y461gzq4nfj3j",
        "name": "Use",
        "img": "systems/pf1/icons/misc/magic-swirl.png",
        "description": "",
        "activation": {
          "cost": 1,
          "type": "standard"
        },
        "unchainedAction": {
          "activation": {
            "cost": 2,
            "type": "action"
          }
        },
        "duration": {
          "value": "1 minute/level (D)",
          "units": ""
        },
        "target": {
          "value": "you"
        },
        "range": {
          "value": null,
          "units": "personal",
          "maxIncrements": 1,
          "minValue": null,
          "minUnits": ""
        },
        "uses": {
          "autoDeductCharges": true,
          "autoDeductChargesCost": "1",
          "per": "",
          "value": 0,
          "maxFormula": ""
        },
        "measureTemplate": {
          "type": "",
          "size": "0",
          "overrideColor": false,
          "customColor": "",
          "overrideTexture": false,
          "customTexture": ""
        },
        "attackName": "",
        "actionType": "spellsave",
        "attackBonus": "",
        "critConfirmBonus": "",
        "damage": {
          "parts": [],
          "critParts": [],
          "nonCritParts": []
        },
        "attackParts": [],
        "formulaicAttacks": {
          "count": {
            "formula": ""
          },
          "bonus": {
            "formula": ""
          },
          "label": null
        },
        "formula": "",
        "ability": {
          "attack": "",
          "damage": "",
          "damageMult": 1,
          "critRange": 20,
          "critMult": 2
        },
        "save": {
          "dc": "0",
          "type": "",
          "description": "see below"
        },
        "effectNotes": [],
        "attackNotes": [],
        "soundEffect": "",
        "powerAttack": {
          "multiplier": "",
          "damageBonus": 2,
          "critMultiplier": 1
        },
        "naturalAttack": {
          "secondary": {
            "attackBonus": "-5",
            "damageMult": 0.5
          }
        },
        "nonlethal": false,
        "usesAmmo": false,
        "spellEffect": "",
        "spellArea": "",
        "conditionals": [],
        "enh": {
          "override": false,
          "value": 0
        }
      }
    ],
    "uses": {
      "per": ""
    },
    "attackNotes": [],
    "effectNotes": [],
    "links": {
      "children": []
    },
    "flags": {
      "boolean": [],
      "dictionary": []
    },
    "scriptCalls": [],
    "learnedAt": {
      "class": [
        ["sorcerer/wizard", 8],
        ["druid", 9]
      ],
      "domain": [],
      "subDomain": [],
      "elementalSchool": [],
      "bloodline": []
    },
    "level": 8,
    "school": "trs",
    "subschool": "polymorph",
    "components": {
      "verbal": true,
      "somatic": true,
      "material": true
    },
    "materials": {
      "value": "a scale of the dragon type you plan to assume"
    },
    "sr": false,
    "shortDescription": "<p>This spell functions as per <i><i>Form of the Exotic Dragon I</i>I</i> except that it also allows you to take the form of a Huge imperial or primal dragon. Druids can choose from the primal dragon (brine, cloud, crystal, magma, or umbral) forms only. You gain the following abilities: a +10 size bonus to your Strength, a +8 size bonus to your Constitution, a +8 natural armor bonus, a fly speed of 120 feet (poor), blindsense with a range of 60 feet, darkvision with a range of 120 feet, a breath weapon, damage reduction 10/ magic, frightful presence (DC = DC for this spell), and immunity to one form of energy (of the same type <i>Form of the Exotic Dragon I</i> grants a resistance to, if any). You gain one bite attack (2d8), two claw attacks (2d6), a one tail slap attack (2d6), and either a gore attack (2d8) if you assume the form of an imperial dragon or two wing attacks (1d8) if you assume the form of a primal dragon. You can use the breath weapon as often as you like, but must wait 1d4 rounds between uses. All breath weapons deal 12d8 points of damage unless noted otherwise and allow a Reflex save to halve the normal damage. Line breath weapons increase to 100-foot lines and cones increase to 50-foot cones.</p>"
  },
  "effects": [],
  "folder": null,
  "sort": 0,
  "permission": {
    "default": 0
  },
  "flags": {}
}
