{
  "_id": "ofw6gnp6r7t2wcba",
  "name": "Geas, Lesser",
  "type": "spell",
  "img": "systems/pf1/icons/misc/magic-swirl.png",
  "data": {
    "tags": [],
    "actions": [
      {
        "_id": "iz0fvn0vsw30rsqu",
        "name": "Use",
        "img": "systems/pf1/icons/misc/magic-swirl.png",
        "description": "",
        "activation": {
          "cost": 1,
          "type": "round"
        },
        "unchainedAction": {
          "activation": {
            "cost": 3,
            "type": "action"
          }
        },
        "duration": {
          "value": "1 day/level or until discharged",
          "units": ""
        },
        "target": {
          "value": "one living creature with 7 HD or less"
        },
        "range": {
          "value": null,
          "units": "close",
          "maxIncrements": 1,
          "minValue": null,
          "minUnits": ""
        },
        "uses": {
          "autoDeductCharges": true,
          "autoDeductChargesCost": "1",
          "per": "",
          "value": 0,
          "maxFormula": ""
        },
        "measureTemplate": {
          "type": "",
          "size": "0",
          "overrideColor": false,
          "customColor": "",
          "overrideTexture": false,
          "customTexture": ""
        },
        "attackName": "",
        "actionType": "spellsave",
        "attackBonus": "",
        "critConfirmBonus": "",
        "damage": {
          "parts": [],
          "critParts": [],
          "nonCritParts": []
        },
        "attackParts": [],
        "formulaicAttacks": {
          "count": {
            "formula": ""
          },
          "bonus": {
            "formula": ""
          },
          "label": null
        },
        "formula": "",
        "ability": {
          "attack": "",
          "damage": "",
          "damageMult": 1,
          "critRange": 20,
          "critMult": 2
        },
        "save": {
          "dc": "0",
          "type": "will",
          "description": "Will negates"
        },
        "effectNotes": [],
        "attackNotes": [],
        "soundEffect": "",
        "powerAttack": {
          "multiplier": "",
          "damageBonus": 2,
          "critMultiplier": 1
        },
        "naturalAttack": {
          "secondary": {
            "attackBonus": "-5",
            "damageMult": 0.5
          }
        },
        "nonlethal": false,
        "usesAmmo": false,
        "spellEffect": "",
        "spellArea": "",
        "conditionals": [],
        "enh": {
          "override": false,
          "value": 0
        }
      }
    ],
    "uses": {
      "per": ""
    },
    "attackNotes": [],
    "effectNotes": [],
    "links": {
      "children": []
    },
    "flags": {
      "boolean": [],
      "dictionary": []
    },
    "scriptCalls": [],
    "learnedAt": {
      "class": [
        ["sorcerer/wizard", 4],
        ["bard", 3],
        ["witch", 4],
        ["inquisitor", 4],
        ["psychic", 4],
        ["mesmerist", 3]
      ],
      "domain": [],
      "subDomain": [],
      "elementalSchool": [],
      "bloodline": []
    },
    "level": 4,
    "school": "enc",
    "subschool": "compulsion",
    "types": "language-dependent, mind-affecting, curse",
    "components": {
      "verbal": true
    },
    "shortDescription": "<p>A <i>lesser <i>geas</i></i> places a magical command on a creature to carry out some service or to refrain from some action or course of activity, as desired by you. The creature must have 7 or fewer HD and be able to understand you. While a <i>geas</i> cannot compel a creature to kill itself or perform acts that would result in certain death, it can cause almost any other course of activity.</p><p>The <i>geas</i>ed creature must follow the given instructions until the <i>geas</i> is completed, no matter how long it takes.</p><p>If the instructions involve some open-ended task that the recipient cannot complete through his own actions, the spell remains in effect for a maximum of 1 day per caster level. A clever recipient can subvert some instructions.</p><p>If the subject is prevented from obeying the <i>lesser <i>geas</i></i> for 24 hours, it takes a -2 penalty to each of its ability scores. Each day, another -2 penalty accumulates, up to a total of -8. No ability score can be reduced to less than 1 by this effect. The ability score penalties are removed 24 hours after the subject resumes obeying the <i>lesser <i>geas</i></i>.</p><p>A <i>lesser <i>geas</i></i> (and all ability score penalties) can be ended by break enchantment, limited wish, remove curse, miracle, or <i>wish. Dispel magic</i> does not affect a <i>lesser <i>geas</i></i>.</p>"
  },
  "effects": [],
  "folder": null,
  "sort": 0,
  "permission": {
    "default": 0
  },
  "flags": {}
}
