{
  "_id": "522dibwtdu2g7sj0",
  "name": "Mad Sultan's Melody",
  "type": "spell",
  "img": "systems/pf1/icons/misc/magic-swirl.png",
  "data": {
    "tags": [],
    "actions": [
      {
        "_id": "jjt4uc26asi0ii7x",
        "name": "Use",
        "img": "systems/pf1/icons/misc/magic-swirl.png",
        "description": "",
        "activation": {
          "cost": 1,
          "type": "standard"
        },
        "unchainedAction": {
          "activation": {
            "cost": 2,
            "type": "action"
          }
        },
        "duration": {
          "value": "1 round/level (D)",
          "units": ""
        },
        "target": {
          "value": "one creature/2 levels, no two of which may be more than 30 ft. apart (see text)"
        },
        "range": {
          "value": null,
          "units": "close",
          "maxIncrements": 1,
          "minValue": null,
          "minUnits": ""
        },
        "uses": {
          "autoDeductCharges": true,
          "autoDeductChargesCost": "1",
          "per": "",
          "value": 0,
          "maxFormula": ""
        },
        "measureTemplate": {
          "type": "",
          "size": "0",
          "overrideColor": false,
          "customColor": "",
          "overrideTexture": false,
          "customTexture": ""
        },
        "attackName": "",
        "actionType": "spellsave",
        "attackBonus": "",
        "critConfirmBonus": "",
        "damage": {
          "parts": [],
          "critParts": [],
          "nonCritParts": []
        },
        "attackParts": [],
        "formulaicAttacks": {
          "count": {
            "formula": ""
          },
          "bonus": {
            "formula": ""
          },
          "label": null
        },
        "formula": "",
        "ability": {
          "attack": "",
          "damage": "",
          "damageMult": 1,
          "critRange": 20,
          "critMult": 2
        },
        "save": {
          "dc": "0",
          "type": "will",
          "description": "Will negates"
        },
        "effectNotes": [],
        "attackNotes": [],
        "soundEffect": "",
        "powerAttack": {
          "multiplier": "",
          "damageBonus": 2,
          "critMultiplier": 1
        },
        "naturalAttack": {
          "secondary": {
            "attackBonus": "-5",
            "damageMult": 0.5
          }
        },
        "nonlethal": false,
        "usesAmmo": false,
        "spellEffect": "",
        "spellArea": "",
        "conditionals": [],
        "enh": {
          "override": false,
          "value": 0
        }
      }
    ],
    "uses": {
      "per": ""
    },
    "attackNotes": [],
    "effectNotes": [],
    "links": {
      "children": []
    },
    "flags": {
      "boolean": [],
      "dictionary": []
    },
    "scriptCalls": [],
    "learnedAt": {
      "class": [
        ["sorcerer/wizard", 4],
        ["bard", 3],
        ["witch", 4],
        ["psychic", 4],
        ["mesmerist", 4],
        ["occultist", 4]
      ],
      "domain": [],
      "subDomain": [],
      "elementalSchool": [],
      "bloodline": []
    },
    "level": 4,
    "school": "enc",
    "subschool": "compulsion",
    "types": "mind-affecting, sonic",
    "components": {
      "verbal": true,
      "somatic": true,
      "focus": true
    },
    "materials": {
      "focus": "masterwork flute, pipe, or string instrument"
    },
    "shortDescription": "<p>You imitate the mad cacophony created by the awful beings associated with the Outer God, Azathoth. This spell targets only creatures with the ooze type, creatures with the amorphous special ability, and non-bipedal creatures with a special association with the Outer Gods. This music draws the targets' attention to the caster, as per the fascinate bardic performance. It affects mindless creatures despite the mindless quality typically granting immunity to mind-affecting effects, though it doesn't ignore any other immunity to mind-affecting effects the creature might have. The caster doesn't have to maintain the effect each round-the music continues for the duration of the spell. Creatures fascinated by mad sultan's melody become immune to any other casting of the spell for 24 hours after the spell ends, and the spell ends if the fascination breaks on any of its targets for any reason (such as an attack).  If you have the bardic performance class feature and the fascinate bardic performance, you can choose to use the spell's saving throw DC or a DC equal to 10 + 1/2 your levels in the class that grants you bardic performance + your Charisma modifier, whichever is higher. If you choose to use the latter DC, each round of the melody costs 1 round of bardic performance and it counts as an active performance for determining how many performances you can have active.  This spell takes a toll on the caster. Each time you cast it, you take 1d4 points of Wisdom damage. If your campaign uses the sanity system (see page 12), you instead take 2d6 points of sanity damage.</p>"
  },
  "effects": [],
  "folder": null,
  "sort": 0,
  "permission": {
    "default": 0
  },
  "flags": {}
}
