{
  "_id": "hx60zsl4o4pov0eh",
  "name": "Metabolic Molting",
  "type": "spell",
  "img": "systems/pf1/icons/misc/magic-swirl.png",
  "data": {
    "tags": [],
    "actions": [
      {
        "_id": "4wahe8wlwjf06chv",
        "name": "Use",
        "img": "systems/pf1/icons/misc/magic-swirl.png",
        "description": "",
        "activation": {
          "cost": 10,
          "type": "minute"
        },
        "unchainedAction": {
          "activation": {
            "cost": 10,
            "type": "minute"
          }
        },
        "duration": {
          "value": "see text",
          "units": ""
        },
        "target": {
          "value": "willing creature or dead body touched"
        },
        "range": {
          "value": null,
          "units": "touch",
          "maxIncrements": 1,
          "minValue": null,
          "minUnits": ""
        },
        "uses": {
          "autoDeductCharges": true,
          "autoDeductChargesCost": "1",
          "per": "",
          "value": 0,
          "maxFormula": ""
        },
        "measureTemplate": {
          "type": "",
          "size": "0",
          "overrideColor": false,
          "customColor": "",
          "overrideTexture": false,
          "customTexture": ""
        },
        "attackName": "",
        "actionType": "spellsave",
        "attackBonus": "",
        "critConfirmBonus": "",
        "damage": {
          "parts": [],
          "critParts": [],
          "nonCritParts": []
        },
        "attackParts": [],
        "formulaicAttacks": {
          "count": {
            "formula": ""
          },
          "bonus": {
            "formula": ""
          },
          "label": null
        },
        "formula": "",
        "ability": {
          "attack": "",
          "damage": "",
          "damageMult": 1,
          "critRange": 20,
          "critMult": 2
        },
        "save": {
          "dc": "0",
          "type": "will",
          "description": "Will negates (harmless)"
        },
        "effectNotes": [],
        "attackNotes": [],
        "soundEffect": "",
        "powerAttack": {
          "multiplier": "",
          "damageBonus": 2,
          "critMultiplier": 1
        },
        "naturalAttack": {
          "secondary": {
            "attackBonus": "-5",
            "damageMult": 0.5
          }
        },
        "nonlethal": false,
        "usesAmmo": false,
        "spellEffect": "",
        "spellArea": "",
        "conditionals": [],
        "enh": {
          "override": false,
          "value": 0
        }
      }
    ],
    "uses": {
      "per": ""
    },
    "attackNotes": [],
    "effectNotes": [],
    "links": {
      "children": []
    },
    "flags": {
      "boolean": [],
      "dictionary": []
    },
    "scriptCalls": [],
    "learnedAt": {
      "class": [
        ["cleric/oracle", 6],
        ["druid", 6],
        ["witch", 6],
        ["shaman", 6],
        ["hunter", 6]
      ],
      "domain": [],
      "subDomain": [],
      "elementalSchool": [],
      "bloodline": []
    },
    "level": 6,
    "school": "trs",
    "components": {
      "verbal": true,
      "somatic": true,
      "material": true
    },
    "materials": {
      "value": "a valuable gemstone worth at least 250 gp",
      "gpValue": 250
    },
    "spellbook": "",
    "preparation": {
      "autoDeductCharges": false,
      "spontaneousPrepared": false
    },
    "sr": false,
    "shortDescription": "<p>You encase the willing subject in a jeweled shell that has the same hardness and hit points as 5 inches of iron (hardness 10, hp 150). For 7 days, the subject enters a state of suspended animation (as per <i>temporal</i> stasis), during which it heals from even the most grievous wounds. Each day, the subject regains 5 hit points per Hit Die it has as well as recovering from 2 points of ability damage or ability drain from any ability score of its choice. After 7 days, the shell crumbles away and the subject emerges, its body's severed limbs, broken bones, and ruined organs regrown (as per regenerate).  If the gemstone you use for the component is worth at least 5,000 gp, <i>metabolic molting</i> can bring a target back to life, as long as it has been dead for no more than 1 hour when the spell is cast. When the spell is used on such a creature, the creature comes back to life after 7 days and stabilizes at 0 hit points. A creature brought back to life through <i>metabolic molting</i> gains 1 permanent negative level, or 2 points of Constitution drain if it is 1st level. Like <i>raise dead</i>, this spell can't save creatures slain by death effects.</p>"
  },
  "effects": [],
  "folder": null,
  "sort": 0,
  "permission": {
    "default": 0
  },
  "flags": {}
}
