{
  "_id": "suel7sgnztenv551",
  "name": "Miracle",
  "type": "spell",
  "img": "systems/pf1/icons/misc/magic-swirl.png",
  "data": {
    "tags": [],
    "actions": [
      {
        "_id": "jl1jor4xeor9de1a",
        "name": "Use",
        "img": "systems/pf1/icons/misc/magic-swirl.png",
        "description": "",
        "activation": {
          "cost": 1,
          "type": "standard"
        },
        "unchainedAction": {
          "activation": {
            "cost": 2,
            "type": "action"
          }
        },
        "duration": {
          "value": "see text",
          "units": ""
        },
        "target": {
          "value": ""
        },
        "range": {
          "value": null,
          "units": "",
          "maxIncrements": 1,
          "minValue": null,
          "minUnits": ""
        },
        "uses": {
          "autoDeductCharges": true,
          "autoDeductChargesCost": "1",
          "per": "",
          "value": 0,
          "maxFormula": ""
        },
        "measureTemplate": {
          "type": "",
          "size": "0",
          "overrideColor": false,
          "customColor": "",
          "overrideTexture": false,
          "customTexture": ""
        },
        "attackName": "",
        "actionType": "spellsave",
        "attackBonus": "",
        "critConfirmBonus": "",
        "damage": {
          "parts": [],
          "critParts": [],
          "nonCritParts": []
        },
        "attackParts": [],
        "formulaicAttacks": {
          "count": {
            "formula": ""
          },
          "bonus": {
            "formula": ""
          },
          "label": null
        },
        "formula": "",
        "ability": {
          "attack": "",
          "damage": "",
          "damageMult": 1,
          "critRange": 20,
          "critMult": 2
        },
        "save": {
          "dc": "0",
          "type": "",
          "description": "see text"
        },
        "effectNotes": [],
        "attackNotes": [],
        "soundEffect": "",
        "powerAttack": {
          "multiplier": "",
          "damageBonus": 2,
          "critMultiplier": 1
        },
        "naturalAttack": {
          "secondary": {
            "attackBonus": "-5",
            "damageMult": 0.5
          }
        },
        "nonlethal": false,
        "usesAmmo": false,
        "spellEffect": "",
        "spellArea": "see text",
        "conditionals": [],
        "enh": {
          "override": false,
          "value": 0
        }
      }
    ],
    "uses": {
      "per": ""
    },
    "attackNotes": [],
    "effectNotes": [],
    "links": {
      "children": []
    },
    "flags": {
      "boolean": [],
      "dictionary": []
    },
    "scriptCalls": [],
    "learnedAt": {
      "class": [["cleric/oracle", 9]],
      "domain": [
        ["Community", 9],
        ["Luck", 9]
      ],
      "subDomain": [["Divine", 9]],
      "elementalSchool": [],
      "bloodline": []
    },
    "level": 9,
    "school": "evo",
    "components": {
      "verbal": true
    },
    "shortDescription": "<p>You don't so much cast a <i>miracle</i> as request one. You state what you would like to have happen and request that your deity (or the power you pray to for spells) intercede.</p><p>A <i>miracle</i> can do any of the following things.</p><p><ul><li> Duplicate any cleric spell of 8th level or lower.</p><p><li> Duplicate any other spell of 7th level or lower.</p><p><li> Undo the harmful effects of certain spells, such as <i>feeblemind</i> or <i>insanity.</i></p><p><li> Have any effect whose power level is in line with the above effects.</ul></p><p>Alternatively, a cleric can make a very powerful request. Casting such a <i>miracle</i> costs the cleric 25,000 gp in powdered diamond because of the powerful divine energies involved. Examples of especially powerful <i>miracle</i>s of this sort could include the following: <ul><li> Swinging the tide of a battle in your favor by raising fallen allies to continue fighting.</p><p><li> Moving you and your allies, with all your and their gear, from one plane to a specific locale through planar barriers with no chance of error.</p><p><li> Protecting a city from an earthquake, volcanic eruption, flood, or other major natural disaster.</ul></p><p>In any event, a request that is out of line with the deity's (or alignment's) nature is refused.</p><p>A duplicated spell allows saving throws and spell resistance as normal, but the save DCs are as for a 9th-level spell. When a <i>miracle</i> spell duplicates a spell with a material component that costs more than 100 gp, you must provide that component.</p>"
  },
  "effects": [],
  "folder": null,
  "sort": 0,
  "permission": {
    "default": 0
  },
  "flags": {}
}
