{
  "_id": "y4b1zmhmsa0gvf06",
  "name": "Planar Binding, Lesser",
  "type": "spell",
  "img": "systems/pf1/icons/misc/magic-swirl.png",
  "data": {
    "tags": [],
    "actions": [
      {
        "_id": "jbgij5gk4xopv3w6",
        "name": "Use",
        "img": "systems/pf1/icons/misc/magic-swirl.png",
        "description": "",
        "activation": {
          "cost": 10,
          "type": "minute"
        },
        "unchainedAction": {
          "activation": {
            "cost": 10,
            "type": "minute"
          }
        },
        "duration": {
          "value": "instantaneous",
          "units": ""
        },
        "target": {
          "value": "one elemental or outsider with 6 HD or less"
        },
        "range": {
          "value": null,
          "units": "close",
          "maxIncrements": 1,
          "minValue": null,
          "minUnits": ""
        },
        "uses": {
          "autoDeductCharges": true,
          "autoDeductChargesCost": "1",
          "per": "",
          "value": 0,
          "maxFormula": ""
        },
        "measureTemplate": {
          "type": "",
          "size": "0",
          "overrideColor": false,
          "customColor": "",
          "overrideTexture": false,
          "customTexture": ""
        },
        "attackName": "",
        "actionType": "spellsave",
        "attackBonus": "",
        "critConfirmBonus": "",
        "damage": {
          "parts": [],
          "critParts": [],
          "nonCritParts": []
        },
        "attackParts": [],
        "formulaicAttacks": {
          "count": {
            "formula": ""
          },
          "bonus": {
            "formula": ""
          },
          "label": null
        },
        "formula": "",
        "ability": {
          "attack": "",
          "damage": "",
          "damageMult": 1,
          "critRange": 20,
          "critMult": 2
        },
        "save": {
          "dc": "0",
          "type": "will",
          "description": "Will negates"
        },
        "effectNotes": [],
        "attackNotes": [],
        "soundEffect": "",
        "powerAttack": {
          "multiplier": "",
          "damageBonus": 2,
          "critMultiplier": 1
        },
        "naturalAttack": {
          "secondary": {
            "attackBonus": "-5",
            "damageMult": 0.5
          }
        },
        "nonlethal": false,
        "usesAmmo": false,
        "spellEffect": "",
        "spellArea": "",
        "conditionals": [],
        "enh": {
          "override": false,
          "value": 0
        }
      }
    ],
    "uses": {
      "per": ""
    },
    "attackNotes": [],
    "effectNotes": [],
    "links": {
      "children": []
    },
    "flags": {
      "boolean": [],
      "dictionary": []
    },
    "scriptCalls": [],
    "learnedAt": {
      "class": [
        ["sorcerer/wizard", 5],
        ["summoner", 4],
        ["psychic", 5],
        ["medium", 4],
        ["occultist", 5],
        ["unchained Summoner", 5]
      ],
      "domain": [
        ["Rune", 5],
        ["Void", 4]
      ],
      "subDomain": [],
      "elementalSchool": [],
      "bloodline": []
    },
    "level": 5,
    "school": "con",
    "subschool": "calling",
    "types": "see text",
    "components": {
      "verbal": true,
      "somatic": true
    },
    "sr": false,
    "shortDescription": "<p>Casting this spell attempts a dangerous act: to lure a creature from another plane to a specifically prepared trap, which must lie within the spell's range. The called creature is held in the trap until it agrees to perform one service in return for its freedom.</p><p>To create the trap, you must use a <i>magic circle</i> spell, focused inward. The kind of creature to be bound must be known and stated. If you wish to call a specific individual, you must use that individual's proper name in casting the spell.</p><p>The target creature is allowed a Will saving throw. If the saving throw succeeds, the creature resists the spell. If the saving throw fails, the creature is immediately drawn to the trap (spell resistance does not keep it from being called). The creature can escape from the trap by successfully pitting its spell resistance against your caster level check, by dimensional travel, or with a successful Charisma check (DC 15 + 1/2 your caster level + your Charisma modifier). It can try each method once per day. If it breaks loose, it can flee or attack you. A <i>dimensional anchor</i> cast on the creature prevents its escape via dimensional travel. You can also employ a calling diagram (see <i>magic circle</i> against evil) to make the trap more secure.</p><p>If the creature does not break free of the trap, you can keep it bound for as long as you dare. You can attempt to compel the creature to perform a service by describing the service and perhaps offering some sort of reward. You make a Charisma check opposed by the creature's Charisma check. The check is assigned a bonus of +0 to +6 based on the nature of the service and the reward. If the creature wins the opposed check, it refuses service. New offers, bribes, and the like can be made or the old ones reoffered every 24 hours. This process can be repeated until the creature promises to serve, until it breaks free, or until you decide to get rid of it by means of some other spell. Impossible demands or unreasonable commands are never agreed to. If you ever roll a natural 1 on the Charisma check, the creature breaks free of the spell's effect and can escape or attack you.</p><p>Once the requested service is completed, the creature need only to inform you to be instantly sent back whence it came. The creature might later seek revenge. If you assign some open-ended task that the creature cannot complete through its own actions, the spell remains in effect for a maximum of 1 day per caster level, and the creature gains an immediate chance to break free (with the same chance to resist as when it was trapped). Note that a clever recipient can subvert some instructions.</p><p>When you use a calling spell to call an air, chaotic, earth, evil, fire, good, lawful, or water creature, it is a spell of that type.</p>"
  },
  "effects": [],
  "folder": null,
  "sort": 0,
  "permission": {
    "default": 0
  },
  "flags": {}
}
