{
  "_id": "v8jb71nag8rwiwps",
  "name": "Psychic Asylum",
  "type": "spell",
  "img": "systems/pf1/icons/misc/magic-swirl.png",
  "data": {
    "tags": [],
    "actions": [
      {
        "_id": "z8fh2lbzjigifmak",
        "name": "Use",
        "img": "systems/pf1/icons/misc/magic-swirl.png",
        "description": "",
        "activation": {
          "cost": 1,
          "type": "swift"
        },
        "unchainedAction": {
          "activation": {
            "cost": 1,
            "type": "action"
          }
        },
        "duration": {
          "value": "instantaneous; see text",
          "units": ""
        },
        "target": {
          "value": "you"
        },
        "range": {
          "value": null,
          "units": "personal",
          "maxIncrements": 1,
          "minValue": null,
          "minUnits": ""
        },
        "uses": {
          "autoDeductCharges": true,
          "autoDeductChargesCost": "1",
          "per": "",
          "value": 0,
          "maxFormula": ""
        },
        "measureTemplate": {
          "type": "",
          "size": "0",
          "overrideColor": false,
          "customColor": "",
          "overrideTexture": false,
          "customTexture": ""
        },
        "attackName": "",
        "actionType": "",
        "attackBonus": "",
        "critConfirmBonus": "",
        "damage": {
          "parts": [],
          "critParts": [],
          "nonCritParts": []
        },
        "attackParts": [],
        "formulaicAttacks": {
          "count": {
            "formula": ""
          },
          "bonus": {
            "formula": ""
          },
          "label": null
        },
        "formula": "",
        "ability": {
          "attack": "",
          "damage": "",
          "damageMult": 1,
          "critRange": 20,
          "critMult": 2
        },
        "save": {
          "dc": "0",
          "type": "",
          "description": ""
        },
        "effectNotes": [],
        "attackNotes": [],
        "soundEffect": "",
        "powerAttack": {
          "multiplier": "",
          "damageBonus": 2,
          "critMultiplier": 1
        },
        "naturalAttack": {
          "secondary": {
            "attackBonus": "-5",
            "damageMult": 0.5
          }
        },
        "nonlethal": false,
        "usesAmmo": false,
        "spellEffect": "",
        "spellArea": "",
        "conditionals": [],
        "enh": {
          "override": false,
          "value": 0
        }
      }
    ],
    "uses": {
      "per": ""
    },
    "attackNotes": [],
    "effectNotes": [],
    "links": {
      "children": []
    },
    "flags": {
      "boolean": [],
      "dictionary": []
    },
    "scriptCalls": [],
    "learnedAt": {
      "class": [
        ["sorcerer/wizard", 6],
        ["psychic", 5],
        ["mesmerist", 5]
      ],
      "domain": [],
      "subDomain": [],
      "elementalSchool": [],
      "bloodline": []
    },
    "level": 6,
    "school": "ill",
    "subschool": "phantasm",
    "types": "mind-affecting",
    "components": {
      "verbal": true,
      "somatic": true
    },
    "sr": false,
    "shortDescription": "<p>You retreat into a mindscape (see page 234) of your own making that allows you to perform a lengthy mental task in an instant. You create a mental landscape that provides succor and calm for you, such as a library, sitting room, garden, or childhood tree house. You can spend up to 15 minutes in your <i>psychic asylum</i>. While you are within, no time passes for your body, and when you emerge you can continue with your turn. The mindscape is overt, finite, and has a rapid passage of time.  While within the mindscape, you can consult any text, recall any conversation, or remember any image that you have been exposed to with perfect clarity and recollection, as if you had an eidetic memory. You must have seen or heard the material within a time frame of 1 week per level. For example, you might wish to reexamine a passage of text from an ancient manuscript you rapidly scanned in a library 2 weeks prior. While in the <i>psychic asylum</i>, you can perfectly recall the precise layout of the text  within the ancient manuscript and read it word for word. Once you emerge from the <i>psychic asylum</i>, you can recall the details of what you had just studied as clearly as if you had just looked at it, but you no longer have total recall of the material.  If you're able to prepare spells, you can use the time to prepare a single spell. For example, if you were poisoned, you could use your swift action to cast <i>psychic asylum</i>, pray and meditate for the full 15 minutes to gain <i>neutralize poison</i>, then emerge from the mindscape and immediately cast the spell upon yourself as your standard action.  Any mind-affecting spell that was affecting you before you cast the spell continues to expend its duration on you while you are within the <i>psychic asylum</i>, so you can use this spell to wait out the effects of such a condition. Effects that are currently affecting your body do not expend additional duration while you are in the <i>psychic asylum</i>, but you also don't experience their effects during the time spent there.</p>"
  },
  "effects": [],
  "folder": null,
  "sort": 0,
  "permission": {
    "default": 0
  },
  "flags": {}
}
