{
  "_id": "u7y6niex9e7tbhyp",
  "name": "Resurgent Transformation",
  "type": "spell",
  "img": "systems/pf1/icons/misc/magic-swirl.png",
  "data": {
    "tags": [],
    "actions": [
      {
        "_id": "hgitp387z2c37vk8",
        "name": "Use",
        "img": "systems/pf1/icons/misc/magic-swirl.png",
        "description": "",
        "activation": {
          "cost": 1,
          "type": "standard"
        },
        "unchainedAction": {
          "activation": {
            "cost": 2,
            "type": "action"
          }
        },
        "duration": {
          "value": "1 hour/level or until triggered, then 1 round/level",
          "units": ""
        },
        "target": {
          "value": "you"
        },
        "range": {
          "value": null,
          "units": "personal",
          "maxIncrements": 1,
          "minValue": null,
          "minUnits": ""
        },
        "uses": {
          "autoDeductCharges": true,
          "autoDeductChargesCost": "1",
          "per": "",
          "value": 0,
          "maxFormula": ""
        },
        "measureTemplate": {
          "type": "",
          "size": "0",
          "overrideColor": false,
          "customColor": "",
          "overrideTexture": false,
          "customTexture": ""
        },
        "attackName": "",
        "actionType": "heal",
        "attackBonus": "",
        "critConfirmBonus": "",
        "damage": {
          "parts": [],
          "critParts": [],
          "nonCritParts": []
        },
        "attackParts": [],
        "formulaicAttacks": {
          "count": {
            "formula": ""
          },
          "bonus": {
            "formula": ""
          },
          "label": null
        },
        "formula": "",
        "ability": {
          "attack": "",
          "damage": "",
          "damageMult": 1,
          "critRange": 20,
          "critMult": 2
        },
        "save": {
          "dc": "0",
          "type": "",
          "description": ""
        },
        "effectNotes": [],
        "attackNotes": [],
        "soundEffect": "",
        "powerAttack": {
          "multiplier": "",
          "damageBonus": 2,
          "critMultiplier": 1
        },
        "naturalAttack": {
          "secondary": {
            "attackBonus": "-5",
            "damageMult": 0.5
          }
        },
        "nonlethal": false,
        "usesAmmo": false,
        "spellEffect": "",
        "spellArea": "",
        "conditionals": [],
        "enh": {
          "override": false,
          "value": 0
        }
      }
    ],
    "uses": {
      "per": ""
    },
    "attackNotes": [],
    "effectNotes": [],
    "links": {
      "children": []
    },
    "flags": {
      "boolean": [],
      "dictionary": []
    },
    "scriptCalls": [],
    "learnedAt": {
      "class": [["alchemist", 5]],
      "domain": [],
      "subDomain": [],
      "elementalSchool": [],
      "bloodline": []
    },
    "level": 5,
    "school": "con",
    "subschool": "healing",
    "components": {
      "verbal": true,
      "somatic": true,
      "material": true
    },
    "materials": {
      "value": "a pinch of meteoric iron worth 100 gp",
      "gpValue": 100
    },
    "spellbook": "",
    "preparation": {
      "autoDeductCharges": false,
      "spontaneousPrepared": false
    },
    "sr": false,
    "shortDescription": "<p><i>Resurgent <i>transformation</i></i> grants you the ability to recover from deadly wounds with restored vitality and a will to fight, but at a price. Once cast, <i>resurgent <i>transformation</i></i> lies dormant for up to 1 hour per level until you are reduced to one-quarter hit points or less. Once triggered, you immediately gain a +4 enhancement bonus to Constitution and Strength, damage reduction 5/-, and the benefits of a <i>haste</i> spell. In addition, you heal 4d8 points of damage + 1 point per caster level (maximum +25). <i>Resurgent <i>transformation</i></i> can even save you from death by healing the damage from an otherwise mortal wound, though it does not prevent death from massive damage or from causes other than hit point loss. Your mental faculties are impaired by this magical <i>transformation</i>, however, causing 1d4 points of Intelligence and Wisdom damage.</p><p>The advantages from your <i>transformation</i> persist for 1 round per caster level after the spell is triggered. Once the spell ends, it takes a heavy toll, leaving you exhausted and inflicting 1d4 points of Constitution damage. Utilizing more than one <i>resurgent <i>transformation</i></i> in a day is particularly risky.</p><p>The expiration of a second <i>resurgent <i>transformation</i></i> in a 24- hour period inflicts an additional 1d4 points of Constitution damage and results in death from system shock unless you succeed at a DC 15 Fortitude save, made after the Constitution damage has been applied.</p><p>If the spell expires or is dispelled before the <i>transformation</i> has been triggered, no adverse effects result.</p>"
  },
  "effects": [],
  "folder": null,
  "sort": 0,
  "permission": {
    "default": 0
  },
  "flags": {}
}
