{
  "_id": "ej71zglog4w0ww74",
  "name": "Spectral Scout",
  "type": "spell",
  "img": "systems/pf1/icons/misc/magic-swirl.png",
  "data": {
    "tags": [],
    "actions": [
      {
        "_id": "0ko3vanerh3dovy1",
        "name": "Use",
        "img": "systems/pf1/icons/misc/magic-swirl.png",
        "description": "",
        "activation": {
          "cost": 1,
          "type": "minute"
        },
        "unchainedAction": {
          "activation": {
            "cost": 1,
            "type": "minute"
          }
        },
        "duration": {
          "value": "10 minutes/level (D)",
          "units": ""
        },
        "target": {
          "value": ""
        },
        "range": {
          "value": 1,
          "units": "mi",
          "maxIncrements": 1,
          "minValue": null,
          "minUnits": ""
        },
        "uses": {
          "autoDeductCharges": true,
          "autoDeductChargesCost": "1",
          "per": "",
          "value": 0,
          "maxFormula": ""
        },
        "measureTemplate": {
          "type": "",
          "size": "0",
          "overrideColor": false,
          "customColor": "",
          "overrideTexture": false,
          "customTexture": ""
        },
        "attackName": "",
        "actionType": "other",
        "attackBonus": "",
        "critConfirmBonus": "",
        "damage": {
          "parts": [],
          "critParts": [],
          "nonCritParts": []
        },
        "attackParts": [],
        "formulaicAttacks": {
          "count": {
            "formula": ""
          },
          "bonus": {
            "formula": ""
          },
          "label": null
        },
        "formula": "",
        "ability": {
          "attack": "",
          "damage": "",
          "damageMult": 1,
          "critRange": 20,
          "critMult": 2
        },
        "save": {
          "dc": "0",
          "type": "",
          "description": ""
        },
        "effectNotes": [],
        "attackNotes": [],
        "soundEffect": "",
        "powerAttack": {
          "multiplier": "",
          "damageBonus": 2,
          "critMultiplier": 1
        },
        "naturalAttack": {
          "secondary": {
            "attackBonus": "-5",
            "damageMult": 0.5
          }
        },
        "nonlethal": false,
        "usesAmmo": false,
        "spellEffect": "one incorporeal animal of size Tiny or smaller",
        "spellArea": "",
        "conditionals": [],
        "enh": {
          "override": false,
          "value": 0
        }
      }
    ],
    "uses": {
      "per": ""
    },
    "attackNotes": [],
    "effectNotes": [],
    "links": {
      "children": []
    },
    "flags": {
      "boolean": [],
      "dictionary": []
    },
    "scriptCalls": [],
    "learnedAt": {
      "class": [
        ["sorcerer/wizard", 3],
        ["druid", 3],
        ["ranger", 3],
        ["bard", 3],
        ["shaman", 3],
        ["hunter", 3]
      ],
      "domain": [],
      "subDomain": [],
      "elementalSchool": [],
      "bloodline": []
    },
    "level": 3,
    "school": "con",
    "subschool": "creation",
    "components": {
      "verbal": true,
      "somatic": true
    },
    "sr": false,
    "shortDescription": "<p>You summon a spectral creature in the shape of the Tiny or smaller animal of your choice, which always appears in your square. The creature emits a faint glow of a color you choose at the time of the spell's casting, providing the illumination of a candle. It has the same statistics as the creature after which it is modeled (including ability scores, Armor Class, feats, senses, skills, and speed), but is incorporeal and has only 1 hit point. A spectral scout cannot attack, but can otherwise follow any basic instructions that could be given to a pet or animal companion of similar intelligence but without the need to make Handle Animal skill checks.  A spectral scout can communicate verbally with the caster but can't be understood by others. A spectral scout can relay information it has directly witnessed with perfect clarity, including sights, sounds, and smells, but it cannot further interpret that information. For example, a spectral scout can report on how many individuals it sees, the direction they are going, and what equipment they carry; it can't tell the caster whether the people were friend or foe, or their objective.</p>"
  },
  "effects": [],
  "folder": null,
  "sort": 0,
  "permission": {
    "default": 0
  },
  "flags": {}
}
