{
  "_id": "vn14w3h9pfp7f5l0",
  "name": "Staggering Fall",
  "type": "spell",
  "img": "systems/pf1/icons/misc/magic-swirl.png",
  "data": {
    "tags": [],
    "actions": [
      {
        "_id": "atj3i6p7q5o7wqs0",
        "name": "Use",
        "img": "systems/pf1/icons/misc/magic-swirl.png",
        "description": "",
        "activation": {
          "cost": 1,
          "type": "immediate"
        },
        "unchainedAction": {
          "activation": {
            "cost": 1,
            "type": "reaction"
          }
        },
        "duration": {
          "value": "1 round/level (see below)",
          "units": ""
        },
        "target": {
          "value": "one falling creature"
        },
        "range": {
          "value": null,
          "units": "medium",
          "maxIncrements": 1,
          "minValue": null,
          "minUnits": ""
        },
        "uses": {
          "autoDeductCharges": true,
          "autoDeductChargesCost": "1",
          "per": "",
          "value": 0,
          "maxFormula": ""
        },
        "measureTemplate": {
          "type": "",
          "size": "0",
          "overrideColor": false,
          "customColor": "",
          "overrideTexture": false,
          "customTexture": ""
        },
        "attackName": "",
        "actionType": "spellsave",
        "attackBonus": "",
        "critConfirmBonus": "",
        "damage": {
          "parts": [],
          "critParts": [],
          "nonCritParts": []
        },
        "attackParts": [],
        "formulaicAttacks": {
          "count": {
            "formula": ""
          },
          "bonus": {
            "formula": ""
          },
          "label": null
        },
        "formula": "",
        "ability": {
          "attack": "",
          "damage": "",
          "damageMult": 1,
          "critRange": 20,
          "critMult": 2
        },
        "save": {
          "dc": "0",
          "type": "fort",
          "description": "Fort. partial (see below)"
        },
        "effectNotes": [],
        "attackNotes": [],
        "soundEffect": "",
        "powerAttack": {
          "multiplier": "",
          "damageBonus": 2,
          "critMultiplier": 1
        },
        "naturalAttack": {
          "secondary": {
            "attackBonus": "-5",
            "damageMult": 0.5
          }
        },
        "nonlethal": false,
        "usesAmmo": false,
        "spellEffect": "",
        "spellArea": "",
        "conditionals": [],
        "enh": {
          "override": false,
          "value": 0
        }
      }
    ],
    "uses": {
      "per": ""
    },
    "attackNotes": [],
    "effectNotes": [],
    "links": {
      "children": []
    },
    "flags": {
      "boolean": [],
      "dictionary": []
    },
    "scriptCalls": [],
    "learnedAt": {
      "class": [
        ["sorcerer/wizard", 2],
        ["cleric/oracle", 2],
        ["witch", 2]
      ],
      "domain": [],
      "subDomain": [],
      "elementalSchool": [],
      "bloodline": []
    },
    "level": 2,
    "school": "trs",
    "components": {
      "verbal": true,
      "somatic": true
    },
    "shortDescription": "<p>This spell must be cast on a creature as it falls, either from a height or after being knocked prone or tripped. The magic of this spell causes the creature to hit the ground particularly hard, knocking the wind from it. The creature takes an additional 1d6 points of damage from the fall. In addition, the creature becomes staggered for the duration of the spell unless it makes a Will save. Each round the spell's effects persist, the creature may attempt a new Will save as a free action to end the staggered effect early. A creature under the effects of this spell must take a standard action to stand up.</p>"
  },
  "effects": [],
  "folder": null,
  "sort": 0,
  "permission": {
    "default": 0
  },
  "flags": {}
}
