{
  "_id": "zy57obfx0z741g3o",
  "name": "Storm Sight",
  "type": "spell",
  "img": "systems/pf1/icons/misc/magic-swirl.png",
  "data": {
    "tags": [],
    "actions": [
      {
        "_id": "t0taubqhz8m039ix",
        "name": "Use",
        "img": "systems/pf1/icons/misc/magic-swirl.png",
        "description": "",
        "activation": {
          "cost": 1,
          "type": "round"
        },
        "unchainedAction": {
          "activation": {
            "cost": 3,
            "type": "action"
          }
        },
        "duration": {
          "value": "1 minute/level (D)",
          "units": ""
        },
        "target": {
          "value": "you"
        },
        "range": {
          "value": null,
          "units": "personal",
          "maxIncrements": 1,
          "minValue": null,
          "minUnits": ""
        },
        "uses": {
          "autoDeductCharges": true,
          "autoDeductChargesCost": "1",
          "per": "",
          "value": 0,
          "maxFormula": ""
        },
        "measureTemplate": {
          "type": "",
          "size": "0",
          "overrideColor": false,
          "customColor": "",
          "overrideTexture": false,
          "customTexture": ""
        },
        "attackName": "",
        "actionType": "spellsave",
        "attackBonus": "",
        "critConfirmBonus": "",
        "damage": {
          "parts": [],
          "critParts": [],
          "nonCritParts": []
        },
        "attackParts": [],
        "formulaicAttacks": {
          "count": {
            "formula": ""
          },
          "bonus": {
            "formula": ""
          },
          "label": null
        },
        "formula": "",
        "ability": {
          "attack": "",
          "damage": "",
          "damageMult": 1,
          "critRange": 20,
          "critMult": 2
        },
        "save": {
          "dc": "0",
          "type": "will",
          "description": "Will negates (harmless)"
        },
        "effectNotes": [],
        "attackNotes": [],
        "soundEffect": "",
        "powerAttack": {
          "multiplier": "",
          "damageBonus": 2,
          "critMultiplier": 1
        },
        "naturalAttack": {
          "secondary": {
            "attackBonus": "-5",
            "damageMult": 0.5
          }
        },
        "nonlethal": false,
        "usesAmmo": false,
        "spellEffect": "",
        "spellArea": "",
        "conditionals": [],
        "enh": {
          "override": false,
          "value": 0
        }
      }
    ],
    "uses": {
      "per": ""
    },
    "attackNotes": [],
    "effectNotes": [],
    "links": {
      "children": []
    },
    "flags": {
      "boolean": [],
      "dictionary": []
    },
    "scriptCalls": [],
    "learnedAt": {
      "class": [
        ["sorcerer/wizard", 2],
        ["cleric/oracle", 2],
        ["druid", 2],
        ["witch", 2],
        ["shaman", 2],
        ["hunter", 2]
      ],
      "domain": [],
      "subDomain": [],
      "elementalSchool": [],
      "bloodline": []
    },
    "level": 2,
    "school": "div",
    "subschool": "scrying",
    "components": {
      "verbal": true,
      "somatic": true,
      "focus": true
    },
    "materials": {
      "focus": "a storm, either natural or magical"
    },
    "shortDescription": "<p>You step into any magical or naturally occurring storm and commune directly with the power of the wind and rain. This spell allows the storm's power to fill you, granting you knowledge and images of what else lies within its reach. As long as you remain within the storm, you can concentrate on it for 1 minute to determine whether or not other living creatures with an Intelligence score of 3 or higher are caught in the storm within 400 feet of you. Due to the nature of the spell, you do not need to attempt concentration checks against violent wind or storms when casting the spell, but other elements that might disrupt spellcasting require checks as normal. While the spell is in effect, you no longer need to attempt concentration checks as a result of wind or storms for spells you cast or concentrate on. Once you've sensed creatures with this spell by concentrating for 1 minute, you can continue concentrating to learn more. After you concentrate for 1 additional round, the spell reveals to you via winds and rain the presence of any Small or larger living creature with an Intelligence of 3 or higher within 400 feet of you. After 2 consecutive rounds of concentration, you learn the approximate distance to the detected life forms from your current location. After 3 rounds of concentration, the rain and winds allow you to determine the approximate direction of each life form. Once you've concentrated in this way for 3 rounds, you gain a bonus equal to half your caster level on your next initiative check during the spell's duration.</p>"
  },
  "effects": [],
  "folder": null,
  "sort": 0,
  "permission": {
    "default": 0
  },
  "flags": {}
}
