{
  "_id": "4fsqwcplksc1xdj9",
  "name": "Wall of Bone",
  "type": "spell",
  "img": "systems/pf1/icons/misc/magic-swirl.png",
  "data": {
    "tags": [],
    "actions": [
      {
        "_id": "23f1u26yqv5wv9f8",
        "name": "Use",
        "img": "systems/pf1/icons/misc/magic-swirl.png",
        "description": "",
        "activation": {
          "cost": 1,
          "type": "standard"
        },
        "unchainedAction": {
          "activation": {
            "cost": 2,
            "type": "action"
          }
        },
        "duration": {
          "value": "1 minute/level",
          "units": ""
        },
        "target": {
          "value": ""
        },
        "range": {
          "value": null,
          "units": "close",
          "maxIncrements": 1,
          "minValue": null,
          "minUnits": ""
        },
        "uses": {
          "autoDeductCharges": true,
          "autoDeductChargesCost": "1",
          "per": "",
          "value": 0,
          "maxFormula": ""
        },
        "measureTemplate": {
          "type": "",
          "size": "0",
          "overrideColor": false,
          "customColor": "",
          "overrideTexture": false,
          "customTexture": ""
        },
        "attackName": "",
        "actionType": "other",
        "attackBonus": "",
        "critConfirmBonus": "",
        "damage": {
          "parts": [],
          "critParts": [],
          "nonCritParts": []
        },
        "attackParts": [],
        "formulaicAttacks": {
          "count": {
            "formula": ""
          },
          "bonus": {
            "formula": ""
          },
          "label": null
        },
        "formula": "",
        "ability": {
          "attack": "",
          "damage": "",
          "damageMult": 1,
          "critRange": 20,
          "critMult": 2
        },
        "save": {
          "dc": "0",
          "type": "",
          "description": ""
        },
        "effectNotes": [],
        "attackNotes": [],
        "soundEffect": "",
        "powerAttack": {
          "multiplier": "",
          "damageBonus": 2,
          "critMultiplier": 1
        },
        "naturalAttack": {
          "secondary": {
            "attackBonus": "-5",
            "damageMult": 0.5
          }
        },
        "nonlethal": false,
        "usesAmmo": false,
        "spellEffect": "solid wall of humanoid bones with an area of up to one 5-ft. square/level",
        "spellArea": "",
        "conditionals": [],
        "enh": {
          "override": false,
          "value": 0
        }
      }
    ],
    "uses": {
      "per": ""
    },
    "attackNotes": [],
    "effectNotes": [],
    "links": {
      "children": []
    },
    "flags": {
      "boolean": [],
      "dictionary": []
    },
    "scriptCalls": [],
    "learnedAt": {
      "class": [
        ["sorcerer/wizard", 4],
        ["cleric/oracle", 4],
        ["antipaladin", 4],
        ["bloodrager", 4],
        ["psychic", 4],
        ["spiritualist", 4]
      ],
      "domain": [],
      "subDomain": [],
      "elementalSchool": [],
      "bloodline": []
    },
    "level": 4,
    "school": "nec",
    "components": {
      "verbal": true,
      "somatic": true,
      "material": true
    },
    "materials": {
      "value": "a polished humanoid femur"
    },
    "shortDescription": "<p>This spell creates a vertical wall of skeletal arms that attaches itself to any solid surface. The <i>Wall of Bone</i> works identically to <i>Wall of Stone</i> e xcept a s n oted a bove a nd i n t his s pell description. The <i>Wall of Bone</i> is 1 inch thick per 4 caster levels and composed of up to one 5-foot square per level. The wall created must be vertical, and must rest upon a firm foundation. It cannot be used to bridge a chasm, for instance, or to act as a ramp. Each 5-foot square of the wall has hardness 4 and 7 hit points per inch of thickness. A section of wall whose hit points drops to 0 is breached. If a creature tries to break through the wall with a single attack, the DC of the Strength check is equal to 15 + 2 per inch of thickness.  For each creature adjacent to the wall, the skeletal hands attempt a combat maneuver check to grapple it. The skeletal hands do not provoke attacks of opportunity. They make their attacks at the start of your turn, when the wall is summoned, or when an enemy first moves adjacent to the wall. The skeletal hands' CMB is equal to your caster level, and they can grapple a Huge or smaller creature with no penalty.  If the wall successfully grapples a foe, that foe takes 1d6 points of damage and gains the grappled condition. Grappled opponents cannot move without first breaking the grapple. All other movement is prohibited unless the creature breaks the grapple first. The wall cannot move or pin foes. Each round the wall succeeds at a grapple combat maneuver check, it deals 1d6 additional points of damage. The CMD of the wall, for the purposes of escaping the grapple, is equal to 10 + its CMB.</p>"
  },
  "effects": [],
  "folder": null,
  "sort": 0,
  "permission": {
    "default": 0
  },
  "flags": {}
}
