{
  "_id": "77bihy40diufd6p1",
  "name": "Wall of Suppression",
  "type": "spell",
  "img": "systems/pf1/icons/misc/magic-swirl.png",
  "data": {
    "tags": [],
    "actions": [
      {
        "_id": "phmq4lehredjyeg3",
        "name": "Use",
        "img": "systems/pf1/icons/misc/magic-swirl.png",
        "description": "",
        "activation": {
          "cost": 1,
          "type": "standard"
        },
        "unchainedAction": {
          "activation": {
            "cost": 2,
            "type": "action"
          }
        },
        "duration": {
          "value": "10 minutes/level; see text",
          "units": ""
        },
        "target": {
          "value": ""
        },
        "range": {
          "value": null,
          "units": "medium",
          "maxIncrements": 1,
          "minValue": null,
          "minUnits": ""
        },
        "uses": {
          "autoDeductCharges": true,
          "autoDeductChargesCost": "1",
          "per": "",
          "value": 0,
          "maxFormula": ""
        },
        "measureTemplate": {
          "type": "",
          "size": "0",
          "overrideColor": false,
          "customColor": "",
          "overrideTexture": false,
          "customTexture": ""
        },
        "attackName": "",
        "actionType": "other",
        "attackBonus": "",
        "critConfirmBonus": "",
        "damage": {
          "parts": [],
          "critParts": [],
          "nonCritParts": []
        },
        "attackParts": [],
        "formulaicAttacks": {
          "count": {
            "formula": ""
          },
          "bonus": {
            "formula": ""
          },
          "label": null
        },
        "formula": "",
        "ability": {
          "attack": "",
          "damage": "",
          "damageMult": 1,
          "critRange": 20,
          "critMult": 2
        },
        "save": {
          "dc": "0",
          "type": "",
          "description": ""
        },
        "effectNotes": [],
        "attackNotes": [],
        "soundEffect": "",
        "powerAttack": {
          "multiplier": "",
          "damageBonus": 2,
          "critMultiplier": 1
        },
        "naturalAttack": {
          "secondary": {
            "attackBonus": "-5",
            "damageMult": 0.5
          }
        },
        "nonlethal": false,
        "usesAmmo": false,
        "spellEffect": "anti-magic wall occupying up to two 5 ft. cubes/level (S)",
        "spellArea": "",
        "conditionals": [],
        "enh": {
          "override": false,
          "value": 0
        }
      }
    ],
    "uses": {
      "per": ""
    },
    "attackNotes": [],
    "effectNotes": [],
    "links": {
      "children": []
    },
    "flags": {
      "boolean": [],
      "dictionary": []
    },
    "scriptCalls": [],
    "learnedAt": {
      "class": [
        ["sorcerer/wizard", 9],
        ["psychic", 9]
      ],
      "domain": [],
      "subDomain": [],
      "elementalSchool": [],
      "bloodline": []
    },
    "level": 9,
    "school": "abj",
    "components": {
      "verbal": true,
      "somatic": true,
      "material": true
    },
    "materials": {
      "value": "powdered adamantine worth 1,000 gp",
      "gpValue": 1000
    },
    "spellbook": "",
    "preparation": {
      "autoDeductCharges": false,
      "spontaneousPrepared": false
    },
    "sr": false,
    "shortDescription": "<p>You create a <i>wall of</i> glittering motes that suppresses or even negates any magical effect passing through it. The wall appears to have no actual substance and does not physically obstruct or impede anything attempting to move through it. However, the wall exerts a powerful anti-magical effect.</p><p>Any magic item or magical spell or effect of your caster level or lower that passes through the wall is suppressed for 1 round per level. Spells or effects with durations expire normally, even while thus suppressed. A spell or with a duration greater than that of the suppression resumes functioning normally when the suppression ends.</p><p>The wall affects all magical effects, including spells, spelllike abilities, magical items, and any effects stemming from them that pass through the wall. The wall does not suppress a creature's ability to cast spells, use spell-like abilities, or any other sort of limited-use abilities even if the wall suppresses a particular application of those abilities. However, if a creature with magical abilities that are constant or otherwise always active passes through the wall, those abilities are suppressed for the normal duration.</p><p>The wall blocks line of effect, so no spell or effect can pass through the wall, but it does not block line of sight. Magic items or spell effects with a higher caster level than yours are unaffected by the <i>wall of</i> suppression. The wall does not affect artifacts, anything stemming from the direct action of a deity, or similarly powerful sorts of magic.</p>"
  },
  "effects": [],
  "folder": null,
  "sort": 0,
  "permission": {
    "default": 0
  },
  "flags": {}
}
