{
  "_id": "ohptcds1d5oG6Bjh",
  "name": "Paladin",
  "type": "class",
  "img": "systems/pf1/icons/spells/protect-royal-3.jpg",
  "data": {
    "description": {
      "value": "<p>Through a select, worthy few shines the power of the divine. Called paladins, these noble souls dedicate their swords and lives to the battle against evil. Knights, crusaders, and law-bringers, paladins seek not just to spread divine justice but to embody the teachings of the virtuous deities they serve. In pursuit of their lofty goals, they adhere to ironclad laws of morality and discipline. As reward for their righteousness, these holy champions are blessed with boons to aid them in their quests: powers to banish evil, heal the innocent, and inspire the faithful. Although their convictions might lead them into conflict with the very souls they would save, paladins weather endless challenges of faith and dark temptations, risking their lives to do right and fighting to bring about a brighter future.</p>\n<p><strong>Role</strong>: Paladins serve as beacons for their allies within the chaos of battle. While deadly opponents of evil, they can also empower goodly souls to aid in their crusades. Their magic and martial skills also make them well suited to defending others and blessing the fallen with the strength to continue fighting.</p>\n<p><strong>Alignment</strong>: Lawful good</p>\n<p><strong>Hit Die</strong>: d10</p>\n<p><strong>Starting Wealth</strong>: 5d6 × 10 gp (average 175 gp.) In addition, each character begins play with an outfit worth 10 gp or less.</p>\n<h2><span id=\"Class_Skills\">Class Skills</span></h2>\n<p>The paladin’s class skills are&nbsp;<a href=\"https://www.d20pfsrd.com/skills/craft\">Craft</a>&nbsp;(<a href=\"https://www.d20pfsrd.com/basics-ability-scores/ability-scores#TOC-Intelligence-Int-\">Int</a>),&nbsp;<a href=\"https://www.d20pfsrd.com/skills/diplomacy\">Diplomacy</a>&nbsp;(<a href=\"https://www.d20pfsrd.com/basics-ability-scores/ability-scores#TOC-Charisma-Cha-\">Cha</a>),&nbsp;<a href=\"https://www.d20pfsrd.com/skills/handle-animal\">Handle Animal</a>&nbsp;(<a href=\"https://www.d20pfsrd.com/basics-ability-scores/ability-scores#TOC-Charisma-Cha-\">Cha</a>),&nbsp;<a href=\"https://www.d20pfsrd.com/skills/heal\">Heal</a>&nbsp;(<a href=\"https://www.d20pfsrd.com/basics-ability-scores/ability-scores#TOC-Wisdom-Wis-\">Wis</a>),&nbsp;<a href=\"https://www.d20pfsrd.com/skills/knowledge\">Knowledge</a>&nbsp;(nobility) (<a href=\"https://www.d20pfsrd.com/basics-ability-scores/ability-scores#TOC-Intelligence-Int-\">Int</a>),&nbsp;<a href=\"https://www.d20pfsrd.com/skills/knowledge\">Knowledge</a>&nbsp;(religion) (<a href=\"https://www.d20pfsrd.com/basics-ability-scores/ability-scores#TOC-Intelligence-Int-\">Int</a>),&nbsp;<a href=\"https://www.d20pfsrd.com/skills/profession\">Profession</a>&nbsp;(<a href=\"https://www.d20pfsrd.com/basics-ability-scores/ability-scores#TOC-Wisdom-Wis-\">Wis</a>),&nbsp;<a href=\"https://www.d20pfsrd.com/skills/ride\">Ride</a>&nbsp;(<a href=\"https://www.d20pfsrd.com/basics-ability-scores/ability-scores#TOC-Dexterity-Dex-\">Dex</a>),&nbsp;<a href=\"https://www.d20pfsrd.com/skills/sense-motive\">Sense Motive</a>&nbsp;(<a href=\"https://www.d20pfsrd.com/basics-ability-scores/ability-scores#TOC-Wisdom-Wis-\">Wis</a>), and&nbsp;<a href=\"https://www.d20pfsrd.com/skills/spellcraft\">Spellcraft</a>&nbsp;(<a href=\"https://www.d20pfsrd.com/basics-ability-scores/ability-scores#TOC-Intelligence-Int-\">Int</a>).</p>\n<p><strong>Skill Ranks per Level</strong>: 2 + <a href=\"https://www.d20pfsrd.com/basics-ability-scores/ability-scores#TOC-Intelligence-Int-\">Int</a>&nbsp;modifier.</p>"
    },
    "tags": [],
    "changes": [],
    "links": {
      "children": [],
      "classAssociations": [
        {
          "id": "pf1.class-abilities.nzqkSBc6tvAqG8o2",
          "dataType": "compendium",
          "name": "Aura of Good",
          "img": "systems/pf1/icons/feats/extra-mercy.jpg",
          "hiddenLinks": {},
          "level": 1,
          "_index": 0
        },
        {
          "id": "pf1.class-abilities.2YqtYAfLcV7KWkpJ",
          "dataType": "compendium",
          "name": "Detect Evil",
          "img": "systems/pf1/icons/feats/greater-feint.png",
          "hiddenLinks": {},
          "level": 1,
          "_index": 1
        },
        {
          "id": "pf1.class-abilities.2TsDfK0SKC8IGVx4",
          "dataType": "compendium",
          "name": "Smite Evil",
          "img": "systems/pf1/icons/feats/greater-weapon-focus.jpg",
          "hiddenLinks": {},
          "level": 1,
          "_index": 2
        },
        {
          "id": "pf1.class-abilities.eYuNS8kf9Z3V6kjO",
          "dataType": "compendium",
          "name": "Divine Grace",
          "img": "systems/pf1/icons/feats/alignment-channel.jpg",
          "hiddenLinks": {},
          "level": 2,
          "_index": 3
        },
        {
          "id": "pf1.class-abilities.WhE4j0Jc82npdMCP",
          "dataType": "compendium",
          "name": "Lay on Hands",
          "img": "systems/pf1/icons/feats/extra-lay-on-hands.jpg",
          "hiddenLinks": {},
          "level": 2,
          "_index": 4
        },
        {
          "id": "pf1.class-abilities.RNIkkvqaq2iVrahs",
          "dataType": "compendium",
          "name": "Aura of Courage",
          "img": "systems/pf1/icons/feats/greater-spell-focus.jpg",
          "hiddenLinks": {},
          "level": 3,
          "_index": 5
        },
        {
          "id": "pf1.class-abilities.C5tWPm12qyz5ND9u",
          "dataType": "compendium",
          "name": "Divine Health",
          "img": "systems/pf1/icons/feats/selective-channeling.jpg",
          "hiddenLinks": {},
          "level": 3,
          "_index": 6
        },
        {
          "id": "pf1.class-abilities.Er8h3fZ2edJEviTv",
          "dataType": "compendium",
          "name": "Mercy",
          "img": "systems/pf1/icons/feats/toughness.jpg",
          "hiddenLinks": {},
          "level": 3,
          "_index": 7
        },
        {
          "id": "pf1.class-abilities.tHObxrPeyhimmz9V",
          "dataType": "compendium",
          "name": "Channel Positive Energy",
          "img": "systems/pf1/icons/feats/blinding-critical.jpg",
          "hiddenLinks": {},
          "level": 4,
          "_index": 8
        },
        {
          "id": "pf1.class-abilities.z4NJaCcj9VZpBv7d",
          "dataType": "compendium",
          "name": "Divine Bond",
          "img": "systems/pf1/icons/feats/animal-affinity.jpg",
          "hiddenLinks": {},
          "level": 5,
          "_index": 9
        },
        {
          "id": "pf1.class-abilities.jiBCmy0kP1Uwaz0D",
          "dataType": "compendium",
          "name": "Aura of Resolve",
          "img": "systems/pf1/icons/feats/heighten-spell.jpg",
          "hiddenLinks": {},
          "level": 8,
          "_index": 10
        },
        {
          "id": "pf1.class-abilities.wHfy3OJmTimVgXuO",
          "dataType": "compendium",
          "name": "Aura of Justice",
          "img": "systems/pf1/icons/feats/critical-focus.jpg",
          "hiddenLinks": {},
          "level": 11,
          "_index": 11
        },
        {
          "id": "pf1.class-abilities.cUv3fmnuhtQjgQM5",
          "dataType": "compendium",
          "name": "Aura of Faith",
          "img": "systems/pf1/icons/feats/channel-smite.jpg",
          "hiddenLinks": {},
          "level": 14,
          "_index": 12
        },
        {
          "id": "pf1.class-abilities.iFq0EX4yovswIox9",
          "dataType": "compendium",
          "name": "Aura of Righteousness",
          "img": "systems/pf1/icons/feats/spellbreaker.jpg",
          "hiddenLinks": {},
          "level": 17,
          "_index": 13
        },
        {
          "id": "pf1.class-abilities.BPRtCoYTMDwsITXJ",
          "dataType": "compendium",
          "name": "Holy Champion",
          "img": "systems/pf1/icons/feats/spell-penetration.jpg",
          "hiddenLinks": {},
          "level": 20,
          "_index": 14
        }
      ]
    },
    "tag": "paladin",
    "useCustomTag": true,
    "armorProf": {
      "value": ["lgt", "med", "hvy", "shl"]
    },
    "weaponProf": {
      "value": ["sim", "mar"]
    },
    "languages": {
      "value": []
    },
    "flags": {
      "boolean": [],
      "dictionary": []
    },
    "scriptCalls": [],
    "hd": 10,
    "hp": 10,
    "bab": "high",
    "skillsPerLevel": 2,
    "savingThrows": {
      "fort": {
        "value": "high"
      },
      "will": {
        "value": "high"
      }
    },
    "classSkills": {
      "crf": true,
      "acr": false,
      "apr": false,
      "art": false,
      "blf": false,
      "clm": false,
      "dip": true,
      "dev": false,
      "dis": false,
      "esc": false,
      "fly": false,
      "han": true,
      "hea": true,
      "int": false,
      "kar": false,
      "kdu": false,
      "ken": false,
      "kge": false,
      "khi": false,
      "klo": false,
      "kna": false,
      "kno": true,
      "kpl": false,
      "kre": true,
      "lin": false,
      "lor": false,
      "per": false,
      "prf": false,
      "pro": true,
      "rid": true,
      "sen": true,
      "slt": false,
      "spl": true,
      "ste": false,
      "sur": false,
      "swm": false,
      "umd": false
    }
  },
  "effects": [],
  "folder": null,
  "sort": 0,
  "permission": {
    "default": 0
  },
  "flags": {}
}
