{
  "_id": "HhV5UmaRLTjtB3Xh",
  "name": "Perform",
  "permission": {
    "default": 0
  },
  "folder": "",
  "flags": {},
  "content": "<p><strong>Source</strong>&nbsp;<a href=\"http://paizo.com/pathfinderRPG/v5748btpy88yj\" target=\"_blank\" rel=\"noopener\">PRPG Core Rulebook pg. 102</a><br>You are skilled at one form of entertainment, from singing to acting to playing an instrument. Like @Compendium[pf1.skills.L6LEhHRrn53cMuhE]{Craft}, @Compendium[pf1.skills.ki0QvL0K7u4YuK0O]{Knowledge}, and @Compendium[pf1.skills.O7Utk8xKbHYDP7Ot]{Profession}, Perform is actually a number of separate skills. You could have several Perform skills, each with its own ranks.</p>\n<p>Each of the nine categories of the Perform skill includes a variety of methods, instruments, or techniques, a small sample of which is provided for each category below.</p>\n<ul>\n<li><strong>Act</strong> (comedy, drama, pantomime)</li>\n<li><strong>Comedy</strong> (buffoonery, limericks, joke-telling)</li>\n<li><strong>Dance</strong> (ballet, waltz, jig)</li>\n<li><strong>Keyboard instruments</strong> (harpsichord, piano, pipe organ)</li>\n<li><strong>Oratory</strong> (epic, ode, storytelling)</li>\n<li><strong>Percussion instruments</strong> (bells, chimes, drums, gong)</li>\n<li><strong>String instruments</strong> (fiddle, harp, lute, mandolin)</li>\n<li><strong>Wind instruments</strong> (flute, pan pipes, recorder, trumpet)</li>\n<li><strong>Sing</strong> (ballad, chant, melody)</li>\n</ul>\n<p><strong>Check:</strong> You can impress audiences with your talent and skill in your chosen performance type.</p>\n<table>\n<thead>\n<tr>\n<td scope=\"col\">Perform DC</td>\n<td scope=\"col\">Performance</td>\n</tr>\n</thead>\n<tbody>\n<tr>\n<td>10</td>\n<td>Routine performance. Trying to earn money by playing in public is akin to begging. You can earn 1d10 cp/day.</td>\n</tr>\n<tr>\n<td>15</td>\n<td>Enjoyable performance. In a prosperous city, you can earn 1d10 sp/day.</td>\n</tr>\n<tr>\n<td>20</td>\n<td>Great performance. In a prosperous city, you can earn 3d10 sp/day. In time, you may be invited to join a professional troupe and may develop a regional reputation.</td>\n</tr>\n<tr>\n<td>25</td>\n<td>Memorable performance. In a prosperous city, you can earn 1d6 gp/day. In time, you may come to the attention of noble patrons and develop a national reputation.</td>\n</tr>\n<tr>\n<td>30</td>\n<td>Extraordinary performance. In a prosperous city, you can earn 3d6 gp/day. In time, you may draw attention from distant patrons, or even from extraplanar beings.</td>\n</tr>\n</tbody>\n</table>\n<p>A masterwork musical instrument gives you a +2 circumstance bonus on all Perform checks that involve its use.</p>\n<p><strong>Action:</strong> Varies. Trying to earn money by playing in public requires anywhere from an evening’s work to a full day’s performance. The @Compendium[pf1.classes.6GjOjO6r3R06fLwE]{Bard}’s special Perform-based abilities are described in that class’s description.</p>\n<p><strong>Try Again:</strong> Yes. Retries are allowed, but they don’t negate previous failures, and an audience that has been unimpressed in the past is likely to be prejudiced against future performances. (Increase the DC by 2 for each previous failure.)</p>\n<p><strong>Special:</strong> A @Compendium[pf1.classes.6GjOjO6r3R06fLwE]{Bard} must have ranks in specific Perform categories to use some of his Bardic Performance abilities.</p>\n<h1>Unchained - Skill Unlock</h1>\n<p><strong>Source</strong>&nbsp;<a href=\"http://paizo.com/products/btpy9c25?Pathfinder-Roleplaying-Game-Pathfinder-Unchained\" target=\"_blank\" rel=\"noopener\">Pathfinder Unchained pg. 85</a><br>With sufficient ranks in Perform, you earn the following.</p>\n<p><strong>5 Ranks:</strong> Whenever you attempt a @Compendium[pf1.skills.pAB2PYkZO3lsmeaC]{Bluff}, @Compendium[pf1.skills.OtfbHJhIQsNzmiTN]{Diplomacy}, @Compendium[pf1.skills.fXauAodbOBHBi7Mj]{Handle Animal}, or @Compendium[pf1.skills.ImjhcPmm02QSCbPg]{Intimidate} check, you can attempt a DC 20 Perform check to gain a +2 circumstance bonus on the check.</p>\n<p><strong>10 Ranks:</strong> Whenever you cast a spell with the emotion or language-dependent descriptor, you can attempt a DC 25 Perform check to increase the save DC by 1.</p>\n<p><strong>15 Ranks:</strong> Whenever you cast a spell with the emotion or language-dependent descriptor, you can attempt a DC 30 Perform check to increase your caster level by 1. You must choose whether to use this ability or the ability unlocked at 10 ranks when casting the spell.</p>\n<p><strong>20 Ranks:</strong> Choose one of the following skills: @Compendium[pf1.skills.pAB2PYkZO3lsmeaC]{Bluff}, @Compendium[pf1.skills.OtfbHJhIQsNzmiTN]{Diplomacy}, or @Compendium[pf1.skills.ImjhcPmm02QSCbPg]{Intimidate}. When you attempt a skill check with that skill, you can also attempt a Perform check and use the better result to determine the success of that skill check.</p>"
}
